Atividade3_1/simulation/qsim/po.msim.vcd
$comment
	File created using the following command:
		vcd file po.msim.vcd -direction
$end
$date
	Sat Nov 16 22:23:26 2019
$end
$version
	ModelSim Version 10.5b
$end
$timescale
	1ps
$end

$scope module po_vhd_vec_tst $end
$var wire 1 ! a_e_z $end
$var wire 1 " a_lt_z $end
$var wire 1 # clk $end
$var wire 1 $ clr $end
$var wire 1 % cnt $end
$var wire 1 & input [15] $end
$var wire 1 ' input [14] $end
$var wire 1 ( input [13] $end
$var wire 1 ) input [12] $end
$var wire 1 * input [11] $end
$var wire 1 + input [10] $end
$var wire 1 , input [9] $end
$var wire 1 - input [8] $end
$var wire 1 . input [7] $end
$var wire 1 / input [6] $end
$var wire 1 0 input [5] $end
$var wire 1 1 input [4] $end
$var wire 1 2 input [3] $end
$var wire 1 3 input [2] $end
$var wire 1 4 input [1] $end
$var wire 1 5 input [0] $end
$var wire 1 6 ld_a $end
$var wire 1 7 ld_b $end
$var wire 1 8 quotient [15] $end
$var wire 1 9 quotient [14] $end
$var wire 1 : quotient [13] $end
$var wire 1 ; quotient [12] $end
$var wire 1 < quotient [11] $end
$var wire 1 = quotient [10] $end
$var wire 1 > quotient [9] $end
$var wire 1 ? quotient [8] $end
$var wire 1 @ quotient [7] $end
$var wire 1 A quotient [6] $end
$var wire 1 B quotient [5] $end
$var wire 1 C quotient [4] $end
$var wire 1 D quotient [3] $end
$var wire 1 E quotient [2] $end
$var wire 1 F quotient [1] $end
$var wire 1 G quotient [0] $end
$var wire 1 H rest [15] $end
$var wire 1 I rest [14] $end
$var wire 1 J rest [13] $end
$var wire 1 K rest [12] $end
$var wire 1 L rest [11] $end
$var wire 1 M rest [10] $end
$var wire 1 N rest [9] $end
$var wire 1 O rest [8] $end
$var wire 1 P rest [7] $end
$var wire 1 Q rest [6] $end
$var wire 1 R rest [5] $end
$var wire 1 S rest [4] $end
$var wire 1 T rest [3] $end
$var wire 1 U rest [2] $end
$var wire 1 V rest [1] $end
$var wire 1 W rest [0] $end
$var wire 1 X slt_a $end
$var wire 1 Y sub_add $end
$var wire 1 Z ud $end

$scope module i1 $end
$var wire 1 [ gnd $end
$var wire 1 \ vcc $end
$var wire 1 ] unknown $end
$var wire 1 ^ devoe $end
$var wire 1 _ devclrn $end
$var wire 1 ` devpor $end
$var wire 1 a ww_devoe $end
$var wire 1 b ww_devclrn $end
$var wire 1 c ww_devpor $end
$var wire 1 d ww_clk $end
$var wire 1 e ww_clr $end
$var wire 1 f ww_ld_a $end
$var wire 1 g ww_ld_b $end
$var wire 1 h ww_slt_a $end
$var wire 1 i ww_cnt $end
$var wire 1 j ww_ud $end
$var wire 1 k ww_sub_add $end
$var wire 1 l ww_input [15] $end
$var wire 1 m ww_input [14] $end
$var wire 1 n ww_input [13] $end
$var wire 1 o ww_input [12] $end
$var wire 1 p ww_input [11] $end
$var wire 1 q ww_input [10] $end
$var wire 1 r ww_input [9] $end
$var wire 1 s ww_input [8] $end
$var wire 1 t ww_input [7] $end
$var wire 1 u ww_input [6] $end
$var wire 1 v ww_input [5] $end
$var wire 1 w ww_input [4] $end
$var wire 1 x ww_input [3] $end
$var wire 1 y ww_input [2] $end
$var wire 1 z ww_input [1] $end
$var wire 1 { ww_input [0] $end
$var wire 1 | ww_a_lt_z $end
$var wire 1 } ww_a_e_z $end
$var wire 1 ~ ww_quotient [15] $end
$var wire 1 !! ww_quotient [14] $end
$var wire 1 "! ww_quotient [13] $end
$var wire 1 #! ww_quotient [12] $end
$var wire 1 $! ww_quotient [11] $end
$var wire 1 %! ww_quotient [10] $end
$var wire 1 &! ww_quotient [9] $end
$var wire 1 '! ww_quotient [8] $end
$var wire 1 (! ww_quotient [7] $end
$var wire 1 )! ww_quotient [6] $end
$var wire 1 *! ww_quotient [5] $end
$var wire 1 +! ww_quotient [4] $end
$var wire 1 ,! ww_quotient [3] $end
$var wire 1 -! ww_quotient [2] $end
$var wire 1 .! ww_quotient [1] $end
$var wire 1 /! ww_quotient [0] $end
$var wire 1 0! ww_rest [15] $end
$var wire 1 1! ww_rest [14] $end
$var wire 1 2! ww_rest [13] $end
$var wire 1 3! ww_rest [12] $end
$var wire 1 4! ww_rest [11] $end
$var wire 1 5! ww_rest [10] $end
$var wire 1 6! ww_rest [9] $end
$var wire 1 7! ww_rest [8] $end
$var wire 1 8! ww_rest [7] $end
$var wire 1 9! ww_rest [6] $end
$var wire 1 :! ww_rest [5] $end
$var wire 1 ;! ww_rest [4] $end
$var wire 1 <! ww_rest [3] $end
$var wire 1 =! ww_rest [2] $end
$var wire 1 >! ww_rest [1] $end
$var wire 1 ?! ww_rest [0] $end
$var wire 1 @! \clk~inputclkctrl_INCLK_bus\ [3] $end
$var wire 1 A! \clk~inputclkctrl_INCLK_bus\ [2] $end
$var wire 1 B! \clk~inputclkctrl_INCLK_bus\ [1] $end
$var wire 1 C! \clk~inputclkctrl_INCLK_bus\ [0] $end
$var wire 1 D! \a_lt_z~output_o\ $end
$var wire 1 E! \a_e_z~output_o\ $end
$var wire 1 F! \quotient[0]~output_o\ $end
$var wire 1 G! \quotient[1]~output_o\ $end
$var wire 1 H! \quotient[2]~output_o\ $end
$var wire 1 I! \quotient[3]~output_o\ $end
$var wire 1 J! \quotient[4]~output_o\ $end
$var wire 1 K! \quotient[5]~output_o\ $end
$var wire 1 L! \quotient[6]~output_o\ $end
$var wire 1 M! \quotient[7]~output_o\ $end
$var wire 1 N! \quotient[8]~output_o\ $end
$var wire 1 O! \quotient[9]~output_o\ $end
$var wire 1 P! \quotient[10]~output_o\ $end
$var wire 1 Q! \quotient[11]~output_o\ $end
$var wire 1 R! \quotient[12]~output_o\ $end
$var wire 1 S! \quotient[13]~output_o\ $end
$var wire 1 T! \quotient[14]~output_o\ $end
$var wire 1 U! \quotient[15]~output_o\ $end
$var wire 1 V! \rest[0]~output_o\ $end
$var wire 1 W! \rest[1]~output_o\ $end
$var wire 1 X! \rest[2]~output_o\ $end
$var wire 1 Y! \rest[3]~output_o\ $end
$var wire 1 Z! \rest[4]~output_o\ $end
$var wire 1 [! \rest[5]~output_o\ $end
$var wire 1 \! \rest[6]~output_o\ $end
$var wire 1 ]! \rest[7]~output_o\ $end
$var wire 1 ^! \rest[8]~output_o\ $end
$var wire 1 _! \rest[9]~output_o\ $end
$var wire 1 `! \rest[10]~output_o\ $end
$var wire 1 a! \rest[11]~output_o\ $end
$var wire 1 b! \rest[12]~output_o\ $end
$var wire 1 c! \rest[13]~output_o\ $end
$var wire 1 d! \rest[14]~output_o\ $end
$var wire 1 e! \rest[15]~output_o\ $end
$var wire 1 f! \clk~input_o\ $end
$var wire 1 g! \slt_a~input_o\ $end
$var wire 1 h! \input[15]~input_o\ $end
$var wire 1 i! \ld_a~input_o\ $end
$var wire 1 j! \reg_a~15_combout\ $end
$var wire 1 k! \ld_b~input_o\ $end
$var wire 1 l! \sub_add~input_o\ $end
$var wire 1 m! \process_0~2_combout\ $end
$var wire 1 n! \clk~inputclkctrl_outclk\ $end
$var wire 1 o! \clr~input_o\ $end
$var wire 1 p! \reg_b~15_combout\ $end
$var wire 1 q! \Add0~64_combout\ $end
$var wire 1 r! \input[14]~input_o\ $end
$var wire 1 s! \reg_b~14_combout\ $end
$var wire 1 t! \Add0~60_combout\ $end
$var wire 1 u! \input[13]~input_o\ $end
$var wire 1 v! \reg_b~13_combout\ $end
$var wire 1 w! \Add0~56_combout\ $end
$var wire 1 x! \input[12]~input_o\ $end
$var wire 1 y! \reg_b~12_combout\ $end
$var wire 1 z! \Add0~52_combout\ $end
$var wire 1 {! \input[11]~input_o\ $end
$var wire 1 |! \reg_b~11_combout\ $end
$var wire 1 }! \Add0~48_combout\ $end
$var wire 1 ~! \input[10]~input_o\ $end
$var wire 1 !" \reg_b~10_combout\ $end
$var wire 1 "" \Add0~44_combout\ $end
$var wire 1 #" \input[9]~input_o\ $end
$var wire 1 $" \reg_b~9_combout\ $end
$var wire 1 %" \Add0~40_combout\ $end
$var wire 1 &" \input[8]~input_o\ $end
$var wire 1 '" \reg_b~8_combout\ $end
$var wire 1 (" \Add0~36_combout\ $end
$var wire 1 )" \input[7]~input_o\ $end
$var wire 1 *" \reg_b~7_combout\ $end
$var wire 1 +" \Add0~32_combout\ $end
$var wire 1 ," \input[6]~input_o\ $end
$var wire 1 -" \reg_b~6_combout\ $end
$var wire 1 ." \Add0~28_combout\ $end
$var wire 1 /" \input[5]~input_o\ $end
$var wire 1 0" \reg_b~5_combout\ $end
$var wire 1 1" \Add0~24_combout\ $end
$var wire 1 2" \input[4]~input_o\ $end
$var wire 1 3" \reg_b~4_combout\ $end
$var wire 1 4" \Add0~20_combout\ $end
$var wire 1 5" \input[3]~input_o\ $end
$var wire 1 6" \reg_b~3_combout\ $end
$var wire 1 7" \Add0~16_combout\ $end
$var wire 1 8" \input[2]~input_o\ $end
$var wire 1 9" \reg_b~2_combout\ $end
$var wire 1 :" \Add0~12_combout\ $end
$var wire 1 ;" \input[1]~input_o\ $end
$var wire 1 <" \reg_b~1_combout\ $end
$var wire 1 =" \Add0~8_combout\ $end
$var wire 1 >" \input[0]~input_o\ $end
$var wire 1 ?" \reg_b~0_combout\ $end
$var wire 1 @" \Add0~0_combout\ $end
$var wire 1 A" \Add0~1_combout\ $end
$var wire 1 B" \process_0~1_combout\ $end
$var wire 1 C" \Add0~3_cout\ $end
$var wire 1 D" \Add0~4_combout\ $end
$var wire 1 E" \Add0~6_combout\ $end
$var wire 1 F" \Add0~7_combout\ $end
$var wire 1 G" \reg_a~0_combout\ $end
$var wire 1 H" \Add0~5\ $end
$var wire 1 I" \Add0~9_combout\ $end
$var wire 1 J" \Add0~11_combout\ $end
$var wire 1 K" \reg_a~1_combout\ $end
$var wire 1 L" \Add0~10\ $end
$var wire 1 M" \Add0~13_combout\ $end
$var wire 1 N" \Add0~15_combout\ $end
$var wire 1 O" \reg_a~2_combout\ $end
$var wire 1 P" \Add0~14\ $end
$var wire 1 Q" \Add0~17_combout\ $end
$var wire 1 R" \Add0~19_combout\ $end
$var wire 1 S" \reg_a~3_combout\ $end
$var wire 1 T" \Add0~18\ $end
$var wire 1 U" \Add0~21_combout\ $end
$var wire 1 V" \Add0~23_combout\ $end
$var wire 1 W" \reg_a~4_combout\ $end
$var wire 1 X" \Add0~22\ $end
$var wire 1 Y" \Add0~25_combout\ $end
$var wire 1 Z" \Add0~27_combout\ $end
$var wire 1 [" \reg_a~5_combout\ $end
$var wire 1 \" \Add0~26\ $end
$var wire 1 ]" \Add0~29_combout\ $end
$var wire 1 ^" \Add0~31_combout\ $end
$var wire 1 _" \reg_a~6_combout\ $end
$var wire 1 `" \Add0~30\ $end
$var wire 1 a" \Add0~33_combout\ $end
$var wire 1 b" \Add0~35_combout\ $end
$var wire 1 c" \reg_a~7_combout\ $end
$var wire 1 d" \Add0~34\ $end
$var wire 1 e" \Add0~37_combout\ $end
$var wire 1 f" \Add0~39_combout\ $end
$var wire 1 g" \reg_a~8_combout\ $end
$var wire 1 h" \Add0~38\ $end
$var wire 1 i" \Add0~41_combout\ $end
$var wire 1 j" \Add0~43_combout\ $end
$var wire 1 k" \reg_a~9_combout\ $end
$var wire 1 l" \Add0~42\ $end
$var wire 1 m" \Add0~45_combout\ $end
$var wire 1 n" \Add0~47_combout\ $end
$var wire 1 o" \reg_a~10_combout\ $end
$var wire 1 p" \Add0~46\ $end
$var wire 1 q" \Add0~49_combout\ $end
$var wire 1 r" \Add0~51_combout\ $end
$var wire 1 s" \reg_a~11_combout\ $end
$var wire 1 t" \Add0~50\ $end
$var wire 1 u" \Add0~53_combout\ $end
$var wire 1 v" \Add0~55_combout\ $end
$var wire 1 w" \reg_a~12_combout\ $end
$var wire 1 x" \Add0~54\ $end
$var wire 1 y" \Add0~57_combout\ $end
$var wire 1 z" \Add0~59_combout\ $end
$var wire 1 {" \reg_a~13_combout\ $end
$var wire 1 |" \Add0~58\ $end
$var wire 1 }" \Add0~61_combout\ $end
$var wire 1 ~" \Add0~63_combout\ $end
$var wire 1 !# \reg_a~14_combout\ $end
$var wire 1 "# \Add0~62\ $end
$var wire 1 ## \Add0~65_combout\ $end
$var wire 1 $# \Add0~67_combout\ $end
$var wire 1 %# \Equal0~3_combout\ $end
$var wire 1 &# \Equal0~1_combout\ $end
$var wire 1 '# \Equal0~2_combout\ $end
$var wire 1 (# \Equal0~0_combout\ $end
$var wire 1 )# \Equal0~4_combout\ $end
$var wire 1 *# \process_0~0_combout\ $end
$var wire 1 +# \Equal0~5_combout\ $end
$var wire 1 ,# \a_lt_z$latch~combout\ $end
$var wire 1 -# \count[0]~16_combout\ $end
$var wire 1 .# \cnt~input_o\ $end
$var wire 1 /# \count[0]~18_combout\ $end
$var wire 1 0# \ud~input_o\ $end
$var wire 1 1# \process_0~3_combout\ $end
$var wire 1 2# \count[0]~17\ $end
$var wire 1 3# \count[1]~19_combout\ $end
$var wire 1 4# \count[1]~20\ $end
$var wire 1 5# \count[2]~21_combout\ $end
$var wire 1 6# \count[2]~22\ $end
$var wire 1 7# \count[3]~23_combout\ $end
$var wire 1 8# \count[3]~24\ $end
$var wire 1 9# \count[4]~25_combout\ $end
$var wire 1 :# \count[4]~26\ $end
$var wire 1 ;# \count[5]~27_combout\ $end
$var wire 1 <# \count[5]~28\ $end
$var wire 1 =# \count[6]~29_combout\ $end
$var wire 1 ># \count[6]~30\ $end
$var wire 1 ?# \count[7]~31_combout\ $end
$var wire 1 @# \count[7]~32\ $end
$var wire 1 A# \count[8]~33_combout\ $end
$var wire 1 B# \count[8]~34\ $end
$var wire 1 C# \count[9]~35_combout\ $end
$var wire 1 D# \count[9]~36\ $end
$var wire 1 E# \count[10]~37_combout\ $end
$var wire 1 F# \count[10]~38\ $end
$var wire 1 G# \count[11]~39_combout\ $end
$var wire 1 H# \count[11]~40\ $end
$var wire 1 I# \count[12]~41_combout\ $end
$var wire 1 J# \count[12]~42\ $end
$var wire 1 K# \count[13]~43_combout\ $end
$var wire 1 L# \count[13]~44\ $end
$var wire 1 M# \count[14]~45_combout\ $end
$var wire 1 N# \count[14]~46\ $end
$var wire 1 O# \count[15]~47_combout\ $end
$var wire 1 P# reg_a [15] $end
$var wire 1 Q# reg_a [14] $end
$var wire 1 R# reg_a [13] $end
$var wire 1 S# reg_a [12] $end
$var wire 1 T# reg_a [11] $end
$var wire 1 U# reg_a [10] $end
$var wire 1 V# reg_a [9] $end
$var wire 1 W# reg_a [8] $end
$var wire 1 X# reg_a [7] $end
$var wire 1 Y# reg_a [6] $end
$var wire 1 Z# reg_a [5] $end
$var wire 1 [# reg_a [4] $end
$var wire 1 \# reg_a [3] $end
$var wire 1 ]# reg_a [2] $end
$var wire 1 ^# reg_a [1] $end
$var wire 1 _# reg_a [0] $end
$var wire 1 `# count [15] $end
$var wire 1 a# count [14] $end
$var wire 1 b# count [13] $end
$var wire 1 c# count [12] $end
$var wire 1 d# count [11] $end
$var wire 1 e# count [10] $end
$var wire 1 f# count [9] $end
$var wire 1 g# count [8] $end
$var wire 1 h# count [7] $end
$var wire 1 i# count [6] $end
$var wire 1 j# count [5] $end
$var wire 1 k# count [4] $end
$var wire 1 l# count [3] $end
$var wire 1 m# count [2] $end
$var wire 1 n# count [1] $end
$var wire 1 o# count [0] $end
$var wire 1 p# reg_b [15] $end
$var wire 1 q# reg_b [14] $end
$var wire 1 r# reg_b [13] $end
$var wire 1 s# reg_b [12] $end
$var wire 1 t# reg_b [11] $end
$var wire 1 u# reg_b [10] $end
$var wire 1 v# reg_b [9] $end
$var wire 1 w# reg_b [8] $end
$var wire 1 x# reg_b [7] $end
$var wire 1 y# reg_b [6] $end
$var wire 1 z# reg_b [5] $end
$var wire 1 {# reg_b [4] $end
$var wire 1 |# reg_b [3] $end
$var wire 1 }# reg_b [2] $end
$var wire 1 ~# reg_b [1] $end
$var wire 1 !$ reg_b [0] $end
$upscope $end
$upscope $end
$enddefinitions $end
#0
$dumpvars
1!
x"
0#
0$
0%
06
07
0X
0Y
0Z
0[
1\
x]
1^
1_
1`
1a
1b
1c
0d
0e
0f
0g
0h
0i
0j
0k
x|
1}
xD!
1E!
0F!
0G!
0H!
0I!
0J!
0K!
0L!
0M!
0N!
0O!
0P!
0Q!
0R!
0S!
0T!
0U!
0V!
0W!
0X!
0Y!
0Z!
0[!
0\!
0]!
0^!
0_!
0`!
0a!
0b!
0c!
0d!
0e!
0f!
0g!
0h!
0i!
0j!
0k!
0l!
0m!
0n!
0o!
0p!
0q!
0r!
0s!
0t!
0u!
0v!
0w!
0x!
0y!
0z!
0{!
0|!
0}!
0~!
0!"
0""
0#"
0$"
0%"
0&"
0'"
0("
0)"
0*"
0+"
0,"
0-"
0."
0/"
00"
01"
02"
03"
04"
15"
06"
07"
08"
09"
0:"
0;"
0<"
0="
0>"
0?"
0@"
0A"
0B"
0C"
0D"
0E"
0F"
0G"
1H"
0I"
0J"
0K"
0L"
0M"
0N"
0O"
1P"
0Q"
1R"
0S"
0T"
0U"
0V"
0W"
1X"
0Y"
0Z"
0["
0\"
0]"
0^"
0_"
1`"
0a"
0b"
0c"
0d"
0e"
0f"
0g"
1h"
0i"
0j"
0k"
0l"
0m"
0n"
0o"
1p"
0q"
0r"
0s"
0t"
0u"
0v"
0w"
1x"
0y"
0z"
0{"
0|"
0}"
0~"
0!#
1"#
0##
0$#
1%#
1&#
1'#
1(#
1)#
1*#
1+#
x,#
1-#
0.#
0/#
00#
01#
02#
13#
14#
15#
06#
17#
18#
19#
0:#
1;#
1<#
1=#
0>#
1?#
1@#
1A#
0B#
1C#
1D#
1E#
0F#
1G#
1H#
1I#
0J#
1K#
1L#
1M#
0N#
1O#
0&
0'
0(
0)
0*
0+
0,
0-
0.
0/
00
01
12
03
04
05
0l
0m
0n
0o
0p
0q
0r
0s
0t
0u
0v
0w
1x
0y
0z
0{
0~
0!!
0"!
0#!
0$!
0%!
0&!
0'!
0(!
0)!
0*!
0+!
0,!
0-!
0.!
0/!
00!
01!
02!
03!
04!
05!
06!
07!
08!
09!
0:!
0;!
0<!
0=!
0>!
0?!
0P#
0Q#
0R#
0S#
0T#
0U#
0V#
0W#
0X#
0Y#
0Z#
0[#
0\#
0]#
0^#
0_#
0`#
0a#
0b#
0c#
0d#
0e#
0f#
0g#
0h#
0i#
0j#
0k#
0l#
0m#
0n#
0o#
0p#
0q#
0r#
0s#
0t#
0u#
0v#
0w#
0x#
0y#
0z#
0{#
0|#
0}#
0~#
0!$
1@!
1A!
1B!
0C!
08
09
0:
0;
0<
0=
0>
0?
0@
0A
0B
0C
0D
0E
0F
0G
0H
0I
0J
0K
0L
0M
0N
0O
0P
0Q
0R
0S
0T
0U
0V
0W
$end
#10000
1$
1e
1o!
1F"
1/#
#20000
1#
1d
1f!
1C!
1n!
#30000
0$
0e
0o!
0F"
0/#
#40000
0#
0d
0f!
0C!
0n!
#50000
16
1f
1i!
1F"
1S"
1Q"
#60000
1#
1d
1f!
1C!
1\#
0(#
1n!
0)#
1Y!
0*#
0+#
1<!
1T
0,#
0E!
0}
0D!
0!
0|
0"
#70000
06
0f
0i!
0F"
#80000
0#
0d
0f!
0C!
0n!
#100000
1#
1d
1f!
1C!
1n!
#120000
0#
0d
0f!
0C!
0n!
#140000
1#
1d
1f!
1C!
1n!
#160000
0#
0d
0f!
0C!
0n!
#180000
1#
1d
1f!
1C!
1n!
#190000
02
13
15
1{
1y
0x
05"
18"
1>"
1E"
1N"
0R"
#200000
0#
0d
0f!
0C!
0n!
#210000
17
1g
1k!
19"
1:"
1?"
1@"
1A"
1M"
1D"
#220000
1#
1d
1f!
1C!
1n!
1}#
1!$
#230000
07
0g
0k!
#240000
0#
0d
0f!
0C!
0n!
#260000
1#
1d
1f!
1C!
1n!
#280000
0#
0d
0f!
0C!
0n!
#300000
1#
1d
1f!
1C!
1n!
#320000
0#
1X
0d
1h
1g!
0f!
0C!
1R"
0n!
#330000
16
1%
1f
1i
1.#
1i!
1m!
0A"
1B"
1F"
1/#
11#
03#
05#
07#
09#
0;#
0=#
0?#
0A#
0C#
0E#
0G#
0I#
0K#
0M#
0O#
1C"
0D"
1q!
1t!
1w!
1z!
1}!
1""
1%"
1("
1+"
1."
11"
14"
17"
0:"
1="
1I"
0M"
0Q"
1T"
1U"
1Y"
1]"
1a"
1e"
1i"
1m"
1q"
1u"
1y"
1}"
1##
0E"
1D"
1E"
1$#
1~"
1z"
1v"
1r"
1n"
1j"
1f"
1b"
1^"
1Z"
1V"
0U"
0X"
0R"
0N"
1J"
0Y"
1\"
0V"
0]"
0`"
0Z"
0a"
1d"
0^"
0e"
0h"
0b"
0i"
1l"
0f"
0m"
0p"
0j"
0q"
1t"
0n"
0u"
0x"
0r"
0y"
1|"
0v"
0}"
0"#
0z"
0##
0~"
0$#
#340000
1#
1d
1f!
1C!
1^#
0\#
0S"
1K"
1n!
0I"
1L"
1Q"
0T"
0Y!
1W!
1_#
1o#
1U"
1X"
1R"
1M"
0J"
0<!
1>!
0-#
12#
1G"
1V
0T
1N"
1Y"
0\"
1V"
0D"
0H"
13#
1F!
1V!
1]"
1`"
1Z"
1I"
0E"
1/!
1?!
1a"
0d"
1^"
1G
1W
1J"
1e"
1h"
1b"
1i"
0l"
1f"
1m"
1p"
1j"
1q"
0t"
1n"
1u"
1x"
1r"
1y"
0|"
1v"
1}"
1"#
1z"
1##
1~"
1$#
#350000
06
0%
0f
0i
0.#
0i!
0m!
1A"
0B"
0F"
0/#
01#
03#
04#
15#
17#
19#
1;#
1=#
1?#
1A#
1C#
1E#
1G#
1I#
1K#
1M#
1O#
0C"
1D"
0q!
0t!
0w!
0z!
0}!
0""
0%"
0("
0+"
0."
01"
04"
07"
1:"
0="
0I"
0M"
0P"
0Q"
0U"
0Y"
0]"
0a"
0e"
0i"
0m"
0q"
0u"
0y"
0}"
0##
1E"
0D"
05#
16#
07#
08#
0E"
0$#
0~"
0z"
0v"
0r"
0n"
0j"
0f"
0b"
0^"
0Z"
0V"
0R"
1Q"
0N"
0J"
1R"
09#
1:#
0;#
0<#
0=#
1>#
0?#
0@#
0A#
1B#
0C#
0D#
0E#
1F#
0G#
0H#
0I#
1J#
0K#
0L#
0M#
1N#
0O#
#360000
0#
0d
0f!
0C!
0n!
#380000
1#
1d
1f!
1C!
1n!
#400000
0#
0d
0f!
0C!
0n!
#410000
16
1%
1f
1i
1.#
1i!
1m!
0A"
1B"
1F"
1/#
11#
13#
14#
15#
06#
17#
18#
19#
0:#
1;#
1<#
1=#
0>#
1?#
1@#
1A#
0B#
1C#
1D#
1E#
0F#
1G#
1H#
1I#
0J#
1K#
1L#
1M#
0N#
1O#
1C"
1D"
1H"
1q!
1t!
1w!
1z!
1}!
1""
1%"
1("
1+"
1."
11"
14"
17"
0:"
1="
1M"
1P"
0Q"
1T"
1U"
1Y"
1]"
1a"
1e"
1i"
1m"
1q"
1u"
1y"
1}"
1##
1E"
0D"
0H"
0O#
0M#
0K#
0I#
0G#
0E#
0C#
0A#
0?#
0=#
0;#
09#
07#
05#
1I"
0E"
1$#
1~"
1z"
1v"
1r"
1n"
1j"
1f"
1b"
1^"
1Z"
1V"
0U"
0X"
0R"
1Q"
0T"
1N"
1U"
1X"
1R"
0Y"
1\"
0V"
1J"
0]"
0`"
0Z"
1Y"
0\"
1V"
1]"
1`"
1Z"
0a"
1d"
0^"
0e"
0h"
0b"
1a"
0d"
1^"
1e"
1h"
1b"
0i"
1l"
0f"
0m"
0p"
0j"
1i"
0l"
1f"
1m"
1p"
1j"
0q"
1t"
0n"
0u"
0x"
0r"
1q"
0t"
1n"
1u"
1x"
1r"
0y"
1|"
0v"
0}"
0"#
0z"
1y"
0|"
1v"
1}"
1"#
1z"
0##
0~"
0$#
1##
1~"
1$#
#420000
1#
1d
1f!
1C!
1]#
1\#
1[#
1Z#
1Y#
1X#
1W#
1V#
1U#
1T#
1S#
1R#
1Q#
1P#
1j!
1*#
1!#
1{"
1w"
0%#
1s"
1o"
1k"
1g"
0'#
1c"
1_"
1["
1W"
0&#
1S"
1O"
1n!
0M"
0P"
0Q"
1T"
0U"
0X"
0Y"
1\"
0]"
0`"
0a"
1d"
0e"
0h"
0i"
1l"
0m"
0p"
0q"
1t"
0u"
0x"
0y"
1|"
0}"
0"#
1,#
0##
1e!
1d!
1c!
1b!
1a!
1`!
1_!
1^!
1]!
1\!
1[!
1Z!
1Y!
1X!
0_#
0o#
1n#
0$#
1##
0~"
1}"
0z"
1y"
0v"
1u"
0r"
1q"
0n"
1m"
0j"
1i"
0f"
1e"
0b"
1a"
0^"
1]"
0Z"
1Y"
0V"
1U"
0R"
1Q"
0N"
10!
11!
12!
13!
14!
15!
16!
17!
18!
19!
1:!
1;!
1<!
1=!
03#
04#
1-#
02#
0G"
1U
1T
1S
1R
1Q
1P
1O
1N
1M
1L
1K
1J
1I
1H
1R"
1V"
1Z"
1^"
1b"
1f"
1j"
1n"
1r"
1v"
1z"
1~"
1$#
1D!
1D"
1H"
13#
14#
15#
1G!
0F!
0V!
1|
05#
0I"
1E"
1.!
0/!
0?!
1"
0G
1F
0W
0J"
#430000
06
0%
0f
0i
0.#
0i!
0m!
1A"
0B"
0F"
0/#
01#
03#
04#
15#
17#
19#
1;#
1=#
1?#
1A#
1C#
1E#
1G#
1I#
1K#
1M#
1O#
0C"
0D"
0H"
0q!
0t!
0w!
0z!
0}!
0""
0%"
0("
0+"
0."
01"
04"
07"
1:"
0="
1M"
0Q"
0U"
0Y"
0]"
0a"
0e"
0i"
0m"
0q"
0u"
0y"
0}"
0##
0E"
1D"
1H"
05#
16#
07#
08#
1I"
0L"
1E"
0$#
0~"
0z"
0v"
0r"
0n"
0j"
0f"
0b"
0^"
0Z"
0V"
0R"
1N"
0M"
1J"
09#
1:#
0;#
0<#
0N"
0=#
1>#
0?#
0@#
0A#
1B#
0C#
0D#
0E#
1F#
0G#
0H#
0I#
1J#
0K#
0L#
0M#
1N#
0O#
#440000
0#
0d
0f!
0C!
0n!
#460000
1#
1d
1f!
1C!
1n!
#480000
0#
0d
0f!
0C!
0n!
#500000
1#
1d
1f!
1C!
1n!
#520000
0#
0d
0f!
0C!
0n!
#540000
1#
1d
1f!
1C!
1n!
#560000
0#
0d
0f!
0C!
0n!
#580000
1#
1d
1f!
1C!
1n!
#600000
0#
0d
0f!
0C!
0n!
#620000
1#
1d
1f!
1C!
1n!
#640000
0#
0d
0f!
0C!
0n!
#650000
16
1%
1Y
1Z
1f
1i
1k
1j
10#
1l!
1.#
1i!
1B"
1F"
1/#
#660000
1#
1d
1f!
1C!
0]#
0\#
0[#
0Z#
0Y#
0X#
0W#
0V#
0U#
0T#
0S#
0R#
0Q#
0P#
0j!
0*#
0!#
0{"
0w"
1%#
0s"
0o"
0k"
0g"
1'#
0c"
0_"
0["
0W"
1&#
0S"
0O"
1n!
1M"
1P"
1Q"
0T"
1U"
1X"
1Y"
0\"
1]"
1`"
1a"
0d"
1e"
1h"
1i"
0l"
1m"
1p"
1q"
0t"
1u"
1x"
1y"
0|"
1}"
1"#
0,#
1##
0e!
0d!
0c!
0b!
0a!
0`!
0_!
0^!
0]!
0\!
0[!
0Z!
0Y!
0X!
1_#
1o#
0n#
1$#
0##
1~"
0}"
1z"
0y"
1v"
0u"
1r"
0q"
1n"
0m"
1j"
0i"
1f"
0e"
1b"
0a"
1^"
0]"
1Z"
0Y"
1V"
0U"
1R"
0Q"
1N"
00!
01!
02!
03!
04!
05!
06!
07!
08!
09!
0:!
0;!
0<!
0=!
13#
14#
0-#
12#
1G"
0U
0T
0S
0R
0Q
0P
0O
0N
0M
0L
0K
0J
0I
0H
0R"
0V"
0Z"
0^"
0b"
0f"
0j"
0n"
0r"
0v"
0z"
0~"
0$#
0D!
0D"
0H"
03#
04#
15#
06#
0G!
1F!
1V!
0|
17#
18#
05#
16#
0I"
1L"
0E"
0.!
1/!
1?!
0"
1G
0F
1W
0M"
0P"
0J"
07#
08#
19#
0:#
1;#
1<#
09#
1:#
1Q"
0N"
1R"
0;#
0<#
1=#
0>#
1?#
1@#
0=#
1>#
0?#
0@#
1A#
0B#
1C#
1D#
0A#
1B#
0C#
0D#
1E#
0F#
1G#
1H#
0E#
1F#
0G#
0H#
1I#
0J#
1K#
1L#
0I#
1J#
0K#
0L#
1M#
0N#
1O#
0M#
1N#
0O#
#670000
06
0%
0Y
0Z
0f
0i
0k
0j
00#
0l!
0.#
0i!
0B"
0F"
0/#
1C"
1D"
0C"
0D"
1E"
0E"
#680000
0#
0d
0f!
0C!
0n!
#700000
1#
1d
1f!
1C!
1n!
#720000
0#
0d
0f!
0C!
0n!
#740000
1#
1d
1f!
1C!
1n!
#760000
0#
0d
0f!
0C!
0n!
#780000
1#
1d
1f!
1C!
1n!
#800000
0#
0d
0f!
0C!
0n!
#820000
1#
1d
1f!
1C!
1n!
#840000
0#
0d
0f!
0C!
0n!
#860000
1#
1d
1f!
1C!
1n!
#880000
0#
0d
0f!
0C!
0n!
#900000
1#
1d
1f!
1C!
1n!
#920000
0#
0d
0f!
0C!
0n!
#940000
1#
1d
1f!
1C!
1n!
#960000
0#
0d
0f!
0C!
0n!
#980000
1#
1d
1f!
1C!
1n!
