Atividade3_1/simulation/qsim/po.msim.vcd
$comment
	File created using the following command:
		vcd file po.msim.vcd -direction
$end
$date
	Sat Nov 16 17:42:51 2019
$end
$version
	ModelSim Version 10.5b
$end
$timescale
	1ps
$end

$scope module po_vhd_vec_tst $end
$var wire 1 ! a_e_z $end
$var wire 1 " a_lt_z $end
$var wire 1 # clk $end
$var wire 1 $ clr $end
$var wire 1 % cnt $end
$var wire 1 & input [15] $end
$var wire 1 ' input [14] $end
$var wire 1 ( input [13] $end
$var wire 1 ) input [12] $end
$var wire 1 * input [11] $end
$var wire 1 + input [10] $end
$var wire 1 , input [9] $end
$var wire 1 - input [8] $end
$var wire 1 . input [7] $end
$var wire 1 / input [6] $end
$var wire 1 0 input [5] $end
$var wire 1 1 input [4] $end
$var wire 1 2 input [3] $end
$var wire 1 3 input [2] $end
$var wire 1 4 input [1] $end
$var wire 1 5 input [0] $end
$var wire 1 6 ld_a $end
$var wire 1 7 ld_b $end
$var wire 1 8 quotient [15] $end
$var wire 1 9 quotient [14] $end
$var wire 1 : quotient [13] $end
$var wire 1 ; quotient [12] $end
$var wire 1 < quotient [11] $end
$var wire 1 = quotient [10] $end
$var wire 1 > quotient [9] $end
$var wire 1 ? quotient [8] $end
$var wire 1 @ quotient [7] $end
$var wire 1 A quotient [6] $end
$var wire 1 B quotient [5] $end
$var wire 1 C quotient [4] $end
$var wire 1 D quotient [3] $end
$var wire 1 E quotient [2] $end
$var wire 1 F quotient [1] $end
$var wire 1 G quotient [0] $end
$var wire 1 H rest [15] $end
$var wire 1 I rest [14] $end
$var wire 1 J rest [13] $end
$var wire 1 K rest [12] $end
$var wire 1 L rest [11] $end
$var wire 1 M rest [10] $end
$var wire 1 N rest [9] $end
$var wire 1 O rest [8] $end
$var wire 1 P rest [7] $end
$var wire 1 Q rest [6] $end
$var wire 1 R rest [5] $end
$var wire 1 S rest [4] $end
$var wire 1 T rest [3] $end
$var wire 1 U rest [2] $end
$var wire 1 V rest [1] $end
$var wire 1 W rest [0] $end
$var wire 1 X slt_a $end
$var wire 1 Y sub_add $end
$var wire 1 Z ud $end

$scope module i1 $end
$var wire 1 [ gnd $end
$var wire 1 \ vcc $end
$var wire 1 ] unknown $end
$var wire 1 ^ devoe $end
$var wire 1 _ devclrn $end
$var wire 1 ` devpor $end
$var wire 1 a ww_devoe $end
$var wire 1 b ww_devclrn $end
$var wire 1 c ww_devpor $end
$var wire 1 d ww_clk $end
$var wire 1 e ww_clr $end
$var wire 1 f ww_ld_a $end
$var wire 1 g ww_ld_b $end
$var wire 1 h ww_slt_a $end
$var wire 1 i ww_cnt $end
$var wire 1 j ww_ud $end
$var wire 1 k ww_sub_add $end
$var wire 1 l ww_input [15] $end
$var wire 1 m ww_input [14] $end
$var wire 1 n ww_input [13] $end
$var wire 1 o ww_input [12] $end
$var wire 1 p ww_input [11] $end
$var wire 1 q ww_input [10] $end
$var wire 1 r ww_input [9] $end
$var wire 1 s ww_input [8] $end
$var wire 1 t ww_input [7] $end
$var wire 1 u ww_input [6] $end
$var wire 1 v ww_input [5] $end
$var wire 1 w ww_input [4] $end
$var wire 1 x ww_input [3] $end
$var wire 1 y ww_input [2] $end
$var wire 1 z ww_input [1] $end
$var wire 1 { ww_input [0] $end
$var wire 1 | ww_a_lt_z $end
$var wire 1 } ww_a_e_z $end
$var wire 1 ~ ww_quotient [15] $end
$var wire 1 !! ww_quotient [14] $end
$var wire 1 "! ww_quotient [13] $end
$var wire 1 #! ww_quotient [12] $end
$var wire 1 $! ww_quotient [11] $end
$var wire 1 %! ww_quotient [10] $end
$var wire 1 &! ww_quotient [9] $end
$var wire 1 '! ww_quotient [8] $end
$var wire 1 (! ww_quotient [7] $end
$var wire 1 )! ww_quotient [6] $end
$var wire 1 *! ww_quotient [5] $end
$var wire 1 +! ww_quotient [4] $end
$var wire 1 ,! ww_quotient [3] $end
$var wire 1 -! ww_quotient [2] $end
$var wire 1 .! ww_quotient [1] $end
$var wire 1 /! ww_quotient [0] $end
$var wire 1 0! ww_rest [15] $end
$var wire 1 1! ww_rest [14] $end
$var wire 1 2! ww_rest [13] $end
$var wire 1 3! ww_rest [12] $end
$var wire 1 4! ww_rest [11] $end
$var wire 1 5! ww_rest [10] $end
$var wire 1 6! ww_rest [9] $end
$var wire 1 7! ww_rest [8] $end
$var wire 1 8! ww_rest [7] $end
$var wire 1 9! ww_rest [6] $end
$var wire 1 :! ww_rest [5] $end
$var wire 1 ;! ww_rest [4] $end
$var wire 1 <! ww_rest [3] $end
$var wire 1 =! ww_rest [2] $end
$var wire 1 >! ww_rest [1] $end
$var wire 1 ?! ww_rest [0] $end
$var wire 1 @! \clk~inputclkctrl_INCLK_bus\ [3] $end
$var wire 1 A! \clk~inputclkctrl_INCLK_bus\ [2] $end
$var wire 1 B! \clk~inputclkctrl_INCLK_bus\ [1] $end
$var wire 1 C! \clk~inputclkctrl_INCLK_bus\ [0] $end
$var wire 1 D! \a_lt_z~output_o\ $end
$var wire 1 E! \a_e_z~output_o\ $end
$var wire 1 F! \quotient[0]~output_o\ $end
$var wire 1 G! \quotient[1]~output_o\ $end
$var wire 1 H! \quotient[2]~output_o\ $end
$var wire 1 I! \quotient[3]~output_o\ $end
$var wire 1 J! \quotient[4]~output_o\ $end
$var wire 1 K! \quotient[5]~output_o\ $end
$var wire 1 L! \quotient[6]~output_o\ $end
$var wire 1 M! \quotient[7]~output_o\ $end
$var wire 1 N! \quotient[8]~output_o\ $end
$var wire 1 O! \quotient[9]~output_o\ $end
$var wire 1 P! \quotient[10]~output_o\ $end
$var wire 1 Q! \quotient[11]~output_o\ $end
$var wire 1 R! \quotient[12]~output_o\ $end
$var wire 1 S! \quotient[13]~output_o\ $end
$var wire 1 T! \quotient[14]~output_o\ $end
$var wire 1 U! \quotient[15]~output_o\ $end
$var wire 1 V! \rest[0]~output_o\ $end
$var wire 1 W! \rest[1]~output_o\ $end
$var wire 1 X! \rest[2]~output_o\ $end
$var wire 1 Y! \rest[3]~output_o\ $end
$var wire 1 Z! \rest[4]~output_o\ $end
$var wire 1 [! \rest[5]~output_o\ $end
$var wire 1 \! \rest[6]~output_o\ $end
$var wire 1 ]! \rest[7]~output_o\ $end
$var wire 1 ^! \rest[8]~output_o\ $end
$var wire 1 _! \rest[9]~output_o\ $end
$var wire 1 `! \rest[10]~output_o\ $end
$var wire 1 a! \rest[11]~output_o\ $end
$var wire 1 b! \rest[12]~output_o\ $end
$var wire 1 c! \rest[13]~output_o\ $end
$var wire 1 d! \rest[14]~output_o\ $end
$var wire 1 e! \rest[15]~output_o\ $end
$var wire 1 f! \clk~input_o\ $end
$var wire 1 g! \sub_add~input_o\ $end
$var wire 1 h! \slt_a~input_o\ $end
$var wire 1 i! \ld_a~input_o\ $end
$var wire 1 j! \process_0~2_combout\ $end
$var wire 1 k! \ld_b~input_o\ $end
$var wire 1 l! \clk~inputclkctrl_outclk\ $end
$var wire 1 m! \clr~input_o\ $end
$var wire 1 n! \input[11]~input_o\ $end
$var wire 1 o! \reg_b~11_combout\ $end
$var wire 1 p! \Add0~47_combout\ $end
$var wire 1 q! \reg_a~12_combout\ $end
$var wire 1 r! \input[10]~input_o\ $end
$var wire 1 s! \reg_b~10_combout\ $end
$var wire 1 t! \Add0~43_combout\ $end
$var wire 1 u! \input[9]~input_o\ $end
$var wire 1 v! \reg_b~9_combout\ $end
$var wire 1 w! \Add0~39_combout\ $end
$var wire 1 x! \input[8]~input_o\ $end
$var wire 1 y! \reg_b~8_combout\ $end
$var wire 1 z! \Add0~35_combout\ $end
$var wire 1 {! \input[7]~input_o\ $end
$var wire 1 |! \reg_b~7_combout\ $end
$var wire 1 }! \Add0~31_combout\ $end
$var wire 1 ~! \input[6]~input_o\ $end
$var wire 1 !" \reg_b~6_combout\ $end
$var wire 1 "" \Add0~27_combout\ $end
$var wire 1 #" \input[5]~input_o\ $end
$var wire 1 $" \reg_b~5_combout\ $end
$var wire 1 %" \Add0~23_combout\ $end
$var wire 1 &" \input[4]~input_o\ $end
$var wire 1 '" \reg_b~4_combout\ $end
$var wire 1 (" \Add0~19_combout\ $end
$var wire 1 )" \input[3]~input_o\ $end
$var wire 1 *" \reg_b~3_combout\ $end
$var wire 1 +" \Add0~15_combout\ $end
$var wire 1 ," \input[2]~input_o\ $end
$var wire 1 -" \reg_b~2_combout\ $end
$var wire 1 ." \Add0~11_combout\ $end
$var wire 1 /" \input[1]~input_o\ $end
$var wire 1 0" \reg_b~1_combout\ $end
$var wire 1 1" \Add0~7_combout\ $end
$var wire 1 2" \input[0]~input_o\ $end
$var wire 1 3" \reg_b~0_combout\ $end
$var wire 1 4" \Add0~0_combout\ $end
$var wire 1 5" \Add0~1_combout\ $end
$var wire 1 6" \process_0~1_combout\ $end
$var wire 1 7" \Add0~3_cout\ $end
$var wire 1 8" \Add0~4_combout\ $end
$var wire 1 9" \Add0~6_combout\ $end
$var wire 1 :" \reg_a[15]~1_combout\ $end
$var wire 1 ;" \reg_a~0_combout\ $end
$var wire 1 <" \Add0~5\ $end
$var wire 1 =" \Add0~8_combout\ $end
$var wire 1 >" \Add0~10_combout\ $end
$var wire 1 ?" \reg_a~2_combout\ $end
$var wire 1 @" \Add0~9\ $end
$var wire 1 A" \Add0~12_combout\ $end
$var wire 1 B" \Add0~14_combout\ $end
$var wire 1 C" \reg_a~3_combout\ $end
$var wire 1 D" \Add0~13\ $end
$var wire 1 E" \Add0~16_combout\ $end
$var wire 1 F" \Add0~18_combout\ $end
$var wire 1 G" \reg_a~4_combout\ $end
$var wire 1 H" \Add0~17\ $end
$var wire 1 I" \Add0~20_combout\ $end
$var wire 1 J" \Add0~22_combout\ $end
$var wire 1 K" \reg_a~5_combout\ $end
$var wire 1 L" \Add0~21\ $end
$var wire 1 M" \Add0~24_combout\ $end
$var wire 1 N" \Add0~26_combout\ $end
$var wire 1 O" \reg_a~6_combout\ $end
$var wire 1 P" \Add0~25\ $end
$var wire 1 Q" \Add0~28_combout\ $end
$var wire 1 R" \Add0~30_combout\ $end
$var wire 1 S" \reg_a~7_combout\ $end
$var wire 1 T" \Add0~29\ $end
$var wire 1 U" \Add0~32_combout\ $end
$var wire 1 V" \Add0~34_combout\ $end
$var wire 1 W" \reg_a~8_combout\ $end
$var wire 1 X" \Add0~33\ $end
$var wire 1 Y" \Add0~36_combout\ $end
$var wire 1 Z" \Add0~38_combout\ $end
$var wire 1 [" \reg_a~9_combout\ $end
$var wire 1 \" \Add0~37\ $end
$var wire 1 ]" \Add0~40_combout\ $end
$var wire 1 ^" \Add0~42_combout\ $end
$var wire 1 _" \reg_a~10_combout\ $end
$var wire 1 `" \Add0~41\ $end
$var wire 1 a" \Add0~44_combout\ $end
$var wire 1 b" \Add0~46_combout\ $end
$var wire 1 c" \reg_a~11_combout\ $end
$var wire 1 d" \Add0~45\ $end
$var wire 1 e" \Add0~48_combout\ $end
$var wire 1 f" \Add0~50_combout\ $end
$var wire 1 g" \Equal0~2_combout\ $end
$var wire 1 h" \input[12]~input_o\ $end
$var wire 1 i" \reg_b~12_combout\ $end
$var wire 1 j" \Add0~51_combout\ $end
$var wire 1 k" \reg_a~13_combout\ $end
$var wire 1 l" \Add0~49\ $end
$var wire 1 m" \Add0~52_combout\ $end
$var wire 1 n" \Add0~54_combout\ $end
$var wire 1 o" \input[14]~input_o\ $end
$var wire 1 p" \reg_b~14_combout\ $end
$var wire 1 q" \Add0~59_combout\ $end
$var wire 1 r" \reg_a~15_combout\ $end
$var wire 1 s" \input[13]~input_o\ $end
$var wire 1 t" \reg_b~13_combout\ $end
$var wire 1 u" \Add0~55_combout\ $end
$var wire 1 v" \Add0~53\ $end
$var wire 1 w" \Add0~56_combout\ $end
$var wire 1 x" \Add0~58_combout\ $end
$var wire 1 y" \reg_a~14_combout\ $end
$var wire 1 z" \Add0~57\ $end
$var wire 1 {" \Add0~60_combout\ $end
$var wire 1 |" \Add0~62_combout\ $end
$var wire 1 }" \Equal0~3_combout\ $end
$var wire 1 ~" \Equal0~0_combout\ $end
$var wire 1 !# \Equal0~1_combout\ $end
$var wire 1 "# \Equal0~4_combout\ $end
$var wire 1 ## \input[15]~input_o\ $end
$var wire 1 $# \reg_a~16_combout\ $end
$var wire 1 %# \reg_b~15_combout\ $end
$var wire 1 &# \Add0~63_combout\ $end
$var wire 1 '# \Add0~61\ $end
$var wire 1 (# \Add0~64_combout\ $end
$var wire 1 )# \Add0~66_combout\ $end
$var wire 1 *# \process_0~0_combout\ $end
$var wire 1 +# \Equal0~5_combout\ $end
$var wire 1 ,# \a_lt_z$latch~combout\ $end
$var wire 1 -# \cnt~input_o\ $end
$var wire 1 .# \count[8]~0_combout\ $end
$var wire 1 /# \Add2~0_combout\ $end
$var wire 1 0# \quotient[0]~reg0_q\ $end
$var wire 1 1# \ud~input_o\ $end
$var wire 1 2# \process_0~3_combout\ $end
$var wire 1 3# \Add2~1\ $end
$var wire 1 4# \Add2~2_combout\ $end
$var wire 1 5# \quotient[1]~reg0feeder_combout\ $end
$var wire 1 6# \quotient[1]~reg0_q\ $end
$var wire 1 7# \Add2~3\ $end
$var wire 1 8# \Add2~4_combout\ $end
$var wire 1 9# \quotient[2]~reg0feeder_combout\ $end
$var wire 1 :# \quotient[2]~reg0_q\ $end
$var wire 1 ;# \Add2~5\ $end
$var wire 1 <# \Add2~6_combout\ $end
$var wire 1 =# \quotient[3]~reg0feeder_combout\ $end
$var wire 1 ># \quotient[3]~reg0_q\ $end
$var wire 1 ?# \Add2~7\ $end
$var wire 1 @# \Add2~8_combout\ $end
$var wire 1 A# \quotient[4]~reg0feeder_combout\ $end
$var wire 1 B# \quotient[4]~reg0_q\ $end
$var wire 1 C# \Add2~9\ $end
$var wire 1 D# \Add2~10_combout\ $end
$var wire 1 E# \quotient[5]~reg0feeder_combout\ $end
$var wire 1 F# \quotient[5]~reg0_q\ $end
$var wire 1 G# \Add2~11\ $end
$var wire 1 H# \Add2~12_combout\ $end
$var wire 1 I# \quotient[6]~reg0feeder_combout\ $end
$var wire 1 J# \quotient[6]~reg0_q\ $end
$var wire 1 K# \Add2~13\ $end
$var wire 1 L# \Add2~14_combout\ $end
$var wire 1 M# \quotient[7]~reg0feeder_combout\ $end
$var wire 1 N# \quotient[7]~reg0_q\ $end
$var wire 1 O# \Add2~15\ $end
$var wire 1 P# \Add2~16_combout\ $end
$var wire 1 Q# \quotient[8]~reg0_q\ $end
$var wire 1 R# \Add2~17\ $end
$var wire 1 S# \Add2~18_combout\ $end
$var wire 1 T# \quotient[9]~reg0feeder_combout\ $end
$var wire 1 U# \quotient[9]~reg0_q\ $end
$var wire 1 V# \Add2~19\ $end
$var wire 1 W# \Add2~20_combout\ $end
$var wire 1 X# \quotient[10]~reg0feeder_combout\ $end
$var wire 1 Y# \quotient[10]~reg0_q\ $end
$var wire 1 Z# \Add2~21\ $end
$var wire 1 [# \Add2~22_combout\ $end
$var wire 1 \# \quotient[11]~reg0feeder_combout\ $end
$var wire 1 ]# \quotient[11]~reg0_q\ $end
$var wire 1 ^# \Add2~23\ $end
$var wire 1 _# \Add2~24_combout\ $end
$var wire 1 `# \quotient[12]~reg0feeder_combout\ $end
$var wire 1 a# \quotient[12]~reg0_q\ $end
$var wire 1 b# \Add2~25\ $end
$var wire 1 c# \Add2~26_combout\ $end
$var wire 1 d# \quotient[13]~reg0feeder_combout\ $end
$var wire 1 e# \quotient[13]~reg0_q\ $end
$var wire 1 f# \Add2~27\ $end
$var wire 1 g# \Add2~28_combout\ $end
$var wire 1 h# \quotient[14]~reg0feeder_combout\ $end
$var wire 1 i# \quotient[14]~reg0_q\ $end
$var wire 1 j# \Add2~29\ $end
$var wire 1 k# \Add2~30_combout\ $end
$var wire 1 l# \quotient[15]~reg0feeder_combout\ $end
$var wire 1 m# \quotient[15]~reg0_q\ $end
$var wire 1 n# reg_a [15] $end
$var wire 1 o# reg_a [14] $end
$var wire 1 p# reg_a [13] $end
$var wire 1 q# reg_a [12] $end
$var wire 1 r# reg_a [11] $end
$var wire 1 s# reg_a [10] $end
$var wire 1 t# reg_a [9] $end
$var wire 1 u# reg_a [8] $end
$var wire 1 v# reg_a [7] $end
$var wire 1 w# reg_a [6] $end
$var wire 1 x# reg_a [5] $end
$var wire 1 y# reg_a [4] $end
$var wire 1 z# reg_a [3] $end
$var wire 1 {# reg_a [2] $end
$var wire 1 |# reg_a [1] $end
$var wire 1 }# reg_a [0] $end
$var wire 1 ~# count [15] $end
$var wire 1 !$ count [14] $end
$var wire 1 "$ count [13] $end
$var wire 1 #$ count [12] $end
$var wire 1 $$ count [11] $end
$var wire 1 %$ count [10] $end
$var wire 1 &$ count [9] $end
$var wire 1 '$ count [8] $end
$var wire 1 ($ count [7] $end
$var wire 1 )$ count [6] $end
$var wire 1 *$ count [5] $end
$var wire 1 +$ count [4] $end
$var wire 1 ,$ count [3] $end
$var wire 1 -$ count [2] $end
$var wire 1 .$ count [1] $end
$var wire 1 /$ count [0] $end
$var wire 1 0$ reg_b [15] $end
$var wire 1 1$ reg_b [14] $end
$var wire 1 2$ reg_b [13] $end
$var wire 1 3$ reg_b [12] $end
$var wire 1 4$ reg_b [11] $end
$var wire 1 5$ reg_b [10] $end
$var wire 1 6$ reg_b [9] $end
$var wire 1 7$ reg_b [8] $end
$var wire 1 8$ reg_b [7] $end
$var wire 1 9$ reg_b [6] $end
$var wire 1 :$ reg_b [5] $end
$var wire 1 ;$ reg_b [4] $end
$var wire 1 <$ reg_b [3] $end
$var wire 1 =$ reg_b [2] $end
$var wire 1 >$ reg_b [1] $end
$var wire 1 ?$ reg_b [0] $end
$upscope $end
$upscope $end
$enddefinitions $end
#0
$dumpvars
1!
x"
0#
0$
0%
06
07
0X
0Y
0Z
0[
1\
x]
1^
1_
1`
1a
1b
1c
0d
0e
0f
0g
0h
0i
0j
0k
x|
1}
xD!
1E!
0F!
0G!
0H!
0I!
0J!
0K!
0L!
0M!
0N!
0O!
0P!
0Q!
0R!
0S!
0T!
0U!
0V!
0W!
0X!
0Y!
0Z!
0[!
0\!
0]!
0^!
0_!
0`!
0a!
0b!
0c!
0d!
0e!
0f!
0g!
0h!
0i!
0j!
0k!
0l!
0m!
0n!
0o!
0p!
0q!
0r!
0s!
0t!
0u!
0v!
0w!
0x!
0y!
0z!
0{!
0|!
0}!
0~!
0!"
0""
0#"
0$"
0%"
0&"
0'"
0("
1)"
0*"
0+"
0,"
0-"
0."
0/"
00"
01"
02"
03"
04"
05"
06"
07"
08"
09"
0:"
0;"
1<"
0="
0>"
0?"
0@"
0A"
0B"
0C"
1D"
0E"
1F"
0G"
0H"
0I"
0J"
0K"
1L"
0M"
0N"
0O"
0P"
0Q"
0R"
0S"
1T"
0U"
0V"
0W"
0X"
0Y"
0Z"
0["
1\"
0]"
0^"
0_"
0`"
0a"
0b"
0c"
1d"
0e"
0f"
1g"
0h"
0i"
0j"
0k"
0l"
0m"
0n"
0o"
0p"
0q"
0r"
0s"
0t"
0u"
1v"
0w"
0x"
0y"
0z"
0{"
0|"
1}"
1~"
1!#
1"#
0##
0$#
0%#
0&#
1'#
0(#
0)#
1*#
1+#
x,#
0-#
0.#
1/#
00#
01#
02#
03#
14#
15#
06#
17#
18#
19#
0:#
0;#
1<#
1=#
0>#
1?#
1@#
1A#
0B#
0C#
1D#
1E#
0F#
1G#
1H#
1I#
0J#
0K#
1L#
1M#
0N#
1O#
1P#
0Q#
0R#
1S#
1T#
0U#
1V#
1W#
1X#
0Y#
0Z#
1[#
1\#
0]#
1^#
1_#
1`#
0a#
0b#
1c#
1d#
0e#
1f#
1g#
1h#
0i#
0j#
1k#
1l#
0m#
0&
0'
0(
0)
0*
0+
0,
0-
0.
0/
00
01
12
03
04
05
0l
0m
0n
0o
0p
0q
0r
0s
0t
0u
0v
0w
1x
0y
0z
0{
0~
0!!
0"!
0#!
0$!
0%!
0&!
0'!
0(!
0)!
0*!
0+!
0,!
0-!
0.!
0/!
00!
01!
02!
03!
04!
05!
06!
07!
08!
09!
0:!
0;!
0<!
0=!
0>!
0?!
0n#
0o#
0p#
0q#
0r#
0s#
0t#
0u#
0v#
0w#
0x#
0y#
0z#
0{#
0|#
0}#
0~#
0!$
0"$
0#$
0$$
0%$
0&$
0'$
0($
0)$
0*$
0+$
0,$
0-$
0.$
0/$
00$
01$
02$
03$
04$
05$
06$
07$
08$
09$
0:$
0;$
0<$
0=$
0>$
0?$
1@!
1A!
1B!
0C!
08
09
0:
0;
0<
0=
0>
0?
0@
0A
0B
0C
0D
0E
0F
0G
0H
0I
0J
0K
0L
0M
0N
0O
0P
0Q
0R
0S
0T
0U
0V
0W
$end
#10000
1$
1e
1m!
1:"
1.#
#20000
1#
1d
1f!
1C!
1l!
#30000
0$
0e
0m!
0:"
0.#
#40000
0#
0d
0f!
0C!
0l!
#50000
16
1f
1i!
1:"
1G"
1E"
#60000
1#
1d
1f!
1C!
1z#
0~"
1l!
0"#
1Y!
0*#
0+#
1<!
1T
0,#
0E!
0}
0D!
0!
0|
0"
#70000
06
0f
0i!
0:"
#80000
0#
0d
0f!
0C!
0l!
#100000
1#
1d
1f!
1C!
1l!
#120000
0#
0d
0f!
0C!
0l!
#140000
1#
1d
1f!
1C!
1l!
#160000
0#
0d
0f!
0C!
0l!
#180000
1#
1d
1f!
1C!
1l!
#190000
02
13
15
1{
1y
0x
0)"
1,"
12"
19"
1B"
0F"
#200000
0#
0d
0f!
0C!
0l!
#210000
17
1g
1k!
1-"
1."
13"
14"
15"
1A"
18"
#220000
1#
1d
1f!
1C!
1l!
1=$
1?$
#230000
07
0g
0k!
#240000
0#
0d
0f!
0C!
0l!
#260000
1#
1d
1f!
1C!
1l!
#280000
0#
0d
0f!
0C!
0l!
#300000
1#
1d
1f!
1C!
1l!
#320000
0#
16
1%
1X
0d
1f
1i
1h
1h!
1-#
1i!
0f!
0C!
1:"
1.#
12#
1j!
05"
16"
1F"
17"
08"
1p!
1t!
1w!
1z!
1}!
1""
1%"
1("
1+"
0."
11"
1j"
1q"
1u"
1&#
04#
08#
0<#
0@#
0D#
0H#
0L#
0P#
0S#
0W#
0[#
0_#
0c#
0g#
0k#
0l!
0l#
0h#
0d#
0`#
0\#
0X#
0T#
0M#
0I#
0E#
0A#
0=#
09#
05#
1(#
1w"
1{"
1m"
1="
0A"
0E"
1H"
1I"
1M"
1Q"
1U"
1Y"
1]"
1a"
1e"
09"
18"
19"
1f"
1b"
1^"
1Z"
1V"
1R"
1N"
1J"
0I"
0L"
0F"
0B"
1>"
1n"
1|"
1x"
1)#
0M"
1P"
0J"
0Q"
0T"
0N"
0U"
1X"
0R"
0Y"
0\"
0V"
0]"
1`"
0Z"
0a"
0d"
0^"
0e"
1l"
0b"
0m"
0v"
0f"
0w"
1z"
0n"
0{"
0'#
0x"
0(#
0|"
0)#
#340000
1#
1d
1f!
1C!
1|#
0z#
0G"
1?"
1l!
0="
1@"
1E"
0H"
0Y!
1W!
1}#
1/$
10#
1I"
1L"
1F"
1A"
0>"
0<!
1>!
0/#
13#
1;"
1V
0T
1B"
1M"
0P"
1J"
08"
0<"
14#
1F!
1V!
1Q"
1T"
1N"
15#
1="
09"
1/!
1?!
1U"
0X"
1R"
1G
1W
1>"
1Y"
1\"
1V"
1]"
0`"
1Z"
1a"
1d"
1^"
1e"
0l"
1b"
1m"
1v"
1f"
1w"
0z"
1n"
1{"
1'#
1x"
1(#
1|"
1)#
#360000
0#
0d
0f!
0C!
0l!
#380000
1#
1d
1f!
1C!
1{#
1z#
1y#
1x#
1w#
1v#
1u#
1t#
1s#
1r#
1q#
1p#
1o#
1n#
1$#
1*#
1r"
1y"
1k"
0}"
1q!
1c"
1_"
1["
0g"
1W"
1S"
1O"
1K"
0!#
1G"
1C"
1l!
0A"
0D"
0E"
1H"
0I"
0L"
0M"
1P"
0Q"
0T"
0U"
1X"
0Y"
0\"
0]"
1`"
0a"
0d"
0e"
1l"
0m"
0v"
0w"
1z"
0{"
0'#
1,#
0(#
1e!
1d!
1c!
1b!
1a!
1`!
1_!
1^!
1]!
1\!
1[!
1Z!
1Y!
1X!
0}#
0/$
00#
1.$
16#
0)#
1(#
0|"
1{"
0x"
1w"
0n"
1m"
0f"
1e"
0b"
1a"
0^"
1]"
0Z"
1Y"
0V"
1U"
0R"
1Q"
0N"
1M"
0J"
1I"
0F"
1E"
0B"
10!
11!
12!
13!
14!
15!
16!
17!
18!
19!
1:!
1;!
1<!
1=!
04#
07#
1/#
03#
0;"
1U
1T
1S
1R
1Q
1P
1O
1N
1M
1L
1K
1J
1I
1H
1F"
1J"
1N"
1R"
1V"
1Z"
1^"
1b"
1f"
1n"
1x"
1|"
1)#
1D!
18"
1<"
14#
17#
18#
05#
1G!
0F!
0V!
1|
19#
08#
15#
0="
19"
1.!
0/!
0?!
1"
0G
1F
0W
0>"
09#
#390000
06
0%
0f
0i
0-#
0i!
0j!
15"
06"
0:"
0.#
02#
04#
07#
18#
1<#
1@#
1D#
1H#
1L#
1P#
1S#
1W#
1[#
1_#
1c#
1g#
1k#
07"
08"
0<"
0p!
0t!
0w!
0z!
0}!
0""
0%"
0("
0+"
1."
01"
0j"
0q"
0u"
0&#
0(#
0w"
0{"
0m"
1A"
0E"
0I"
0M"
0Q"
0U"
0Y"
0]"
0a"
0e"
09"
18"
1<"
1l#
1h#
1d#
1`#
1\#
1X#
1T#
1M#
1I#
1E#
1A#
1=#
19#
08#
1;#
05#
0<#
0?#
09#
1="
0@"
19"
0f"
0b"
0^"
0Z"
0V"
0R"
0N"
0J"
0F"
1B"
0n"
0|"
0x"
0)#
0A"
1>"
0@#
1C#
0=#
0D#
0G#
0A#
0B"
0H#
1K#
0E#
0L#
0O#
0I#
0P#
1R#
0M#
0S#
0V#
0W#
1Z#
0T#
0[#
0^#
0X#
0_#
1b#
0\#
0c#
0f#
0`#
0g#
1j#
0d#
0k#
0h#
0l#
#400000
0#
0d
0f!
0C!
0l!
#420000
1#
1d
1f!
1C!
1l!
#440000
0#
0d
0f!
0C!
0l!
#460000
1#
1d
1f!
1C!
1l!
#480000
0#
0d
0f!
0C!
0l!
#500000
1#
1d
1f!
1C!
1l!
#520000
0#
0d
0f!
0C!
0l!
#540000
1#
1d
1f!
1C!
1l!
#560000
0#
0d
0f!
0C!
0l!
#580000
1#
1d
1f!
1C!
1l!
#600000
0#
0d
0f!
0C!
0l!
#620000
1#
1d
1f!
1C!
1l!
#640000
0#
0d
0f!
0C!
0l!
#660000
1#
1d
1f!
1C!
1l!
#680000
0#
0d
0f!
0C!
0l!
#700000
1#
1d
1f!
1C!
1l!
#720000
0#
0d
0f!
0C!
0l!
#740000
1#
1d
1f!
1C!
1l!
#760000
0#
0d
0f!
0C!
0l!
#780000
1#
1d
1f!
1C!
1l!
#800000
0#
0d
0f!
0C!
0l!
#820000
1#
1d
1f!
1C!
1l!
#840000
0#
0d
0f!
0C!
0l!
#860000
1#
1d
1f!
1C!
1l!
#880000
0#
0d
0f!
0C!
0l!
#900000
1#
1d
1f!
1C!
1l!
#920000
0#
0d
0f!
0C!
0l!
#940000
1#
1d
1f!
1C!
1l!
#960000
0#
0d
0f!
0C!
0l!
#980000
1#
1d
1f!
1C!
1l!
