Atividade3_1/simulation/qsim/successive_subs.msim.vcd
$comment
	File created using the following command:
		vcd file successive_subs.msim.vcd -direction
$end
$date
	Sat Nov 16 19:24:23 2019
$end
$version
	ModelSim Version 10.5b
$end
$timescale
	1ps
$end

$scope module successive_subs_vhd_vec_tst $end
$var wire 1 ! bt $end
$var wire 1 " clk $end
$var wire 1 # input [15] $end
$var wire 1 $ input [14] $end
$var wire 1 % input [13] $end
$var wire 1 & input [12] $end
$var wire 1 ' input [11] $end
$var wire 1 ( input [10] $end
$var wire 1 ) input [9] $end
$var wire 1 * input [8] $end
$var wire 1 + input [7] $end
$var wire 1 , input [6] $end
$var wire 1 - input [5] $end
$var wire 1 . input [4] $end
$var wire 1 / input [3] $end
$var wire 1 0 input [2] $end
$var wire 1 1 input [1] $end
$var wire 1 2 input [0] $end
$var wire 1 3 quotient [15] $end
$var wire 1 4 quotient [14] $end
$var wire 1 5 quotient [13] $end
$var wire 1 6 quotient [12] $end
$var wire 1 7 quotient [11] $end
$var wire 1 8 quotient [10] $end
$var wire 1 9 quotient [9] $end
$var wire 1 : quotient [8] $end
$var wire 1 ; quotient [7] $end
$var wire 1 < quotient [6] $end
$var wire 1 = quotient [5] $end
$var wire 1 > quotient [4] $end
$var wire 1 ? quotient [3] $end
$var wire 1 @ quotient [2] $end
$var wire 1 A quotient [1] $end
$var wire 1 B quotient [0] $end
$var wire 1 C rest [15] $end
$var wire 1 D rest [14] $end
$var wire 1 E rest [13] $end
$var wire 1 F rest [12] $end
$var wire 1 G rest [11] $end
$var wire 1 H rest [10] $end
$var wire 1 I rest [9] $end
$var wire 1 J rest [8] $end
$var wire 1 K rest [7] $end
$var wire 1 L rest [6] $end
$var wire 1 M rest [5] $end
$var wire 1 N rest [4] $end
$var wire 1 O rest [3] $end
$var wire 1 P rest [2] $end
$var wire 1 Q rest [1] $end
$var wire 1 R rest [0] $end
$var wire 1 S sa_e_z $end
$var wire 1 T sa_lt_z $end
$var wire 1 U sclr $end
$var wire 1 V scnt $end
$var wire 1 W slb_b $end
$var wire 1 X sld_a $end
$var wire 1 Y sslt_a $end
$var wire 1 Z ssub_add $end
$var wire 1 [ sud $end

$scope module i1 $end
$var wire 1 \ gnd $end
$var wire 1 ] vcc $end
$var wire 1 ^ unknown $end
$var wire 1 _ devoe $end
$var wire 1 ` devclrn $end
$var wire 1 a devpor $end
$var wire 1 b ww_devoe $end
$var wire 1 c ww_devclrn $end
$var wire 1 d ww_devpor $end
$var wire 1 e ww_clk $end
$var wire 1 f ww_bt $end
$var wire 1 g ww_input [15] $end
$var wire 1 h ww_input [14] $end
$var wire 1 i ww_input [13] $end
$var wire 1 j ww_input [12] $end
$var wire 1 k ww_input [11] $end
$var wire 1 l ww_input [10] $end
$var wire 1 m ww_input [9] $end
$var wire 1 n ww_input [8] $end
$var wire 1 o ww_input [7] $end
$var wire 1 p ww_input [6] $end
$var wire 1 q ww_input [5] $end
$var wire 1 r ww_input [4] $end
$var wire 1 s ww_input [3] $end
$var wire 1 t ww_input [2] $end
$var wire 1 u ww_input [1] $end
$var wire 1 v ww_input [0] $end
$var wire 1 w ww_quotient [15] $end
$var wire 1 x ww_quotient [14] $end
$var wire 1 y ww_quotient [13] $end
$var wire 1 z ww_quotient [12] $end
$var wire 1 { ww_quotient [11] $end
$var wire 1 | ww_quotient [10] $end
$var wire 1 } ww_quotient [9] $end
$var wire 1 ~ ww_quotient [8] $end
$var wire 1 !! ww_quotient [7] $end
$var wire 1 "! ww_quotient [6] $end
$var wire 1 #! ww_quotient [5] $end
$var wire 1 $! ww_quotient [4] $end
$var wire 1 %! ww_quotient [3] $end
$var wire 1 &! ww_quotient [2] $end
$var wire 1 '! ww_quotient [1] $end
$var wire 1 (! ww_quotient [0] $end
$var wire 1 )! ww_rest [15] $end
$var wire 1 *! ww_rest [14] $end
$var wire 1 +! ww_rest [13] $end
$var wire 1 ,! ww_rest [12] $end
$var wire 1 -! ww_rest [11] $end
$var wire 1 .! ww_rest [10] $end
$var wire 1 /! ww_rest [9] $end
$var wire 1 0! ww_rest [8] $end
$var wire 1 1! ww_rest [7] $end
$var wire 1 2! ww_rest [6] $end
$var wire 1 3! ww_rest [5] $end
$var wire 1 4! ww_rest [4] $end
$var wire 1 5! ww_rest [3] $end
$var wire 1 6! ww_rest [2] $end
$var wire 1 7! ww_rest [1] $end
$var wire 1 8! ww_rest [0] $end
$var wire 1 9! ww_sa_e_z $end
$var wire 1 :! ww_sa_lt_z $end
$var wire 1 ;! ww_sld_a $end
$var wire 1 <! ww_slb_b $end
$var wire 1 =! ww_sslt_a $end
$var wire 1 >! ww_sclr $end
$var wire 1 ?! ww_scnt $end
$var wire 1 @! ww_sud $end
$var wire 1 A! ww_ssub_add $end
$var wire 1 B! \clk~inputclkctrl_INCLK_bus\ [3] $end
$var wire 1 C! \clk~inputclkctrl_INCLK_bus\ [2] $end
$var wire 1 D! \clk~inputclkctrl_INCLK_bus\ [1] $end
$var wire 1 E! \clk~inputclkctrl_INCLK_bus\ [0] $end
$var wire 1 F! \quotient[0]~output_o\ $end
$var wire 1 G! \quotient[1]~output_o\ $end
$var wire 1 H! \quotient[2]~output_o\ $end
$var wire 1 I! \quotient[3]~output_o\ $end
$var wire 1 J! \quotient[4]~output_o\ $end
$var wire 1 K! \quotient[5]~output_o\ $end
$var wire 1 L! \quotient[6]~output_o\ $end
$var wire 1 M! \quotient[7]~output_o\ $end
$var wire 1 N! \quotient[8]~output_o\ $end
$var wire 1 O! \quotient[9]~output_o\ $end
$var wire 1 P! \quotient[10]~output_o\ $end
$var wire 1 Q! \quotient[11]~output_o\ $end
$var wire 1 R! \quotient[12]~output_o\ $end
$var wire 1 S! \quotient[13]~output_o\ $end
$var wire 1 T! \quotient[14]~output_o\ $end
$var wire 1 U! \quotient[15]~output_o\ $end
$var wire 1 V! \rest[0]~output_o\ $end
$var wire 1 W! \rest[1]~output_o\ $end
$var wire 1 X! \rest[2]~output_o\ $end
$var wire 1 Y! \rest[3]~output_o\ $end
$var wire 1 Z! \rest[4]~output_o\ $end
$var wire 1 [! \rest[5]~output_o\ $end
$var wire 1 \! \rest[6]~output_o\ $end
$var wire 1 ]! \rest[7]~output_o\ $end
$var wire 1 ^! \rest[8]~output_o\ $end
$var wire 1 _! \rest[9]~output_o\ $end
$var wire 1 `! \rest[10]~output_o\ $end
$var wire 1 a! \rest[11]~output_o\ $end
$var wire 1 b! \rest[12]~output_o\ $end
$var wire 1 c! \rest[13]~output_o\ $end
$var wire 1 d! \rest[14]~output_o\ $end
$var wire 1 e! \rest[15]~output_o\ $end
$var wire 1 f! \sa_e_z~output_o\ $end
$var wire 1 g! \sa_lt_z~output_o\ $end
$var wire 1 h! \sld_a~output_o\ $end
$var wire 1 i! \slb_b~output_o\ $end
$var wire 1 j! \sslt_a~output_o\ $end
$var wire 1 k! \sclr~output_o\ $end
$var wire 1 l! \scnt~output_o\ $end
$var wire 1 m! \sud~output_o\ $end
$var wire 1 n! \ssub_add~output_o\ $end
$var wire 1 o! \clk~input_o\ $end
$var wire 1 p! \clk~inputclkctrl_outclk\ $end
$var wire 1 q! \i1|count[0]~16_combout\ $end
$var wire 1 r! \bt~input_o\ $end
$var wire 1 s! \i2|Mux2~0_combout\ $end
$var wire 1 t! \i2|comb~0_combout\ $end
$var wire 1 u! \i2|ld_a~combout\ $end
$var wire 1 v! \i2|Equal0~0_combout\ $end
$var wire 1 w! \i2|slt_a~0_combout\ $end
$var wire 1 x! \i2|slt_a~combout\ $end
$var wire 1 y! \input[15]~input_o\ $end
$var wire 1 z! \i1|reg_a~16_combout\ $end
$var wire 1 {! \i2|Equal0~2_combout\ $end
$var wire 1 |! \i2|ud~combout\ $end
$var wire 1 }! \i1|process_0~1_combout\ $end
$var wire 1 ~! \i2|comb~2_combout\ $end
$var wire 1 !" \i2|comb~1_combout\ $end
$var wire 1 "" \i2|ld_b~combout\ $end
$var wire 1 #" \i1|reg_b~15_combout\ $end
$var wire 1 $" \i1|Add0~62_combout\ $end
$var wire 1 %" \input[14]~input_o\ $end
$var wire 1 &" \i1|reg_b~14_combout\ $end
$var wire 1 '" \i1|Add0~58_combout\ $end
$var wire 1 (" \input[13]~input_o\ $end
$var wire 1 )" \i1|reg_b~13_combout\ $end
$var wire 1 *" \i1|Add0~54_combout\ $end
$var wire 1 +" \input[12]~input_o\ $end
$var wire 1 ," \i1|reg_b~12_combout\ $end
$var wire 1 -" \i1|Add0~50_combout\ $end
$var wire 1 ." \input[11]~input_o\ $end
$var wire 1 /" \i1|reg_b~11_combout\ $end
$var wire 1 0" \i1|Add0~46_combout\ $end
$var wire 1 1" \input[10]~input_o\ $end
$var wire 1 2" \i1|reg_b~10_combout\ $end
$var wire 1 3" \i1|Add0~42_combout\ $end
$var wire 1 4" \input[9]~input_o\ $end
$var wire 1 5" \i1|reg_b~9_combout\ $end
$var wire 1 6" \i1|Add0~38_combout\ $end
$var wire 1 7" \input[8]~input_o\ $end
$var wire 1 8" \i1|reg_b~8_combout\ $end
$var wire 1 9" \i1|Add0~34_combout\ $end
$var wire 1 :" \input[7]~input_o\ $end
$var wire 1 ;" \i1|reg_b~7_combout\ $end
$var wire 1 <" \i1|Add0~30_combout\ $end
$var wire 1 =" \input[6]~input_o\ $end
$var wire 1 >" \i1|reg_b~6_combout\ $end
$var wire 1 ?" \i1|Add0~26_combout\ $end
$var wire 1 @" \input[5]~input_o\ $end
$var wire 1 A" \i1|reg_b~5_combout\ $end
$var wire 1 B" \i1|Add0~22_combout\ $end
$var wire 1 C" \input[4]~input_o\ $end
$var wire 1 D" \i1|reg_b~4_combout\ $end
$var wire 1 E" \i1|Add0~18_combout\ $end
$var wire 1 F" \input[3]~input_o\ $end
$var wire 1 G" \i1|reg_b~3_combout\ $end
$var wire 1 H" \i1|Add0~14_combout\ $end
$var wire 1 I" \input[2]~input_o\ $end
$var wire 1 J" \i1|reg_b~2_combout\ $end
$var wire 1 K" \i1|Add0~10_combout\ $end
$var wire 1 L" \input[1]~input_o\ $end
$var wire 1 M" \i1|reg_b~1_combout\ $end
$var wire 1 N" \i1|Add0~6_combout\ $end
$var wire 1 O" \input[0]~input_o\ $end
$var wire 1 P" \i1|reg_b~0_combout\ $end
$var wire 1 Q" \i1|Add0~0_combout\ $end
$var wire 1 R" \i1|process_0~2_combout\ $end
$var wire 1 S" \i1|Add0~2_cout\ $end
$var wire 1 T" \i1|Add0~3_combout\ $end
$var wire 1 U" \i1|Add0~5_combout\ $end
$var wire 1 V" \i1|reg_a[15]~1_combout\ $end
$var wire 1 W" \i1|reg_a~0_combout\ $end
$var wire 1 X" \i1|Add0~4\ $end
$var wire 1 Y" \i1|Add0~7_combout\ $end
$var wire 1 Z" \i1|Add0~9_combout\ $end
$var wire 1 [" \i1|reg_a~2_combout\ $end
$var wire 1 \" \i1|Add0~8\ $end
$var wire 1 ]" \i1|Add0~11_combout\ $end
$var wire 1 ^" \i1|Add0~13_combout\ $end
$var wire 1 _" \i1|reg_a~3_combout\ $end
$var wire 1 `" \i1|Add0~12\ $end
$var wire 1 a" \i1|Add0~15_combout\ $end
$var wire 1 b" \i1|Add0~17_combout\ $end
$var wire 1 c" \i1|reg_a~4_combout\ $end
$var wire 1 d" \i1|Add0~16\ $end
$var wire 1 e" \i1|Add0~19_combout\ $end
$var wire 1 f" \i1|Add0~21_combout\ $end
$var wire 1 g" \i1|reg_a~5_combout\ $end
$var wire 1 h" \i1|Add0~20\ $end
$var wire 1 i" \i1|Add0~23_combout\ $end
$var wire 1 j" \i1|Add0~25_combout\ $end
$var wire 1 k" \i1|reg_a~6_combout\ $end
$var wire 1 l" \i1|Add0~24\ $end
$var wire 1 m" \i1|Add0~27_combout\ $end
$var wire 1 n" \i1|Add0~29_combout\ $end
$var wire 1 o" \i1|reg_a~7_combout\ $end
$var wire 1 p" \i1|Add0~28\ $end
$var wire 1 q" \i1|Add0~31_combout\ $end
$var wire 1 r" \i1|Add0~33_combout\ $end
$var wire 1 s" \i1|reg_a~8_combout\ $end
$var wire 1 t" \i1|Add0~32\ $end
$var wire 1 u" \i1|Add0~35_combout\ $end
$var wire 1 v" \i1|Add0~37_combout\ $end
$var wire 1 w" \i1|reg_a~9_combout\ $end
$var wire 1 x" \i1|Add0~36\ $end
$var wire 1 y" \i1|Add0~39_combout\ $end
$var wire 1 z" \i1|Add0~41_combout\ $end
$var wire 1 {" \i1|reg_a~10_combout\ $end
$var wire 1 |" \i1|Add0~40\ $end
$var wire 1 }" \i1|Add0~43_combout\ $end
$var wire 1 ~" \i1|Add0~45_combout\ $end
$var wire 1 !# \i1|reg_a~11_combout\ $end
$var wire 1 "# \i1|Add0~44\ $end
$var wire 1 ## \i1|Add0~47_combout\ $end
$var wire 1 $# \i1|Add0~49_combout\ $end
$var wire 1 %# \i1|reg_a~12_combout\ $end
$var wire 1 &# \i1|Add0~48\ $end
$var wire 1 '# \i1|Add0~51_combout\ $end
$var wire 1 (# \i1|Add0~53_combout\ $end
$var wire 1 )# \i1|reg_a~13_combout\ $end
$var wire 1 *# \i1|Add0~52\ $end
$var wire 1 +# \i1|Add0~55_combout\ $end
$var wire 1 ,# \i1|Add0~57_combout\ $end
$var wire 1 -# \i1|reg_a~14_combout\ $end
$var wire 1 .# \i1|Add0~56\ $end
$var wire 1 /# \i1|Add0~59_combout\ $end
$var wire 1 0# \i1|Add0~61_combout\ $end
$var wire 1 1# \i1|reg_a~15_combout\ $end
$var wire 1 2# \i1|Add0~60\ $end
$var wire 1 3# \i1|Add0~63_combout\ $end
$var wire 1 4# \i1|Add0~65_combout\ $end
$var wire 1 5# \i1|Equal0~3_combout\ $end
$var wire 1 6# \i1|Equal0~2_combout\ $end
$var wire 1 7# \i1|Equal0~1_combout\ $end
$var wire 1 8# \i1|Equal0~0_combout\ $end
$var wire 1 9# \i1|Equal0~4_combout\ $end
$var wire 1 :# \i1|Equal0~5_combout\ $end
$var wire 1 ;# \i2|state[2]~0_combout\ $end
$var wire 1 <# \i1|process_0~3_combout\ $end
$var wire 1 =# \i1|a_lt_z~combout\ $end
$var wire 1 ># \i2|state[2]~1_combout\ $end
$var wire 1 ?# \i2|Mux1~1_combout\ $end
$var wire 1 @# \i2|Mux1~0_combout\ $end
$var wire 1 A# \i2|Mux1~2_combout\ $end
$var wire 1 B# \i2|Mux2~1_combout\ $end
$var wire 1 C# \i2|Mux2~2_combout\ $end
$var wire 1 D# \i2|Equal0~1_combout\ $end
$var wire 1 E# \i2|comb~3_combout\ $end
$var wire 1 F# \i2|clr~combout\ $end
$var wire 1 G# \i2|comb~4_combout\ $end
$var wire 1 H# \i2|cnt~combout\ $end
$var wire 1 I# \i1|count[0]~18_combout\ $end
$var wire 1 J# \i1|process_0~0_combout\ $end
$var wire 1 K# \i1|count[0]~17\ $end
$var wire 1 L# \i1|count[1]~19_combout\ $end
$var wire 1 M# \i1|count[1]~20\ $end
$var wire 1 N# \i1|count[2]~21_combout\ $end
$var wire 1 O# \i1|count[2]~22\ $end
$var wire 1 P# \i1|count[3]~23_combout\ $end
$var wire 1 Q# \i1|count[3]~24\ $end
$var wire 1 R# \i1|count[4]~25_combout\ $end
$var wire 1 S# \i1|count[4]~26\ $end
$var wire 1 T# \i1|count[5]~27_combout\ $end
$var wire 1 U# \i1|count[5]~28\ $end
$var wire 1 V# \i1|count[6]~29_combout\ $end
$var wire 1 W# \i1|count[6]~30\ $end
$var wire 1 X# \i1|count[7]~31_combout\ $end
$var wire 1 Y# \i1|count[7]~32\ $end
$var wire 1 Z# \i1|count[8]~33_combout\ $end
$var wire 1 [# \i1|count[8]~34\ $end
$var wire 1 \# \i1|count[9]~35_combout\ $end
$var wire 1 ]# \i1|count[9]~36\ $end
$var wire 1 ^# \i1|count[10]~37_combout\ $end
$var wire 1 _# \i1|count[10]~38\ $end
$var wire 1 `# \i1|count[11]~39_combout\ $end
$var wire 1 a# \i1|count[11]~40\ $end
$var wire 1 b# \i1|count[12]~41_combout\ $end
$var wire 1 c# \i1|count[12]~42\ $end
$var wire 1 d# \i1|count[13]~43_combout\ $end
$var wire 1 e# \i1|count[13]~44\ $end
$var wire 1 f# \i1|count[14]~45_combout\ $end
$var wire 1 g# \i1|count[14]~46\ $end
$var wire 1 h# \i1|count[15]~47_combout\ $end
$var wire 1 i# \i1|count\ [15] $end
$var wire 1 j# \i1|count\ [14] $end
$var wire 1 k# \i1|count\ [13] $end
$var wire 1 l# \i1|count\ [12] $end
$var wire 1 m# \i1|count\ [11] $end
$var wire 1 n# \i1|count\ [10] $end
$var wire 1 o# \i1|count\ [9] $end
$var wire 1 p# \i1|count\ [8] $end
$var wire 1 q# \i1|count\ [7] $end
$var wire 1 r# \i1|count\ [6] $end
$var wire 1 s# \i1|count\ [5] $end
$var wire 1 t# \i1|count\ [4] $end
$var wire 1 u# \i1|count\ [3] $end
$var wire 1 v# \i1|count\ [2] $end
$var wire 1 w# \i1|count\ [1] $end
$var wire 1 x# \i1|count\ [0] $end
$var wire 1 y# \i1|reg_a\ [15] $end
$var wire 1 z# \i1|reg_a\ [14] $end
$var wire 1 {# \i1|reg_a\ [13] $end
$var wire 1 |# \i1|reg_a\ [12] $end
$var wire 1 }# \i1|reg_a\ [11] $end
$var wire 1 ~# \i1|reg_a\ [10] $end
$var wire 1 !$ \i1|reg_a\ [9] $end
$var wire 1 "$ \i1|reg_a\ [8] $end
$var wire 1 #$ \i1|reg_a\ [7] $end
$var wire 1 $$ \i1|reg_a\ [6] $end
$var wire 1 %$ \i1|reg_a\ [5] $end
$var wire 1 &$ \i1|reg_a\ [4] $end
$var wire 1 '$ \i1|reg_a\ [3] $end
$var wire 1 ($ \i1|reg_a\ [2] $end
$var wire 1 )$ \i1|reg_a\ [1] $end
$var wire 1 *$ \i1|reg_a\ [0] $end
$var wire 1 +$ \i2|state\ [2] $end
$var wire 1 ,$ \i2|state\ [1] $end
$var wire 1 -$ \i2|state\ [0] $end
$var wire 1 .$ \i1|reg_b\ [15] $end
$var wire 1 /$ \i1|reg_b\ [14] $end
$var wire 1 0$ \i1|reg_b\ [13] $end
$var wire 1 1$ \i1|reg_b\ [12] $end
$var wire 1 2$ \i1|reg_b\ [11] $end
$var wire 1 3$ \i1|reg_b\ [10] $end
$var wire 1 4$ \i1|reg_b\ [9] $end
$var wire 1 5$ \i1|reg_b\ [8] $end
$var wire 1 6$ \i1|reg_b\ [7] $end
$var wire 1 7$ \i1|reg_b\ [6] $end
$var wire 1 8$ \i1|reg_b\ [5] $end
$var wire 1 9$ \i1|reg_b\ [4] $end
$var wire 1 :$ \i1|reg_b\ [3] $end
$var wire 1 ;$ \i1|reg_b\ [2] $end
$var wire 1 <$ \i1|reg_b\ [1] $end
$var wire 1 =$ \i1|reg_b\ [0] $end
$upscope $end
$upscope $end
$enddefinitions $end
#0
$dumpvars
0!
0"
1S
xT
1U
0V
0W
0X
0Y
xZ
x[
0\
1]
x^
1_
1`
1a
1b
1c
1d
0e
0f
19!
x:!
0;!
0<!
0=!
1>!
0?!
x@!
xA!
0F!
0G!
0H!
0I!
0J!
0K!
0L!
0M!
0N!
0O!
0P!
0Q!
0R!
0S!
0T!
0U!
0V!
0W!
0X!
0Y!
0Z!
0[!
0\!
0]!
0^!
0_!
0`!
0a!
0b!
0c!
0d!
0e!
1f!
xg!
0h!
0i!
0j!
1k!
0l!
xm!
xn!
0o!
0p!
1q!
0r!
0s!
1t!
0u!
1v!
0w!
0x!
0y!
0z!
0{!
x|!
0}!
0~!
1!"
0""
0#"
0$"
0%"
0&"
0'"
0("
0)"
0*"
0+"
0,"
0-"
0."
0/"
00"
01"
02"
03"
04"
05"
06"
07"
08"
09"
0:"
0;"
0<"
0="
0>"
0?"
0@"
0A"
0B"
0C"
0D"
0E"
1F"
0G"
0H"
0I"
0J"
0K"
0L"
0M"
0N"
0O"
0P"
0Q"
0R"
0S"
0T"
0U"
1V"
0W"
1X"
0Y"
0Z"
0["
0\"
0]"
0^"
0_"
1`"
0a"
1b"
0c"
0d"
0e"
0f"
0g"
1h"
0i"
0j"
0k"
0l"
0m"
0n"
0o"
1p"
0q"
0r"
0s"
0t"
0u"
0v"
0w"
1x"
0y"
0z"
0{"
0|"
0}"
0~"
0!#
1"#
0##
0$#
0%#
0&#
0'#
0(#
0)#
1*#
0+#
0,#
0-#
0.#
0/#
00#
01#
12#
03#
04#
15#
16#
17#
18#
19#
1:#
0;#
1<#
x=#
0>#
1?#
0@#
0A#
0B#
0C#
1D#
0E#
1F#
1G#
0H#
1I#
0J#
0K#
1L#
1M#
1N#
0O#
1P#
1Q#
1R#
0S#
1T#
1U#
1V#
0W#
1X#
1Y#
1Z#
0[#
1\#
1]#
1^#
0_#
1`#
1a#
1b#
0c#
1d#
1e#
1f#
0g#
1h#
0#
0$
0%
0&
0'
0(
0)
0*
0+
0,
0-
0.
1/
00
01
02
03
04
05
06
07
08
09
0:
0;
0<
0=
0>
0?
0@
0A
0B
0C
0D
0E
0F
0G
0H
0I
0J
0K
0L
0M
0N
0O
0P
0Q
0R
0g
0h
0i
0j
0k
0l
0m
0n
0o
0p
0q
0r
1s
0t
0u
0v
0w
0x
0y
0z
0{
0|
0}
0~
0!!
0"!
0#!
0$!
0%!
0&!
0'!
0(!
0)!
0*!
0+!
0,!
0-!
0.!
0/!
00!
01!
02!
03!
04!
05!
06!
07!
08!
0i#
0j#
0k#
0l#
0m#
0n#
0o#
0p#
0q#
0r#
0s#
0t#
0u#
0v#
0w#
0x#
0y#
0z#
0{#
0|#
0}#
0~#
0!$
0"$
0#$
0$$
0%$
0&$
0'$
0($
0)$
0*$
0+$
0,$
0-$
0.$
0/$
00$
01$
02$
03$
04$
05$
06$
07$
08$
09$
0:$
0;$
0<$
0=$
1B!
1C!
1D!
0E!
$end
#10000
1!
1f
1r!
1C#
#20000
1"
1e
1o!
1E!
1p!
1-$
1s!
0t!
0?#
1B#
0D#
1E#
0F#
1u!
1c"
0I#
1a"
1h!
0k!
1;!
0>!
1X
0U
#30000
0!
0f
0r!
1@#
0B#
0C#
1A#
#40000
0"
0e
0o!
0E!
0p!
#60000
1"
1e
1o!
1E!
1'$
1,$
0v!
1w!
1{!
0@#
0G#
08#
1p!
09#
0A#
1>#
0|!
1H#
1x!
1Y!
0-$
1R"
1I#
1}!
1J#
0:#
0<#
1B#
15!
0s!
1t!
0w!
0{!
1~!
0!"
1?#
0B#
1G#
1O
1C#
0=#
x>#
0L#
0N#
0P#
0R#
0T#
0V#
0X#
0Z#
0\#
0^#
0`#
0b#
0d#
0f#
0h#
1$"
1'"
1*"
1-"
10"
13"
16"
19"
1<"
1?"
1B"
1E"
1H"
1K"
1N"
1Q"
1S"
1j!
1l!
0m!
0n!
0C#
1A#
1""
0>#
0H#
0u!
0X"
1Y"
1]"
0a"
1d"
1e"
1i"
1m"
1q"
1u"
1y"
1}"
1##
1'#
1+#
1/#
13#
1=!
1?!
0@!
0A!
0f!
0}!
0R"
0V"
0I#
0J#
1G"
0H"
1Y
1V
0[
0Z
14#
10#
1,#
1(#
1$#
1~"
1z"
1v"
1r"
1n"
1j"
1f"
0e"
0h"
0b"
1^"
1Z"
0Y"
1\"
09!
0g!
1a"
0d"
1L#
1N#
1P#
1R#
1T#
1V#
1X#
1Z#
1\#
1^#
1`#
1b#
1d#
1f#
1h#
0S"
0$"
0'"
0*"
0-"
00"
03"
06"
09"
0<"
0?"
0B"
0E"
1H"
0K"
0N"
0Q"
0S
0h!
0l!
1i!
0]"
0`"
0Z"
0i"
1l"
0f"
0:!
1Y"
0\"
1]"
1`"
0a"
1d"
1i"
0l"
0m"
0q"
0u"
0y"
0}"
0##
0'#
0+#
0/#
03#
1X"
1h"
1b"
0;!
0?!
1<!
0T
1m"
0j"
1a"
0^"
0X
0V
1W
0i"
0Y"
04#
00#
0,#
0(#
0$#
0~"
0z"
0v"
0r"
0n"
0m"
1j"
1e"
0b"
0a"
1^"
0]"
1Z"
1b"
1n"
0^"
0b"
1f"
0n"
0Z"
0j"
#80000
0"
0e
0o!
0E!
0p!
#100000
1"
1e
1o!
1E!
1p!
1:$
#120000
0"
0e
0o!
0E!
0p!
#140000
1"
1e
1o!
1E!
1p!
#160000
0"
0e
0o!
0E!
0p!
#180000
1"
1e
1o!
1E!
1p!
#200000
0"
0/
12
0e
1v
0s
0F"
1O"
0o!
0E!
1P"
1Q"
0G"
0H"
1a"
0d"
1T"
0p!
1U"
0e"
1b"
0f"
#220000
1"
1e
1o!
1E!
1p!
0:$
1=$
#240000
0"
0e
0o!
0E!
0p!
#250000
1!
1f
1r!
1C#
#260000
1"
1e
1o!
1E!
1p!
1-$
1s!
0t!
1w!
1{!
0~!
1!"
0G#
0""
1H#
1u!
1}!
1R"
1V"
1I#
1J#
0L#
0N#
0P#
0R#
0T#
0V#
0X#
0Z#
0\#
0^#
0`#
0b#
0d#
0f#
0h#
1S"
1$"
1'"
1*"
1-"
10"
13"
16"
19"
1<"
1?"
1B"
1E"
1H"
1K"
1N"
0Q"
1h!
1l!
0i!
1Y"
1]"
0a"
1d"
1e"
1i"
1m"
1q"
1u"
1y"
1}"
1##
1'#
1+#
1/#
13#
1;!
1?!
0<!
1X
1V
0W
14#
10#
1,#
1(#
1$#
1~"
1z"
1v"
1r"
1n"
1j"
1f"
0e"
0h"
0b"
1^"
1Z"
0i"
1l"
0f"
0m"
0p"
0j"
0q"
1t"
0n"
0u"
0x"
0r"
0y"
1|"
0v"
0}"
0"#
0z"
0##
1&#
0~"
0'#
0*#
0$#
0+#
1.#
0(#
0/#
02#
0,#
03#
00#
04#
#270000
0!
0f
0r!
1B#
0C#
1C#
#280000
0"
0e
0o!
0E!
0p!
#300000
1"
1e
1o!
1E!
1)$
1($
0'$
0c"
1_"
1["
1p!
0Y"
1\"
0]"
0`"
1a"
0d"
0Y!
1X!
1W!
1*$
1x#
1e"
1h"
1b"
0a"
1d"
0^"
1]"
0Z"
05!
16!
17!
0q!
1K#
1W"
1Q
1P
0O
1^"
0e"
0h"
0b"
1i"
0l"
1f"
0T"
0X"
1L#
1F!
1V!
1m"
1p"
1j"
0i"
1l"
0f"
1Y"
0U"
1(!
18!
0m"
0p"
0j"
1q"
0t"
1n"
1B
1R
1Z"
1u"
1x"
1r"
0q"
1t"
0n"
0u"
0x"
0r"
1y"
0|"
1v"
1}"
1"#
1z"
0y"
1|"
0v"
0}"
0"#
0z"
1##
0&#
1~"
1'#
1*#
1$#
0##
1&#
0~"
0'#
0*#
0$#
1+#
0.#
1(#
1/#
12#
1,#
0+#
1.#
0(#
0/#
02#
0,#
13#
10#
14#
03#
00#
04#
#320000
0"
0e
0o!
0E!
0p!
#340000
1"
1e
1o!
1E!
1p!
0*$
0x#
1w#
0L#
0M#
1q!
0K#
0W"
1T"
1X"
1L#
1M#
1N#
1G!
0F!
0V!
0N#
0Y"
1U"
1'!
0(!
08!
0B
1A
0R
0Z"
#360000
0"
0e
0o!
0E!
0p!
#380000
1"
1e
1o!
1E!
0)$
0["
1p!
1Y"
0\"
0W!
1*$
1x#
0]"
1Z"
07!
0q!
1K#
1W"
0Q
0^"
0T"
0X"
0L#
0M#
1F!
1V!
1N#
0Y"
1\"
0U"
1(!
18!
1B
1R
1]"
0Z"
1^"
#400000
0"
0e
0o!
0E!
0p!
#420000
1"
1e
1o!
1E!
1p!
0*$
0x#
0w#
1v#
0N#
1O#
1L#
1M#
1q!
0K#
0W"
1T"
1X"
0L#
1N#
0O#
1P#
1H!
0G!
0F!
0V!
0P#
1Y"
0\"
1U"
1&!
0'!
0(!
08!
0B
0A
1@
0R
0]"
1Z"
0^"
#440000
0"
0e
0o!
0E!
0p!
#460000
1"
1e
1o!
1E!
1)$
0($
0_"
1["
1p!
0Y"
1\"
1]"
1`"
0X!
1W!
1*$
1x#
1a"
0d"
1^"
0]"
0`"
0Z"
06!
17!
0q!
1K#
1W"
1Q
0P
0a"
1d"
0^"
1e"
1h"
1b"
0T"
0X"
1L#
1F!
1V!
1i"
0l"
1f"
0e"
0h"
0b"
1Y"
0U"
1(!
18!
0i"
1l"
0f"
1m"
1p"
1j"
1B
1R
1Z"
1q"
0t"
1n"
0m"
0p"
0j"
0q"
1t"
0n"
1u"
1x"
1r"
1y"
0|"
1v"
0u"
0x"
0r"
0y"
1|"
0v"
1}"
1"#
1z"
1##
0&#
1~"
0}"
0"#
0z"
0##
1&#
0~"
1'#
1*#
1$#
1+#
0.#
1(#
0'#
0*#
0$#
0+#
1.#
0(#
1/#
12#
1,#
13#
10#
0/#
02#
0,#
03#
00#
14#
04#
#480000
0"
0e
0o!
0E!
0p!
#500000
1"
1e
1o!
1E!
1p!
0*$
0x#
1w#
0L#
0M#
1q!
0K#
0W"
1T"
1X"
1L#
1M#
0N#
1O#
1G!
0F!
0V!
1P#
1N#
0O#
0Y"
1U"
1'!
0(!
08!
0B
1A
0R
0Z"
0P#
#520000
0"
0e
0o!
0E!
0p!
