Atividade3_1/simulation/qsim/successive_subs.msim.vcd
$comment
	File created using the following command:
		vcd file successive_subs.msim.vcd -direction
$end
$date
	Sun Nov 17 10:51:26 2019
$end
$version
	ModelSim Version 10.5b
$end
$timescale
	1ps
$end

$scope module successive_subs_vhd_vec_tst $end
$var wire 1 ! bt $end
$var wire 1 " clk $end
$var wire 1 # input [15] $end
$var wire 1 $ input [14] $end
$var wire 1 % input [13] $end
$var wire 1 & input [12] $end
$var wire 1 ' input [11] $end
$var wire 1 ( input [10] $end
$var wire 1 ) input [9] $end
$var wire 1 * input [8] $end
$var wire 1 + input [7] $end
$var wire 1 , input [6] $end
$var wire 1 - input [5] $end
$var wire 1 . input [4] $end
$var wire 1 / input [3] $end
$var wire 1 0 input [2] $end
$var wire 1 1 input [1] $end
$var wire 1 2 input [0] $end
$var wire 1 3 quotient [15] $end
$var wire 1 4 quotient [14] $end
$var wire 1 5 quotient [13] $end
$var wire 1 6 quotient [12] $end
$var wire 1 7 quotient [11] $end
$var wire 1 8 quotient [10] $end
$var wire 1 9 quotient [9] $end
$var wire 1 : quotient [8] $end
$var wire 1 ; quotient [7] $end
$var wire 1 < quotient [6] $end
$var wire 1 = quotient [5] $end
$var wire 1 > quotient [4] $end
$var wire 1 ? quotient [3] $end
$var wire 1 @ quotient [2] $end
$var wire 1 A quotient [1] $end
$var wire 1 B quotient [0] $end
$var wire 1 C rest [15] $end
$var wire 1 D rest [14] $end
$var wire 1 E rest [13] $end
$var wire 1 F rest [12] $end
$var wire 1 G rest [11] $end
$var wire 1 H rest [10] $end
$var wire 1 I rest [9] $end
$var wire 1 J rest [8] $end
$var wire 1 K rest [7] $end
$var wire 1 L rest [6] $end
$var wire 1 M rest [5] $end
$var wire 1 N rest [4] $end
$var wire 1 O rest [3] $end
$var wire 1 P rest [2] $end
$var wire 1 Q rest [1] $end
$var wire 1 R rest [0] $end

$scope module i1 $end
$var wire 1 S gnd $end
$var wire 1 T vcc $end
$var wire 1 U unknown $end
$var wire 1 V devoe $end
$var wire 1 W devclrn $end
$var wire 1 X devpor $end
$var wire 1 Y ww_devoe $end
$var wire 1 Z ww_devclrn $end
$var wire 1 [ ww_devpor $end
$var wire 1 \ ww_clk $end
$var wire 1 ] ww_bt $end
$var wire 1 ^ ww_input [15] $end
$var wire 1 _ ww_input [14] $end
$var wire 1 ` ww_input [13] $end
$var wire 1 a ww_input [12] $end
$var wire 1 b ww_input [11] $end
$var wire 1 c ww_input [10] $end
$var wire 1 d ww_input [9] $end
$var wire 1 e ww_input [8] $end
$var wire 1 f ww_input [7] $end
$var wire 1 g ww_input [6] $end
$var wire 1 h ww_input [5] $end
$var wire 1 i ww_input [4] $end
$var wire 1 j ww_input [3] $end
$var wire 1 k ww_input [2] $end
$var wire 1 l ww_input [1] $end
$var wire 1 m ww_input [0] $end
$var wire 1 n ww_quotient [15] $end
$var wire 1 o ww_quotient [14] $end
$var wire 1 p ww_quotient [13] $end
$var wire 1 q ww_quotient [12] $end
$var wire 1 r ww_quotient [11] $end
$var wire 1 s ww_quotient [10] $end
$var wire 1 t ww_quotient [9] $end
$var wire 1 u ww_quotient [8] $end
$var wire 1 v ww_quotient [7] $end
$var wire 1 w ww_quotient [6] $end
$var wire 1 x ww_quotient [5] $end
$var wire 1 y ww_quotient [4] $end
$var wire 1 z ww_quotient [3] $end
$var wire 1 { ww_quotient [2] $end
$var wire 1 | ww_quotient [1] $end
$var wire 1 } ww_quotient [0] $end
$var wire 1 ~ ww_rest [15] $end
$var wire 1 !! ww_rest [14] $end
$var wire 1 "! ww_rest [13] $end
$var wire 1 #! ww_rest [12] $end
$var wire 1 $! ww_rest [11] $end
$var wire 1 %! ww_rest [10] $end
$var wire 1 &! ww_rest [9] $end
$var wire 1 '! ww_rest [8] $end
$var wire 1 (! ww_rest [7] $end
$var wire 1 )! ww_rest [6] $end
$var wire 1 *! ww_rest [5] $end
$var wire 1 +! ww_rest [4] $end
$var wire 1 ,! ww_rest [3] $end
$var wire 1 -! ww_rest [2] $end
$var wire 1 .! ww_rest [1] $end
$var wire 1 /! ww_rest [0] $end
$var wire 1 0! \clk~inputclkctrl_INCLK_bus\ [3] $end
$var wire 1 1! \clk~inputclkctrl_INCLK_bus\ [2] $end
$var wire 1 2! \clk~inputclkctrl_INCLK_bus\ [1] $end
$var wire 1 3! \clk~inputclkctrl_INCLK_bus\ [0] $end
$var wire 1 4! \quotient[0]~output_o\ $end
$var wire 1 5! \quotient[1]~output_o\ $end
$var wire 1 6! \quotient[2]~output_o\ $end
$var wire 1 7! \quotient[3]~output_o\ $end
$var wire 1 8! \quotient[4]~output_o\ $end
$var wire 1 9! \quotient[5]~output_o\ $end
$var wire 1 :! \quotient[6]~output_o\ $end
$var wire 1 ;! \quotient[7]~output_o\ $end
$var wire 1 <! \quotient[8]~output_o\ $end
$var wire 1 =! \quotient[9]~output_o\ $end
$var wire 1 >! \quotient[10]~output_o\ $end
$var wire 1 ?! \quotient[11]~output_o\ $end
$var wire 1 @! \quotient[12]~output_o\ $end
$var wire 1 A! \quotient[13]~output_o\ $end
$var wire 1 B! \quotient[14]~output_o\ $end
$var wire 1 C! \quotient[15]~output_o\ $end
$var wire 1 D! \rest[0]~output_o\ $end
$var wire 1 E! \rest[1]~output_o\ $end
$var wire 1 F! \rest[2]~output_o\ $end
$var wire 1 G! \rest[3]~output_o\ $end
$var wire 1 H! \rest[4]~output_o\ $end
$var wire 1 I! \rest[5]~output_o\ $end
$var wire 1 J! \rest[6]~output_o\ $end
$var wire 1 K! \rest[7]~output_o\ $end
$var wire 1 L! \rest[8]~output_o\ $end
$var wire 1 M! \rest[9]~output_o\ $end
$var wire 1 N! \rest[10]~output_o\ $end
$var wire 1 O! \rest[11]~output_o\ $end
$var wire 1 P! \rest[12]~output_o\ $end
$var wire 1 Q! \rest[13]~output_o\ $end
$var wire 1 R! \rest[14]~output_o\ $end
$var wire 1 S! \rest[15]~output_o\ $end
$var wire 1 T! \clk~input_o\ $end
$var wire 1 U! \clk~inputclkctrl_outclk\ $end
$var wire 1 V! \i1|quotient[0]~16_combout\ $end
$var wire 1 W! \bt~input_o\ $end
$var wire 1 X! \i2|slt_a~0_combout\ $end
$var wire 1 Y! \i2|Equal0~0_combout\ $end
$var wire 1 Z! \i2|slt_a~1_combout\ $end
$var wire 1 [! \i2|slt_a~2_combout\ $end
$var wire 1 \! \i2|slt_a~q\ $end
$var wire 1 ]! \input[4]~input_o\ $end
$var wire 1 ^! \i2|Equal0~3_combout\ $end
$var wire 1 _! \i2|ld_b~8_combout\ $end
$var wire 1 `! \i2|ld_b~1_combout\ $end
$var wire 1 a! \i2|ld_b~0_combout\ $end
$var wire 1 b! \i2|ld_b~7_combout\ $end
$var wire 1 c! \i2|ld_b~_emulated_q\ $end
$var wire 1 d! \i2|ld_b~2_combout\ $end
$var wire 1 e! \input[1]~input_o\ $end
$var wire 1 f! \i1|reg_b~1_combout\ $end
$var wire 1 g! \i1|Add0~7_combout\ $end
$var wire 1 h! \i2|Mux3~1_combout\ $end
$var wire 1 i! \i2|ld_a~7_combout\ $end
$var wire 1 j! \i2|ld_a~1_combout\ $end
$var wire 1 k! \input[14]~input_o\ $end
$var wire 1 l! \i1|reg_b~14_combout\ $end
$var wire 1 m! \i1|Add0~59_combout\ $end
$var wire 1 n! \i1|reg_a~14_combout\ $end
$var wire 1 o! \input[13]~input_o\ $end
$var wire 1 p! \i1|reg_b~13_combout\ $end
$var wire 1 q! \i1|Add0~55_combout\ $end
$var wire 1 r! \input[12]~input_o\ $end
$var wire 1 s! \i1|reg_b~12_combout\ $end
$var wire 1 t! \i1|Add0~51_combout\ $end
$var wire 1 u! \input[11]~input_o\ $end
$var wire 1 v! \i1|reg_b~11_combout\ $end
$var wire 1 w! \i1|Add0~47_combout\ $end
$var wire 1 x! \input[10]~input_o\ $end
$var wire 1 y! \i1|reg_b~10_combout\ $end
$var wire 1 z! \i1|Add0~43_combout\ $end
$var wire 1 {! \input[9]~input_o\ $end
$var wire 1 |! \i1|reg_b~9_combout\ $end
$var wire 1 }! \i1|Add0~39_combout\ $end
$var wire 1 ~! \input[8]~input_o\ $end
$var wire 1 !" \i1|reg_b~8_combout\ $end
$var wire 1 "" \i1|Add0~35_combout\ $end
$var wire 1 #" \input[7]~input_o\ $end
$var wire 1 $" \i1|reg_b~7_combout\ $end
$var wire 1 %" \i1|Add0~31_combout\ $end
$var wire 1 &" \input[6]~input_o\ $end
$var wire 1 '" \i1|reg_b~6_combout\ $end
$var wire 1 (" \i1|Add0~27_combout\ $end
$var wire 1 )" \input[5]~input_o\ $end
$var wire 1 *" \i1|reg_b~5_combout\ $end
$var wire 1 +" \i1|Add0~23_combout\ $end
$var wire 1 ," \i1|reg_a~4_combout\ $end
$var wire 1 -" \input[3]~input_o\ $end
$var wire 1 ." \i1|reg_b~3_combout\ $end
$var wire 1 /" \i1|Add0~15_combout\ $end
$var wire 1 0" \input[2]~input_o\ $end
$var wire 1 1" \i1|reg_b~2_combout\ $end
$var wire 1 2" \i1|Add0~11_combout\ $end
$var wire 1 3" \input[0]~input_o\ $end
$var wire 1 4" \i1|reg_b~0_combout\ $end
$var wire 1 5" \i1|Add0~0_combout\ $end
$var wire 1 6" \i1|process_0~2_combout\ $end
$var wire 1 7" \i1|Add0~2_cout\ $end
$var wire 1 8" \i1|Add0~3_combout\ $end
$var wire 1 9" \i1|Add0~5_combout\ $end
$var wire 1 :" \i1|Add0~6_combout\ $end
$var wire 1 ;" \i1|reg_a~0_combout\ $end
$var wire 1 <" \i1|Add0~4\ $end
$var wire 1 =" \i1|Add0~9\ $end
$var wire 1 >" \i1|Add0~12_combout\ $end
$var wire 1 ?" \i1|Add0~14_combout\ $end
$var wire 1 @" \i1|reg_a~2_combout\ $end
$var wire 1 A" \i1|Add0~13\ $end
$var wire 1 B" \i1|Add0~16_combout\ $end
$var wire 1 C" \i1|Add0~18_combout\ $end
$var wire 1 D" \i1|reg_a~3_combout\ $end
$var wire 1 E" \i1|Add0~17\ $end
$var wire 1 F" \i1|Add0~21\ $end
$var wire 1 G" \i1|Add0~24_combout\ $end
$var wire 1 H" \i1|Add0~26_combout\ $end
$var wire 1 I" \i1|reg_a~5_combout\ $end
$var wire 1 J" \i1|Add0~25\ $end
$var wire 1 K" \i1|Add0~28_combout\ $end
$var wire 1 L" \i1|Add0~30_combout\ $end
$var wire 1 M" \i1|reg_a~6_combout\ $end
$var wire 1 N" \i1|Add0~29\ $end
$var wire 1 O" \i1|Add0~32_combout\ $end
$var wire 1 P" \i1|Add0~34_combout\ $end
$var wire 1 Q" \i1|reg_a~7_combout\ $end
$var wire 1 R" \i1|Add0~33\ $end
$var wire 1 S" \i1|Add0~36_combout\ $end
$var wire 1 T" \i1|Add0~38_combout\ $end
$var wire 1 U" \i1|reg_a~8_combout\ $end
$var wire 1 V" \i1|Add0~37\ $end
$var wire 1 W" \i1|Add0~40_combout\ $end
$var wire 1 X" \i1|Add0~42_combout\ $end
$var wire 1 Y" \i1|reg_a~9_combout\ $end
$var wire 1 Z" \i1|Add0~41\ $end
$var wire 1 [" \i1|Add0~44_combout\ $end
$var wire 1 \" \i1|Add0~46_combout\ $end
$var wire 1 ]" \i1|reg_a~10_combout\ $end
$var wire 1 ^" \i1|Add0~45\ $end
$var wire 1 _" \i1|Add0~48_combout\ $end
$var wire 1 `" \i1|Add0~50_combout\ $end
$var wire 1 a" \i1|reg_a~11_combout\ $end
$var wire 1 b" \i1|Add0~49\ $end
$var wire 1 c" \i1|Add0~52_combout\ $end
$var wire 1 d" \i1|Add0~54_combout\ $end
$var wire 1 e" \i1|reg_a~12_combout\ $end
$var wire 1 f" \i1|Add0~53\ $end
$var wire 1 g" \i1|Add0~56_combout\ $end
$var wire 1 h" \i1|Add0~58_combout\ $end
$var wire 1 i" \i1|reg_a~13_combout\ $end
$var wire 1 j" \i1|Add0~57\ $end
$var wire 1 k" \i1|Add0~60_combout\ $end
$var wire 1 l" \i1|Add0~62_combout\ $end
$var wire 1 m" \i1|Equal0~2_combout\ $end
$var wire 1 n" \i1|Equal0~3_combout\ $end
$var wire 1 o" \i1|Equal0~4_combout\ $end
$var wire 1 p" \input[15]~input_o\ $end
$var wire 1 q" \i1|reg_a~15_combout\ $end
$var wire 1 r" \i1|reg_b~15_combout\ $end
$var wire 1 s" \i1|Add0~63_combout\ $end
$var wire 1 t" \i1|Add0~61\ $end
$var wire 1 u" \i1|Add0~64_combout\ $end
$var wire 1 v" \i1|Add0~66_combout\ $end
$var wire 1 w" \i2|ld_a~3_combout\ $end
$var wire 1 x" \i2|ld_a~0_combout\ $end
$var wire 1 y" \i2|Mux3~2_combout\ $end
$var wire 1 z" \i2|ld_a~_emulated_q\ $end
$var wire 1 {" \i2|ld_a~2_combout\ $end
$var wire 1 |" \i1|reg_a~1_combout\ $end
$var wire 1 }" \i1|Add0~8_combout\ $end
$var wire 1 ~" \i1|Add0~10_combout\ $end
$var wire 1 !# \i1|Equal0~0_combout\ $end
$var wire 1 "# \i1|process_0~3_combout\ $end
$var wire 1 ## \i1|a_lt_z~combout\ $end
$var wire 1 $# \i2|Mux3~3_combout\ $end
$var wire 1 %# \i2|sub_add~0_combout\ $end
$var wire 1 &# \i2|sub_add~q\ $end
$var wire 1 '# \i1|process_0~1_combout\ $end
$var wire 1 (# \i1|reg_b~4_combout\ $end
$var wire 1 )# \i1|Add0~19_combout\ $end
$var wire 1 *# \i1|Add0~20_combout\ $end
$var wire 1 +# \i1|Add0~22_combout\ $end
$var wire 1 ,# \i1|Equal0~1_combout\ $end
$var wire 1 -# \i1|Equal0~5_combout\ $end
$var wire 1 .# \i2|Mux2~0_combout\ $end
$var wire 1 /# \i2|Mux2~1_combout\ $end
$var wire 1 0# \i2|state[2]~0_combout\ $end
$var wire 1 1# \i2|Equal0~2_combout\ $end
$var wire 1 2# \i2|Mux1~1_combout\ $end
$var wire 1 3# \i2|Mux1~0_combout\ $end
$var wire 1 4# \i2|Mux1~2_combout\ $end
$var wire 1 5# \i2|Equal0~1_combout\ $end
$var wire 1 6# \i2|clr~7_combout\ $end
$var wire 1 7# \i2|clr~1_combout\ $end
$var wire 1 8# \i2|clr~0_combout\ $end
$var wire 1 9# \i2|clr~_emulated_q\ $end
$var wire 1 :# \i2|clr~2_combout\ $end
$var wire 1 ;# \i2|Mux3~0_combout\ $end
$var wire 1 <# \i2|cnt~feeder_combout\ $end
$var wire 1 =# \i2|cnt~0_combout\ $end
$var wire 1 ># \i2|cnt~q\ $end
$var wire 1 ?# \i1|quotient[0]~18_combout\ $end
$var wire 1 @# \i1|process_0~0_combout\ $end
$var wire 1 A# \i1|quotient[0]~17\ $end
$var wire 1 B# \i1|quotient[1]~19_combout\ $end
$var wire 1 C# \i1|quotient[1]~20\ $end
$var wire 1 D# \i1|quotient[2]~21_combout\ $end
$var wire 1 E# \i1|quotient[2]~22\ $end
$var wire 1 F# \i1|quotient[3]~23_combout\ $end
$var wire 1 G# \i1|quotient[3]~24\ $end
$var wire 1 H# \i1|quotient[4]~25_combout\ $end
$var wire 1 I# \i1|quotient[4]~26\ $end
$var wire 1 J# \i1|quotient[5]~27_combout\ $end
$var wire 1 K# \i1|quotient[5]~28\ $end
$var wire 1 L# \i1|quotient[6]~29_combout\ $end
$var wire 1 M# \i1|quotient[6]~30\ $end
$var wire 1 N# \i1|quotient[7]~31_combout\ $end
$var wire 1 O# \i1|quotient[7]~32\ $end
$var wire 1 P# \i1|quotient[8]~33_combout\ $end
$var wire 1 Q# \i1|quotient[8]~34\ $end
$var wire 1 R# \i1|quotient[9]~35_combout\ $end
$var wire 1 S# \i1|quotient[9]~36\ $end
$var wire 1 T# \i1|quotient[10]~37_combout\ $end
$var wire 1 U# \i1|quotient[10]~38\ $end
$var wire 1 V# \i1|quotient[11]~39_combout\ $end
$var wire 1 W# \i1|quotient[11]~40\ $end
$var wire 1 X# \i1|quotient[12]~41_combout\ $end
$var wire 1 Y# \i1|quotient[12]~42\ $end
$var wire 1 Z# \i1|quotient[13]~43_combout\ $end
$var wire 1 [# \i1|quotient[13]~44\ $end
$var wire 1 \# \i1|quotient[14]~45_combout\ $end
$var wire 1 ]# \i1|quotient[14]~46\ $end
$var wire 1 ^# \i1|quotient[15]~47_combout\ $end
$var wire 1 _# \i1|quotient\ [15] $end
$var wire 1 `# \i1|quotient\ [14] $end
$var wire 1 a# \i1|quotient\ [13] $end
$var wire 1 b# \i1|quotient\ [12] $end
$var wire 1 c# \i1|quotient\ [11] $end
$var wire 1 d# \i1|quotient\ [10] $end
$var wire 1 e# \i1|quotient\ [9] $end
$var wire 1 f# \i1|quotient\ [8] $end
$var wire 1 g# \i1|quotient\ [7] $end
$var wire 1 h# \i1|quotient\ [6] $end
$var wire 1 i# \i1|quotient\ [5] $end
$var wire 1 j# \i1|quotient\ [4] $end
$var wire 1 k# \i1|quotient\ [3] $end
$var wire 1 l# \i1|quotient\ [2] $end
$var wire 1 m# \i1|quotient\ [1] $end
$var wire 1 n# \i1|quotient\ [0] $end
$var wire 1 o# \i1|reg_a\ [15] $end
$var wire 1 p# \i1|reg_a\ [14] $end
$var wire 1 q# \i1|reg_a\ [13] $end
$var wire 1 r# \i1|reg_a\ [12] $end
$var wire 1 s# \i1|reg_a\ [11] $end
$var wire 1 t# \i1|reg_a\ [10] $end
$var wire 1 u# \i1|reg_a\ [9] $end
$var wire 1 v# \i1|reg_a\ [8] $end
$var wire 1 w# \i1|reg_a\ [7] $end
$var wire 1 x# \i1|reg_a\ [6] $end
$var wire 1 y# \i1|reg_a\ [5] $end
$var wire 1 z# \i1|reg_a\ [4] $end
$var wire 1 {# \i1|reg_a\ [3] $end
$var wire 1 |# \i1|reg_a\ [2] $end
$var wire 1 }# \i1|reg_a\ [1] $end
$var wire 1 ~# \i1|reg_a\ [0] $end
$var wire 1 !$ \i2|state\ [2] $end
$var wire 1 "$ \i2|state\ [1] $end
$var wire 1 #$ \i2|state\ [0] $end
$var wire 1 $$ \i1|reg_b\ [15] $end
$var wire 1 %$ \i1|reg_b\ [14] $end
$var wire 1 &$ \i1|reg_b\ [13] $end
$var wire 1 '$ \i1|reg_b\ [12] $end
$var wire 1 ($ \i1|reg_b\ [11] $end
$var wire 1 )$ \i1|reg_b\ [10] $end
$var wire 1 *$ \i1|reg_b\ [9] $end
$var wire 1 +$ \i1|reg_b\ [8] $end
$var wire 1 ,$ \i1|reg_b\ [7] $end
$var wire 1 -$ \i1|reg_b\ [6] $end
$var wire 1 .$ \i1|reg_b\ [5] $end
$var wire 1 /$ \i1|reg_b\ [4] $end
$var wire 1 0$ \i1|reg_b\ [3] $end
$var wire 1 1$ \i1|reg_b\ [2] $end
$var wire 1 2$ \i1|reg_b\ [1] $end
$var wire 1 3$ \i1|reg_b\ [0] $end
$var wire 1 4$ \i2|ALT_INV_ld_a~0_combout\ $end
$var wire 1 5$ \i2|ALT_INV_ld_b~0_combout\ $end
$var wire 1 6$ \i2|ALT_INV_clr~0_combout\ $end
$var wire 1 7$ \i2|ALT_INV_slt_a~2_combout\ $end
$var wire 1 8$ \i2|ALT_INV_cnt~0_combout\ $end
$upscope $end
$upscope $end
$enddefinitions $end
#0
$dumpvars
1!
0"
0S
1T
xU
1V
1W
1X
1Y
1Z
1[
0\
1]
04!
05!
06!
07!
08!
09!
0:!
0;!
0<!
0=!
0>!
0?!
0@!
0A!
0B!
0C!
0D!
0E!
0F!
0G!
0H!
0I!
0J!
0K!
0L!
0M!
0N!
0O!
0P!
0Q!
0R!
0S!
0T!
0U!
1V!
1W!
0X!
0Y!
0Z!
1[!
0\!
1]!
0^!
1_!
0`!
1a!
0b!
0c!
0d!
0e!
0f!
0g!
0h!
1i!
0j!
0k!
0l!
0m!
0n!
0o!
0p!
0q!
0r!
0s!
0t!
0u!
0v!
0w!
0x!
0y!
0z!
0{!
0|!
0}!
0~!
0!"
0""
0#"
0$"
0%"
0&"
0'"
0("
0)"
0*"
0+"
0,"
0-"
0."
0/"
00"
01"
02"
03"
04"
05"
06"
07"
08"
09"
1:"
0;"
1<"
0="
0>"
0?"
0@"
1A"
0B"
0C"
0D"
0E"
1F"
0G"
0H"
0I"
0J"
0K"
0L"
0M"
1N"
0O"
0P"
0Q"
0R"
0S"
0T"
0U"
1V"
0W"
0X"
0Y"
0Z"
0["
0\"
0]"
1^"
0_"
0`"
0a"
0b"
0c"
0d"
0e"
1f"
0g"
0h"
0i"
0j"
0k"
0l"
1m"
1n"
1o"
0p"
0q"
0r"
0s"
1t"
0u"
0v"
0w"
1x"
0y"
0z"
0{"
0|"
0}"
0~"
1!#
1"#
x##
0$#
0%#
0&#
0'#
0(#
0)#
0*#
1+#
1,#
1-#
0.#
1/#
00#
01#
02#
03#
04#
15#
06#
17#
18#
09#
1:#
0;#
0<#
1=#
0>#
1?#
0@#
0A#
1B#
1C#
1D#
0E#
1F#
1G#
1H#
0I#
1J#
1K#
1L#
0M#
1N#
1O#
1P#
0Q#
1R#
1S#
1T#
0U#
1V#
1W#
1X#
0Y#
1Z#
1[#
1\#
0]#
1^#
04$
05$
06$
07$
08$
0#
0$
0%
0&
0'
0(
0)
0*
0+
0,
0-
1.
0/
00
01
02
0^
0_
0`
0a
0b
0c
0d
0e
0f
0g
0h
1i
0j
0k
0l
0m
0n
0o
0p
0q
0r
0s
0t
0u
0v
0w
0x
0y
0z
0{
0|
0}
0~
0!!
0"!
0#!
0$!
0%!
0&!
0'!
0(!
0)!
0*!
0+!
0,!
0-!
0.!
0/!
0_#
0`#
0a#
0b#
0c#
0d#
0e#
0f#
0g#
0h#
0i#
0j#
0k#
0l#
0m#
0n#
0o#
0p#
0q#
0r#
0s#
0t#
0u#
0v#
0w#
0x#
0y#
0z#
0{#
0|#
0}#
0~#
0!$
0"$
0#$
0$$
0%$
0&$
0'$
0($
0)$
0*$
0+$
0,$
0-$
0.$
0/$
00$
01$
02$
03$
10!
11!
12!
03!
03
04
05
06
07
08
09
0:
0;
0<
0=
0>
0?
0@
0A
0B
0C
0D
0E
0F
0G
0H
0I
0J
0K
0L
0M
0N
0O
0P
0Q
0R
$end
#5000
1"
1\
1T!
13!
1U!
1#$
1Y!
1^!
05#
08#
0i!
16#
16$
07#
18#
0:#
1j!
1{"
06$
1,"
1w"
0?#
1*#
#10000
0"
0\
0T!
03!
0U!
#15000
1"
1\
1T!
13!
1z#
0,#
1U!
0o"
0"#
0-#
1H!
0##
1+!
1N
#20000
0"
0!
0\
0]
0W!
0T!
03!
0/#
12#
14#
0U!
#25000
1"
1\
1T!
13!
1U!
0#$
1"$
1Z!
0[!
0w"
02#
1;#
0Y!
0^!
11#
17$
0_!
1i!
0x"
0Z!
1<#
14$
0j!
1x"
0{"
1`!
1d!
04$
1(#
1)#
0:"
1w"
0*#
0F"
1G"
#30000
0"
0\
0T!
03!
0U!
#35000
1"
1\
1T!
13!
1U!
1/$
#40000
0"
0\
0T!
03!
0U!
#45000
1"
1\
1T!
13!
1U!
#50000
0"
0\
0T!
03!
0U!
#55000
1"
1\
1T!
13!
1U!
#60000
0"
0\
0T!
03!
0U!
#65000
1"
1\
1T!
13!
1U!
#70000
0"
0\
0T!
03!
0U!
#75000
1"
1\
1T!
13!
1U!
#80000
0"
0\
0T!
03!
0U!
#85000
1"
1\
1T!
13!
1U!
#90000
0"
0\
0T!
03!
0U!
#95000
1"
1\
1T!
13!
1U!
#100000
0"
0\
0T!
03!
0U!
#105000
1"
1\
1T!
13!
1U!
#110000
0"
0\
0T!
03!
0U!
#115000
1"
1\
1T!
13!
1U!
#120000
0"
0\
0T!
03!
0U!
#125000
1"
1\
1T!
13!
1U!
#130000
0"
0\
0T!
03!
0U!
#135000
1"
1\
1T!
13!
1U!
#140000
0"
0\
0T!
03!
0U!
#145000
1"
1\
1T!
13!
1U!
#150000
0"
1!
0.
1/
11
0\
1]
1l
1j
0i
0]!
1-"
1e!
1W!
0T!
03!
1/#
1f!
1g!
1~"
1."
1/"
1C"
0(#
0)#
0+#
1*#
1F"
1B"
1}"
0U!
0G"
#155000
1"
1\
1T!
13!
1U!
12$
10$
0/$
1#$
1Y!
1b!
1y"
1$#
1.#
10#
01#
0a!
0i!
06#
0=#
0/#
1Z!
04#
18$
15$
08#
0x"
14$
16$
#160000
0"
0\
0T!
03!
0U!
#165000
1"
1\
1T!
13!
1U!
1\!
1c!
1z"
0#$
1!$
0"$
1>#
1?#
1@#
0Z!
0w"
0;#
1/#
0Y!
0$#
0.#
00#
13#
1{"
0d!
1+#
16"
1:"
1'#
14#
0<#
0B#
0D#
0F#
0H#
0J#
0L#
0N#
0P#
0R#
0T#
0V#
0X#
0Z#
0\#
0^#
0g!
1m!
1q!
1t!
1w!
1z!
1}!
1""
1%"
1("
1+"
0/"
12"
15"
1s"
1)#
17"
0*#
0F"
1u"
0<"
1>"
0B"
1G"
1K"
1O"
1S"
1W"
1["
1_"
1c"
1g"
1k"
0}"
0~"
1l"
1h"
1d"
1`"
1\"
1X"
1T"
1P"
1L"
1H"
0C"
1?"
1}"
1v"
0G"
1J"
0+#
0K"
0N"
0H"
1~"
0O"
1R"
0L"
0S"
0V"
0P"
0W"
1Z"
0T"
0["
0^"
0X"
0_"
1b"
0\"
0c"
0f"
0`"
0g"
1j"
0d"
0k"
0t"
0h"
0u"
0l"
0v"
#170000
0"
0!
0\
0]
0W!
0T!
03!
12#
0U!
#175000
1"
1\
1T!
13!
1|#
1}#
0z#
0,"
1,#
1|"
1@"
0!#
1U!
0>"
0A"
0}"
1="
1*#
1F"
0H!
1E!
1F!
0\!
0z"
1#$
0!$
1"$
0>#
1n#
1G"
0J"
1+#
1>"
0~"
1B"
0?"
0+!
1.!
1-!
0V!
1A#
0?#
0@#
1w"
02#
1;#
0/#
1Y!
1$#
1.#
10#
03#
0{"
06"
0@"
1C"
1D"
1~"
0'#
0+#
1Q
1P
0N
1K"
1N"
1g!
0m!
0q!
0t!
0w!
0z!
0}!
0""
0%"
0("
0+"
1/"
02"
05"
0s"
0)#
0B"
1E"
0>"
07"
0:"
1@"
0D"
1Z!
1<#
04#
1D#
1F#
1H#
1J#
1L#
1N#
1P#
1R#
1T#
1V#
1X#
1Z#
1\#
1^#
0C#
14!
1O"
0R"
0D#
1E#
1u"
1<"
0G"
0K"
0O"
1S"
1V"
1W"
0Z"
1["
1^"
1_"
0b"
1c"
1f"
1g"
0j"
1k"
1t"
1}"
1}
0S"
1B
0u"
0k"
0g"
0c"
0_"
0["
0W"
0}"
0F#
0G#
0H#
1I#
0J#
0K#
0L#
1M#
0N#
0O#
0P#
1Q#
0R#
0S#
0T#
1U#
0V#
0W#
0X#
1Y#
0Z#
0[#
0\#
1]#
0^#
#180000
0"
0\
0T!
03!
0U!
#185000
1"
1\
1T!
13!
1U!
1\!
1z"
0#$
1!$
0"$
1>#
1?#
1@#
0Z!
0w"
12#
0;#
0Y!
0$#
0.#
00#
13#
1{"
0C"
0~"
1+#
16"
1:"
1'#
1/#
0<#
14#
1B#
1C#
1D#
0E#
1F#
1G#
1H#
0I#
1J#
1K#
1L#
0M#
1N#
1O#
1P#
0Q#
1R#
1S#
1T#
0U#
1V#
1W#
1X#
0Y#
1Z#
1[#
1\#
0]#
1^#
0^#
0\#
0Z#
0X#
0V#
0T#
0R#
0P#
0N#
0L#
0J#
0H#
0F#
0D#
0g!
1m!
1q!
1t!
1w!
1z!
1}!
1""
1%"
1("
1+"
0/"
12"
15"
1s"
1)#
17"
0*#
0F"
1u"
0<"
1>"
1B"
0E"
1G"
1K"
1O"
1S"
1W"
1["
1_"
1c"
1g"
1k"
1}"
0="
0>"
1~"
1l"
1h"
1d"
1`"
1\"
1X"
1T"
1P"
1L"
1H"
1*#
1F"
1C"
1?"
0}"
1="
1v"
0G"
1J"
0+#
0K"
0N"
0H"
1>"
0~"
1G"
0J"
1+#
0?"
1K"
1N"
1H"
1?"
0O"
1R"
0L"
0S"
0V"
0P"
1O"
0R"
1L"
1S"
1V"
1P"
0W"
1Z"
0T"
0["
0^"
0X"
1W"
0Z"
1T"
1["
1^"
1X"
0_"
1b"
0\"
0c"
0f"
0`"
1_"
0b"
1\"
1c"
1f"
1`"
0g"
1j"
0d"
0k"
0t"
0h"
1g"
0j"
1d"
1k"
1t"
1h"
0u"
0l"
0v"
1u"
1l"
1v"
#190000
0"
0\
0T!
03!
0U!
