Atividade3_1/simulation/qsim/successive_subs.msim.vcd
$comment
	File created using the following command:
		vcd file successive_subs.msim.vcd -direction
$end
$date
	Sat Nov 16 23:35:43 2019
$end
$version
	ModelSim Version 10.5b
$end
$timescale
	1ps
$end

$scope module successive_subs_vhd_vec_tst $end
$var wire 1 ! bt $end
$var wire 1 " clk $end
$var wire 1 # input [15] $end
$var wire 1 $ input [14] $end
$var wire 1 % input [13] $end
$var wire 1 & input [12] $end
$var wire 1 ' input [11] $end
$var wire 1 ( input [10] $end
$var wire 1 ) input [9] $end
$var wire 1 * input [8] $end
$var wire 1 + input [7] $end
$var wire 1 , input [6] $end
$var wire 1 - input [5] $end
$var wire 1 . input [4] $end
$var wire 1 / input [3] $end
$var wire 1 0 input [2] $end
$var wire 1 1 input [1] $end
$var wire 1 2 input [0] $end
$var wire 1 3 quotient [15] $end
$var wire 1 4 quotient [14] $end
$var wire 1 5 quotient [13] $end
$var wire 1 6 quotient [12] $end
$var wire 1 7 quotient [11] $end
$var wire 1 8 quotient [10] $end
$var wire 1 9 quotient [9] $end
$var wire 1 : quotient [8] $end
$var wire 1 ; quotient [7] $end
$var wire 1 < quotient [6] $end
$var wire 1 = quotient [5] $end
$var wire 1 > quotient [4] $end
$var wire 1 ? quotient [3] $end
$var wire 1 @ quotient [2] $end
$var wire 1 A quotient [1] $end
$var wire 1 B quotient [0] $end
$var wire 1 C rest [15] $end
$var wire 1 D rest [14] $end
$var wire 1 E rest [13] $end
$var wire 1 F rest [12] $end
$var wire 1 G rest [11] $end
$var wire 1 H rest [10] $end
$var wire 1 I rest [9] $end
$var wire 1 J rest [8] $end
$var wire 1 K rest [7] $end
$var wire 1 L rest [6] $end
$var wire 1 M rest [5] $end
$var wire 1 N rest [4] $end
$var wire 1 O rest [3] $end
$var wire 1 P rest [2] $end
$var wire 1 Q rest [1] $end
$var wire 1 R rest [0] $end
$var wire 1 S sa_e_z $end
$var wire 1 T sa_lt_z $end
$var wire 1 U sclr $end
$var wire 1 V scnt $end
$var wire 1 W slb_b $end
$var wire 1 X sld_a $end
$var wire 1 Y sslt_a $end
$var wire 1 Z ssub_add $end
$var wire 1 [ sud $end

$scope module i1 $end
$var wire 1 \ gnd $end
$var wire 1 ] vcc $end
$var wire 1 ^ unknown $end
$var wire 1 _ devoe $end
$var wire 1 ` devclrn $end
$var wire 1 a devpor $end
$var wire 1 b ww_devoe $end
$var wire 1 c ww_devclrn $end
$var wire 1 d ww_devpor $end
$var wire 1 e ww_clk $end
$var wire 1 f ww_bt $end
$var wire 1 g ww_input [15] $end
$var wire 1 h ww_input [14] $end
$var wire 1 i ww_input [13] $end
$var wire 1 j ww_input [12] $end
$var wire 1 k ww_input [11] $end
$var wire 1 l ww_input [10] $end
$var wire 1 m ww_input [9] $end
$var wire 1 n ww_input [8] $end
$var wire 1 o ww_input [7] $end
$var wire 1 p ww_input [6] $end
$var wire 1 q ww_input [5] $end
$var wire 1 r ww_input [4] $end
$var wire 1 s ww_input [3] $end
$var wire 1 t ww_input [2] $end
$var wire 1 u ww_input [1] $end
$var wire 1 v ww_input [0] $end
$var wire 1 w ww_quotient [15] $end
$var wire 1 x ww_quotient [14] $end
$var wire 1 y ww_quotient [13] $end
$var wire 1 z ww_quotient [12] $end
$var wire 1 { ww_quotient [11] $end
$var wire 1 | ww_quotient [10] $end
$var wire 1 } ww_quotient [9] $end
$var wire 1 ~ ww_quotient [8] $end
$var wire 1 !! ww_quotient [7] $end
$var wire 1 "! ww_quotient [6] $end
$var wire 1 #! ww_quotient [5] $end
$var wire 1 $! ww_quotient [4] $end
$var wire 1 %! ww_quotient [3] $end
$var wire 1 &! ww_quotient [2] $end
$var wire 1 '! ww_quotient [1] $end
$var wire 1 (! ww_quotient [0] $end
$var wire 1 )! ww_rest [15] $end
$var wire 1 *! ww_rest [14] $end
$var wire 1 +! ww_rest [13] $end
$var wire 1 ,! ww_rest [12] $end
$var wire 1 -! ww_rest [11] $end
$var wire 1 .! ww_rest [10] $end
$var wire 1 /! ww_rest [9] $end
$var wire 1 0! ww_rest [8] $end
$var wire 1 1! ww_rest [7] $end
$var wire 1 2! ww_rest [6] $end
$var wire 1 3! ww_rest [5] $end
$var wire 1 4! ww_rest [4] $end
$var wire 1 5! ww_rest [3] $end
$var wire 1 6! ww_rest [2] $end
$var wire 1 7! ww_rest [1] $end
$var wire 1 8! ww_rest [0] $end
$var wire 1 9! ww_sa_e_z $end
$var wire 1 :! ww_sa_lt_z $end
$var wire 1 ;! ww_sld_a $end
$var wire 1 <! ww_slb_b $end
$var wire 1 =! ww_sslt_a $end
$var wire 1 >! ww_sclr $end
$var wire 1 ?! ww_scnt $end
$var wire 1 @! ww_sud $end
$var wire 1 A! ww_ssub_add $end
$var wire 1 B! \clk~inputclkctrl_INCLK_bus\ [3] $end
$var wire 1 C! \clk~inputclkctrl_INCLK_bus\ [2] $end
$var wire 1 D! \clk~inputclkctrl_INCLK_bus\ [1] $end
$var wire 1 E! \clk~inputclkctrl_INCLK_bus\ [0] $end
$var wire 1 F! \quotient[0]~output_o\ $end
$var wire 1 G! \quotient[1]~output_o\ $end
$var wire 1 H! \quotient[2]~output_o\ $end
$var wire 1 I! \quotient[3]~output_o\ $end
$var wire 1 J! \quotient[4]~output_o\ $end
$var wire 1 K! \quotient[5]~output_o\ $end
$var wire 1 L! \quotient[6]~output_o\ $end
$var wire 1 M! \quotient[7]~output_o\ $end
$var wire 1 N! \quotient[8]~output_o\ $end
$var wire 1 O! \quotient[9]~output_o\ $end
$var wire 1 P! \quotient[10]~output_o\ $end
$var wire 1 Q! \quotient[11]~output_o\ $end
$var wire 1 R! \quotient[12]~output_o\ $end
$var wire 1 S! \quotient[13]~output_o\ $end
$var wire 1 T! \quotient[14]~output_o\ $end
$var wire 1 U! \quotient[15]~output_o\ $end
$var wire 1 V! \rest[0]~output_o\ $end
$var wire 1 W! \rest[1]~output_o\ $end
$var wire 1 X! \rest[2]~output_o\ $end
$var wire 1 Y! \rest[3]~output_o\ $end
$var wire 1 Z! \rest[4]~output_o\ $end
$var wire 1 [! \rest[5]~output_o\ $end
$var wire 1 \! \rest[6]~output_o\ $end
$var wire 1 ]! \rest[7]~output_o\ $end
$var wire 1 ^! \rest[8]~output_o\ $end
$var wire 1 _! \rest[9]~output_o\ $end
$var wire 1 `! \rest[10]~output_o\ $end
$var wire 1 a! \rest[11]~output_o\ $end
$var wire 1 b! \rest[12]~output_o\ $end
$var wire 1 c! \rest[13]~output_o\ $end
$var wire 1 d! \rest[14]~output_o\ $end
$var wire 1 e! \rest[15]~output_o\ $end
$var wire 1 f! \sa_e_z~output_o\ $end
$var wire 1 g! \sa_lt_z~output_o\ $end
$var wire 1 h! \sld_a~output_o\ $end
$var wire 1 i! \slb_b~output_o\ $end
$var wire 1 j! \sslt_a~output_o\ $end
$var wire 1 k! \sclr~output_o\ $end
$var wire 1 l! \scnt~output_o\ $end
$var wire 1 m! \sud~output_o\ $end
$var wire 1 n! \ssub_add~output_o\ $end
$var wire 1 o! \clk~input_o\ $end
$var wire 1 p! \clk~inputclkctrl_outclk\ $end
$var wire 1 q! \i1|quotient[0]~16_combout\ $end
$var wire 1 r! \input[15]~input_o\ $end
$var wire 1 s! \bt~input_o\ $end
$var wire 1 t! \i2|Mux1~0_combout\ $end
$var wire 1 u! \input[2]~input_o\ $end
$var wire 1 v! \i2|Equal0~1_combout\ $end
$var wire 1 w! \i2|ld_a~7_combout\ $end
$var wire 1 x! \i2|ld_a~8_combout\ $end
$var wire 1 y! \i2|ld_a~1_combout\ $end
$var wire 1 z! \input[14]~input_o\ $end
$var wire 1 {! \input[4]~input_o\ $end
$var wire 1 |! \i1|reg_a~5_combout\ $end
$var wire 1 }! \i2|ld_b~8_combout\ $end
$var wire 1 ~! \i2|Equal0~2_combout\ $end
$var wire 1 !" \i2|ld_b~1_combout\ $end
$var wire 1 "" \i2|ld_b~0_combout\ $end
$var wire 1 #" \i2|ld_b~7_combout\ $end
$var wire 1 $" \i2|ld_b~_emulated_q\ $end
$var wire 1 %" \i2|ld_b~2_combout\ $end
$var wire 1 &" \i1|reg_b~6_combout\ $end
$var wire 1 '" \i1|Add0~18_combout\ $end
$var wire 1 (" \input[3]~input_o\ $end
$var wire 1 )" \i1|reg_b~5_combout\ $end
$var wire 1 *" \i1|Add0~14_combout\ $end
$var wire 1 +" \i1|reg_b~4_combout\ $end
$var wire 1 ," \i1|Add0~10_combout\ $end
$var wire 1 -" \input[1]~input_o\ $end
$var wire 1 ." \i1|reg_b~3_combout\ $end
$var wire 1 /" \i1|reg_b~1_combout\ $end
$var wire 1 0" \i1|Add0~6_combout\ $end
$var wire 1 1" \input[0]~input_o\ $end
$var wire 1 2" \i1|reg_b~2_combout\ $end
$var wire 1 3" \i1|reg_b~0_combout\ $end
$var wire 1 4" \i1|Add0~0_combout\ $end
$var wire 1 5" \i1|process_0~1_combout\ $end
$var wire 1 6" \i1|Add0~2_cout\ $end
$var wire 1 7" \i1|Add0~3_combout\ $end
$var wire 1 8" \i1|Add0~5_combout\ $end
$var wire 1 9" \i1|reg_a[15]~1_combout\ $end
$var wire 1 :" \i1|reg_a~0_combout\ $end
$var wire 1 ;" \i1|Add0~4\ $end
$var wire 1 <" \i1|Add0~7_combout\ $end
$var wire 1 =" \i1|Add0~9_combout\ $end
$var wire 1 >" \i1|reg_a~2_combout\ $end
$var wire 1 ?" \i1|Add0~8\ $end
$var wire 1 @" \i1|Add0~12\ $end
$var wire 1 A" \i1|Add0~15_combout\ $end
$var wire 1 B" \i1|Add0~17_combout\ $end
$var wire 1 C" \i1|reg_a~4_combout\ $end
$var wire 1 D" \i1|Add0~16\ $end
$var wire 1 E" \i1|Add0~19_combout\ $end
$var wire 1 F" \i1|Add0~21_combout\ $end
$var wire 1 G" \input[6]~input_o\ $end
$var wire 1 H" \i1|reg_a~7_combout\ $end
$var wire 1 I" \i1|reg_b~8_combout\ $end
$var wire 1 J" \i1|Add0~26_combout\ $end
$var wire 1 K" \input[5]~input_o\ $end
$var wire 1 L" \i1|reg_b~7_combout\ $end
$var wire 1 M" \i1|Add0~22_combout\ $end
$var wire 1 N" \i1|Add0~20\ $end
$var wire 1 O" \i1|Add0~23_combout\ $end
$var wire 1 P" \i1|Add0~25_combout\ $end
$var wire 1 Q" \i1|reg_a~6_combout\ $end
$var wire 1 R" \i1|Add0~24\ $end
$var wire 1 S" \i1|Add0~27_combout\ $end
$var wire 1 T" \i1|Add0~29_combout\ $end
$var wire 1 U" \input[7]~input_o\ $end
$var wire 1 V" \i1|reg_a~8_combout\ $end
$var wire 1 W" \i1|reg_b~9_combout\ $end
$var wire 1 X" \i1|Add0~30_combout\ $end
$var wire 1 Y" \i1|Add0~28\ $end
$var wire 1 Z" \i1|Add0~31_combout\ $end
$var wire 1 [" \i1|Add0~33_combout\ $end
$var wire 1 \" \i1|Equal0~1_combout\ $end
$var wire 1 ]" \i1|process_0~3_combout\ $end
$var wire 1 ^" \i1|a_lt_z~combout\ $end
$var wire 1 _" \i2|Mux3~0_combout\ $end
$var wire 1 `" \i2|sub_add~0_combout\ $end
$var wire 1 a" \i2|sub_add~q\ $end
$var wire 1 b" \i1|process_0~2_combout\ $end
$var wire 1 c" \i1|reg_b~16_combout\ $end
$var wire 1 d" \i1|Add0~58_combout\ $end
$var wire 1 e" \i1|reg_a~15_combout\ $end
$var wire 1 f" \input[13]~input_o\ $end
$var wire 1 g" \i1|reg_b~15_combout\ $end
$var wire 1 h" \i1|Add0~54_combout\ $end
$var wire 1 i" \input[12]~input_o\ $end
$var wire 1 j" \i1|reg_b~14_combout\ $end
$var wire 1 k" \i1|Add0~50_combout\ $end
$var wire 1 l" \input[11]~input_o\ $end
$var wire 1 m" \i1|reg_b~13_combout\ $end
$var wire 1 n" \i1|Add0~46_combout\ $end
$var wire 1 o" \input[10]~input_o\ $end
$var wire 1 p" \i1|reg_b~12_combout\ $end
$var wire 1 q" \i1|Add0~42_combout\ $end
$var wire 1 r" \input[9]~input_o\ $end
$var wire 1 s" \i1|reg_b~11_combout\ $end
$var wire 1 t" \i1|Add0~38_combout\ $end
$var wire 1 u" \input[8]~input_o\ $end
$var wire 1 v" \i1|reg_b~10_combout\ $end
$var wire 1 w" \i1|Add0~34_combout\ $end
$var wire 1 x" \i1|Add0~32\ $end
$var wire 1 y" \i1|Add0~35_combout\ $end
$var wire 1 z" \i1|Add0~37_combout\ $end
$var wire 1 {" \i1|reg_a~9_combout\ $end
$var wire 1 |" \i1|Add0~36\ $end
$var wire 1 }" \i1|Add0~39_combout\ $end
$var wire 1 ~" \i1|Add0~41_combout\ $end
$var wire 1 !# \i1|reg_a~10_combout\ $end
$var wire 1 "# \i1|Add0~40\ $end
$var wire 1 ## \i1|Add0~43_combout\ $end
$var wire 1 $# \i1|Add0~45_combout\ $end
$var wire 1 %# \i1|reg_a~11_combout\ $end
$var wire 1 &# \i1|Add0~44\ $end
$var wire 1 '# \i1|Add0~47_combout\ $end
$var wire 1 (# \i1|Add0~49_combout\ $end
$var wire 1 )# \i1|reg_a~12_combout\ $end
$var wire 1 *# \i1|Add0~48\ $end
$var wire 1 +# \i1|Add0~51_combout\ $end
$var wire 1 ,# \i1|Add0~53_combout\ $end
$var wire 1 -# \i1|reg_a~13_combout\ $end
$var wire 1 .# \i1|Add0~52\ $end
$var wire 1 /# \i1|Add0~55_combout\ $end
$var wire 1 0# \i1|Add0~57_combout\ $end
$var wire 1 1# \i1|reg_a~14_combout\ $end
$var wire 1 2# \i1|Add0~56\ $end
$var wire 1 3# \i1|Add0~59_combout\ $end
$var wire 1 4# \i1|Add0~61_combout\ $end
$var wire 1 5# \i1|Equal0~2_combout\ $end
$var wire 1 6# \i1|Equal0~3_combout\ $end
$var wire 1 7# \i1|Equal0~5_combout\ $end
$var wire 1 8# \i2|ld_a~3_combout\ $end
$var wire 1 9# \i2|ld_a~0_combout\ $end
$var wire 1 :# \i2|Mux3~2_combout\ $end
$var wire 1 ;# \i2|ld_a~_emulated_q\ $end
$var wire 1 <# \i2|ld_a~2_combout\ $end
$var wire 1 =# \i1|reg_a~3_combout\ $end
$var wire 1 ># \i1|Add0~11_combout\ $end
$var wire 1 ?# \i1|Add0~13_combout\ $end
$var wire 1 @# \i1|Equal0~0_combout\ $end
$var wire 1 A# \i1|Equal0~4_combout\ $end
$var wire 1 B# \i2|Mux1~1_combout\ $end
$var wire 1 C# \i2|Mux1~2_combout\ $end
$var wire 1 D# \i2|Mux0~0_combout\ $end
$var wire 1 E# \i2|slt_a~0_combout\ $end
$var wire 1 F# \i2|slt_a~1_combout\ $end
$var wire 1 G# \i2|Equal0~0_combout\ $end
$var wire 1 H# \i2|slt_a~q\ $end
$var wire 1 I# \i1|reg_a~16_combout\ $end
$var wire 1 J# \i1|reg_b~17_combout\ $end
$var wire 1 K# \i1|Add0~62_combout\ $end
$var wire 1 L# \i1|Add0~60\ $end
$var wire 1 M# \i1|Add0~63_combout\ $end
$var wire 1 N# \i1|Add0~65_combout\ $end
$var wire 1 O# \i2|Mux2~0_combout\ $end
$var wire 1 P# \i2|Mux2~1_combout\ $end
$var wire 1 Q# \i2|Equal0~3_combout\ $end
$var wire 1 R# \i2|clr~7_combout\ $end
$var wire 1 S# \i2|clr~1_combout\ $end
$var wire 1 T# \i2|clr~0_combout\ $end
$var wire 1 U# \i2|clr~_emulated_q\ $end
$var wire 1 V# \i2|clr~2_combout\ $end
$var wire 1 W# \i2|Mux3~1_combout\ $end
$var wire 1 X# \i2|cnt~0_combout\ $end
$var wire 1 Y# \i2|cnt~q\ $end
$var wire 1 Z# \i1|quotient[0]~18_combout\ $end
$var wire 1 [# \i1|process_0~0_combout\ $end
$var wire 1 \# \i1|quotient[0]~17\ $end
$var wire 1 ]# \i1|quotient[1]~19_combout\ $end
$var wire 1 ^# \i1|quotient[1]~20\ $end
$var wire 1 _# \i1|quotient[2]~21_combout\ $end
$var wire 1 `# \i1|quotient[2]~22\ $end
$var wire 1 a# \i1|quotient[3]~23_combout\ $end
$var wire 1 b# \i1|quotient[3]~24\ $end
$var wire 1 c# \i1|quotient[4]~25_combout\ $end
$var wire 1 d# \i1|quotient[4]~26\ $end
$var wire 1 e# \i1|quotient[5]~27_combout\ $end
$var wire 1 f# \i1|quotient[5]~28\ $end
$var wire 1 g# \i1|quotient[6]~29_combout\ $end
$var wire 1 h# \i1|quotient[6]~30\ $end
$var wire 1 i# \i1|quotient[7]~31_combout\ $end
$var wire 1 j# \i1|quotient[7]~32\ $end
$var wire 1 k# \i1|quotient[8]~33_combout\ $end
$var wire 1 l# \i1|quotient[8]~34\ $end
$var wire 1 m# \i1|quotient[9]~35_combout\ $end
$var wire 1 n# \i1|quotient[9]~36\ $end
$var wire 1 o# \i1|quotient[10]~37_combout\ $end
$var wire 1 p# \i1|quotient[10]~38\ $end
$var wire 1 q# \i1|quotient[11]~39_combout\ $end
$var wire 1 r# \i1|quotient[11]~40\ $end
$var wire 1 s# \i1|quotient[12]~41_combout\ $end
$var wire 1 t# \i1|quotient[12]~42\ $end
$var wire 1 u# \i1|quotient[13]~43_combout\ $end
$var wire 1 v# \i1|quotient[13]~44\ $end
$var wire 1 w# \i1|quotient[14]~45_combout\ $end
$var wire 1 x# \i1|quotient[14]~46\ $end
$var wire 1 y# \i1|quotient[15]~47_combout\ $end
$var wire 1 z# \i1|quotient\ [15] $end
$var wire 1 {# \i1|quotient\ [14] $end
$var wire 1 |# \i1|quotient\ [13] $end
$var wire 1 }# \i1|quotient\ [12] $end
$var wire 1 ~# \i1|quotient\ [11] $end
$var wire 1 !$ \i1|quotient\ [10] $end
$var wire 1 "$ \i1|quotient\ [9] $end
$var wire 1 #$ \i1|quotient\ [8] $end
$var wire 1 $$ \i1|quotient\ [7] $end
$var wire 1 %$ \i1|quotient\ [6] $end
$var wire 1 &$ \i1|quotient\ [5] $end
$var wire 1 '$ \i1|quotient\ [4] $end
$var wire 1 ($ \i1|quotient\ [3] $end
$var wire 1 )$ \i1|quotient\ [2] $end
$var wire 1 *$ \i1|quotient\ [1] $end
$var wire 1 +$ \i1|quotient\ [0] $end
$var wire 1 ,$ \i2|state\ [2] $end
$var wire 1 -$ \i2|state\ [1] $end
$var wire 1 .$ \i2|state\ [0] $end
$var wire 1 /$ \i1|reg_a\ [15] $end
$var wire 1 0$ \i1|reg_a\ [14] $end
$var wire 1 1$ \i1|reg_a\ [13] $end
$var wire 1 2$ \i1|reg_a\ [12] $end
$var wire 1 3$ \i1|reg_a\ [11] $end
$var wire 1 4$ \i1|reg_a\ [10] $end
$var wire 1 5$ \i1|reg_a\ [9] $end
$var wire 1 6$ \i1|reg_a\ [8] $end
$var wire 1 7$ \i1|reg_a\ [7] $end
$var wire 1 8$ \i1|reg_a\ [6] $end
$var wire 1 9$ \i1|reg_a\ [5] $end
$var wire 1 :$ \i1|reg_a\ [4] $end
$var wire 1 ;$ \i1|reg_a\ [3] $end
$var wire 1 <$ \i1|reg_a\ [2] $end
$var wire 1 =$ \i1|reg_a\ [1] $end
$var wire 1 >$ \i1|reg_a\ [0] $end
$var wire 1 ?$ \i1|reg_b\ [15] $end
$var wire 1 @$ \i1|reg_b\ [14] $end
$var wire 1 A$ \i1|reg_b\ [13] $end
$var wire 1 B$ \i1|reg_b\ [12] $end
$var wire 1 C$ \i1|reg_b\ [11] $end
$var wire 1 D$ \i1|reg_b\ [10] $end
$var wire 1 E$ \i1|reg_b\ [9] $end
$var wire 1 F$ \i1|reg_b\ [8] $end
$var wire 1 G$ \i1|reg_b\ [7] $end
$var wire 1 H$ \i1|reg_b\ [6] $end
$var wire 1 I$ \i1|reg_b\ [5] $end
$var wire 1 J$ \i1|reg_b\ [4] $end
$var wire 1 K$ \i1|reg_b\ [3] $end
$var wire 1 L$ \i1|reg_b\ [2] $end
$var wire 1 M$ \i1|reg_b\ [1] $end
$var wire 1 N$ \i1|reg_b\ [0] $end
$var wire 1 O$ \i2|ALT_INV_cnt~0_combout\ $end
$var wire 1 P$ \i2|ALT_INV_Equal0~0_combout\ $end
$var wire 1 Q$ \i2|ALT_INV_clr~0_combout\ $end
$var wire 1 R$ \i2|ALT_INV_ld_b~0_combout\ $end
$var wire 1 S$ \i2|ALT_INV_ld_a~0_combout\ $end
$upscope $end
$upscope $end
$enddefinitions $end
#0
$dumpvars
0!
0"
1S
xT
1U
0V
0W
0X
0Y
0Z
0[
0\
1]
x^
1_
1`
1a
1b
1c
1d
0e
0f
19!
x:!
0;!
0<!
0=!
1>!
0?!
0@!
0A!
0F!
0G!
0H!
0I!
0J!
0K!
0L!
0M!
0N!
0O!
0P!
0Q!
0R!
0S!
0T!
0U!
0V!
0W!
0X!
0Y!
0Z!
0[!
0\!
0]!
0^!
0_!
0`!
0a!
0b!
0c!
0d!
0e!
1f!
xg!
0h!
0i!
0j!
1k!
0l!
0m!
0n!
0o!
0p!
1q!
0r!
0s!
0t!
0u!
0v!
0w!
1x!
0y!
0z!
1{!
0|!
0}!
0~!
0!"
1""
0#"
0$"
0%"
0&"
0'"
0("
0)"
0*"
0+"
0,"
0-"
0."
0/"
00"
01"
02"
03"
04"
05"
06"
07"
08"
19"
0:"
1;"
0<"
0="
0>"
0?"
1@"
0A"
0B"
0C"
0D"
0E"
1F"
0G"
0H"
0I"
0J"
0K"
0L"
0M"
1N"
0O"
0P"
0Q"
0R"
0S"
0T"
0U"
0V"
0W"
0X"
1Y"
0Z"
0["
1\"
1]"
x^"
0_"
0`"
0a"
0b"
0c"
0d"
0e"
0f"
0g"
0h"
0i"
0j"
0k"
0l"
0m"
0n"
0o"
0p"
0q"
0r"
0s"
0t"
0u"
0v"
0w"
0x"
0y"
0z"
0{"
1|"
0}"
0~"
0!#
0"#
0##
0$#
0%#
1&#
0'#
0(#
0)#
0*#
0+#
0,#
0-#
1.#
0/#
00#
01#
02#
03#
04#
15#
16#
17#
08#
19#
0:#
0;#
0<#
0=#
0>#
0?#
1@#
1A#
1B#
0C#
0D#
0E#
0F#
1G#
0H#
0I#
0J#
0K#
1L#
0M#
0N#
0O#
0P#
1Q#
0R#
1S#
1T#
0U#
1V#
0W#
1X#
0Y#
1Z#
0[#
0\#
1]#
1^#
1_#
0`#
1a#
1b#
1c#
0d#
1e#
1f#
1g#
0h#
1i#
1j#
1k#
0l#
1m#
1n#
1o#
0p#
1q#
1r#
1s#
0t#
1u#
1v#
1w#
0x#
1y#
0O$
0P$
0Q$
0R$
0S$
0#
0$
0%
0&
0'
0(
0)
0*
0+
0,
0-
1.
0/
00
01
02
03
04
05
06
07
08
09
0:
0;
0<
0=
0>
0?
0@
0A
0B
0C
0D
0E
0F
0G
0H
0I
0J
0K
0L
0M
0N
0O
0P
0Q
0R
0g
0h
0i
0j
0k
0l
0m
0n
0o
0p
0q
1r
0s
0t
0u
0v
0w
0x
0y
0z
0{
0|
0}
0~
0!!
0"!
0#!
0$!
0%!
0&!
0'!
0(!
0)!
0*!
0+!
0,!
0-!
0.!
0/!
00!
01!
02!
03!
04!
05!
06!
07!
08!
0z#
0{#
0|#
0}#
0~#
0!$
0"$
0#$
0$$
0%$
0&$
0'$
0($
0)$
0*$
0+$
0,$
0-$
0.$
0/$
00$
01$
02$
03$
04$
05$
06$
07$
08$
09$
0:$
0;$
0<$
0=$
0>$
0?$
0@$
0A$
0B$
0C$
0D$
0E$
0F$
0G$
0H$
0I$
0J$
0K$
0L$
0M$
0N$
1B!
1C!
1D!
0E!
$end
#10000
1!
1f
1s!
1O#
1P#
#20000
1"
1e
1o!
1E!
1p!
1.$
1v!
1w!
0B#
0Q#
0T#
0x!
1R#
1Q$
0S#
1T#
0V#
1y!
1<#
0Q$
1|!
18#
0Z#
1E"
1h!
0k!
1;!
0>!
1X
0U
#30000
0!
0f
0s!
1t!
0O#
0P#
1C#
#40000
0"
0e
0o!
0E!
0p!
#60000
1"
1e
1o!
1E!
1:$
0\"
1p!
0]"
07#
0A#
1Z!
1-$
0.$
xB#
0^"
14!
0w!
1B#
0t!
0v!
1}!
1~!
08#
0G#
1W#
1N
1P$
0f!
1!"
1%"
09#
1x!
1S$
09!
0g!
0y!
19#
0<#
1&"
1'"
0S
0S$
0:!
0E"
0N"
09"
18#
0T
1i!
1O"
1<!
0h!
1W
0;!
0X
#80000
0"
0e
0o!
0E!
0p!
#100000
1"
1e
1o!
1E!
1p!
1J$
#120000
0"
0.
1/
11
0e
1u
1s
0r
0{!
1("
1-"
0o!
0E!
1."
1/"
1="
1)"
1*"
1B"
0&"
0'"
0F"
1E"
1N"
1A"
10"
0p!
1<"
0O"
#130000
1!
1f
1s!
1O#
1P#
#140000
1"
1e
1o!
1E!
1p!
0J$
1K$
1M$
1.$
1w!
0~!
1#"
1_"
1:#
0B#
1D#
0O#
0C#
1F#
0P#
0""
0x!
0R#
0X#
1O$
1R$
0T#
09#
1S$
1Q$
#150000
0!
0f
0s!
#160000
0"
0e
0o!
0E!
0p!
#180000
1"
1e
1o!
1E!
1p!
1$"
1;#
0-$
1,$
1H#
0.$
1Y#
1Z#
1[#
1F"
1B#
1t!
0_"
08#
0D#
1O#
0W#
1<#
0%"
00"
14"
15"
19"
1b"
0F#
1P#
1C#
0]#
0_#
0a#
0c#
0e#
0g#
0i#
0k#
0m#
0o#
0q#
0s#
0u#
0w#
0y#
1l!
1j!
1'"
0*"
1,"
1J"
1M"
1X"
1d"
1h"
1k"
1n"
1q"
1t"
1w"
1K#
16"
17"
0<"
1?!
1=!
0i!
1h!
1V
1Y
0="
18"
07"
0;"
1M#
1y"
1}"
1##
1'#
1+#
1/#
13#
1Z"
1O"
1S"
1>#
0A"
0E"
0N"
0<!
1;!
0W
1X
0O"
1R"
0F"
0B"
1?#
1T"
1P"
1["
14#
10#
1,#
1(#
1$#
1~"
1z"
1N#
1<"
08"
1="
0S"
0Y"
0P"
0Z"
1x"
0T"
0y"
0|"
0["
0}"
1"#
0z"
0##
0&#
0~"
0'#
1*#
0$#
0+#
0.#
0(#
0/#
12#
0,#
03#
0L#
00#
0M#
04#
0N#
#200000
0"
0e
0o!
0E!
0p!
#220000
1"
1e
1o!
1E!
1=$
0:$
1<$
1=#
0|!
1\"
1>"
0@#
1p!
0<"
1?"
1E"
1N"
0>#
0@"
1X!
0Z!
1W!
0;#
1-$
0,$
0H#
1.$
0Y#
1+$
1A"
0?#
1O"
0R"
1F"
1>#
0="
16!
04!
17!
0q!
1\#
0Z#
0[#
10"
04"
05"
1="
1B"
1C"
0F"
0b"
0=#
0B#
0t!
1_"
18#
1D#
0O#
1W#
0<#
1Q
1P
0N
1S"
1Y"
09"
0C"
1=#
1F#
0P#
0C#
0>#
0'"
1*"
0,"
0J"
0M"
0X"
0d"
0h"
0k"
0n"
0q"
0t"
0w"
0K#
0A"
1D"
06"
17"
1;"
1<"
1_#
1a#
1c#
1e#
1g#
1i#
1k#
1m#
1o#
1q#
1s#
1u#
1w#
1y#
0^#
1F!
0l!
0j!
1Z"
0x"
0_#
1`#
0<"
07"
1M#
1y"
1|"
1}"
0"#
1##
1&#
1'#
0*#
1+#
1.#
1/#
02#
13#
1L#
0Z"
0O"
0S"
1(!
0?!
0=!
0h!
0y"
1B
0V
0Y
0M#
03#
0/#
0+#
0'#
0##
0}"
0a#
0b#
0;!
0X
0c#
1d#
0e#
0f#
0g#
1h#
0i#
0j#
0k#
1l#
0m#
0n#
0o#
1p#
0q#
0r#
0s#
1t#
0u#
0v#
0w#
1x#
0y#
#240000
0"
0e
0o!
0E!
0p!
#260000
1"
1e
1o!
1E!
1p!
1;#
0-$
1,$
1H#
0.$
1Y#
1Z#
1[#
0="
0B"
1F"
1B#
1t!
0_"
08#
0D#
1O#
0W#
1<#
00"
14"
15"
19"
1b"
0F#
1P#
1C#
1]#
1^#
1_#
0`#
1a#
1b#
1c#
0d#
1e#
1f#
1g#
0h#
1i#
1j#
1k#
0l#
1m#
1n#
1o#
0p#
1q#
1r#
1s#
0t#
1u#
1v#
1w#
0x#
1y#
1l!
1j!
0y#
0w#
0u#
0s#
0q#
0o#
0m#
0k#
0i#
0g#
0e#
0c#
0a#
0_#
1'"
0*"
1,"
1J"
1M"
1X"
1d"
1h"
1k"
1n"
1q"
1t"
1w"
1K#
16"
17"
1<"
0?"
1?!
1=!
1h!
1V
1Y
1="
18"
07"
0;"
1M#
1y"
1}"
1##
1'#
1+#
1/#
13#
1Z"
1O"
1S"
1A"
0D"
0E"
0N"
1;!
1X
0O"
1R"
0F"
1E"
1N"
1B"
1T"
1P"
1["
14#
10#
1,#
1(#
1$#
1~"
1z"
1N#
0<"
1?"
08"
1>#
0="
1O"
0R"
1F"
0S"
0Y"
0P"
0Z"
1x"
0T"
1S"
1Y"
1P"
1?#
1Z"
0x"
1T"
0y"
0|"
0["
0}"
1"#
0z"
1y"
1|"
1["
1}"
0"#
1z"
0##
0&#
0~"
0'#
1*#
0$#
1##
1&#
1~"
1'#
0*#
1$#
0+#
0.#
0(#
0/#
12#
0,#
1+#
1.#
1(#
1/#
02#
1,#
03#
0L#
00#
0M#
04#
13#
1L#
10#
1M#
14#
0N#
1N#
#280000
0"
0e
0o!
0E!
0p!
