ContadorDecrescente/simulation/qsim/countDec.msim.vcd
$comment
	File created using the following command:
		vcd file countDec.msim.vcd -direction
$end
$date
	Fri Nov 29 21:24:00 2019
$end
$version
	ModelSim Version 10.5b
$end
$timescale
	1ps
$end

$scope module countdec_vhd_vec_tst $end
$var wire 1 ! clear $end
$var wire 1 " clk $end
$var wire 1 # count $end
$var wire 1 $ fc $end
$var wire 1 % i [5] $end
$var wire 1 & i [4] $end
$var wire 1 ' i [3] $end
$var wire 1 ( i [2] $end
$var wire 1 ) i [1] $end
$var wire 1 * i [0] $end
$var wire 1 + rd $end
$var wire 1 , s [5] $end
$var wire 1 - s [4] $end
$var wire 1 . s [3] $end
$var wire 1 / s [2] $end
$var wire 1 0 s [1] $end
$var wire 1 1 s [0] $end

$scope module i1 $end
$var wire 1 2 gnd $end
$var wire 1 3 vcc $end
$var wire 1 4 unknown $end
$var wire 1 5 devoe $end
$var wire 1 6 devclrn $end
$var wire 1 7 devpor $end
$var wire 1 8 ww_devoe $end
$var wire 1 9 ww_devclrn $end
$var wire 1 : ww_devpor $end
$var wire 1 ; ww_i [5] $end
$var wire 1 < ww_i [4] $end
$var wire 1 = ww_i [3] $end
$var wire 1 > ww_i [2] $end
$var wire 1 ? ww_i [1] $end
$var wire 1 @ ww_i [0] $end
$var wire 1 A ww_rd $end
$var wire 1 B ww_count $end
$var wire 1 C ww_clear $end
$var wire 1 D ww_clk $end
$var wire 1 E ww_s [5] $end
$var wire 1 F ww_s [4] $end
$var wire 1 G ww_s [3] $end
$var wire 1 H ww_s [2] $end
$var wire 1 I ww_s [1] $end
$var wire 1 J ww_s [0] $end
$var wire 1 K ww_fc $end
$var wire 1 L \clk~inputclkctrl_INCLK_bus\ [3] $end
$var wire 1 M \clk~inputclkctrl_INCLK_bus\ [2] $end
$var wire 1 N \clk~inputclkctrl_INCLK_bus\ [1] $end
$var wire 1 O \clk~inputclkctrl_INCLK_bus\ [0] $end
$var wire 1 P \s[0]~output_o\ $end
$var wire 1 Q \s[1]~output_o\ $end
$var wire 1 R \s[2]~output_o\ $end
$var wire 1 S \s[3]~output_o\ $end
$var wire 1 T \s[4]~output_o\ $end
$var wire 1 U \s[5]~output_o\ $end
$var wire 1 V \fc~output_o\ $end
$var wire 1 W \clk~input_o\ $end
$var wire 1 X \clk~inputclkctrl_outclk\ $end
$var wire 1 Y \valor[0]~6_combout\ $end
$var wire 1 Z \i[0]~input_o\ $end
$var wire 1 [ \clear~input_o\ $end
$var wire 1 \ \count~input_o\ $end
$var wire 1 ] \rd~input_o\ $end
$var wire 1 ^ \valor[0]~8_combout\ $end
$var wire 1 _ \valor[0]~7\ $end
$var wire 1 ` \valor[1]~9_combout\ $end
$var wire 1 a \i[1]~input_o\ $end
$var wire 1 b \valor[1]~10\ $end
$var wire 1 c \valor[2]~11_combout\ $end
$var wire 1 d \i[2]~input_o\ $end
$var wire 1 e \valor[2]~12\ $end
$var wire 1 f \valor[3]~13_combout\ $end
$var wire 1 g \i[3]~input_o\ $end
$var wire 1 h \valor[3]~14\ $end
$var wire 1 i \valor[4]~15_combout\ $end
$var wire 1 j \i[4]~input_o\ $end
$var wire 1 k \valor[4]~16\ $end
$var wire 1 l \valor[5]~17_combout\ $end
$var wire 1 m \i[5]~input_o\ $end
$var wire 1 n \Equal0~0_combout\ $end
$var wire 1 o \Equal0~1_combout\ $end
$var wire 1 p valor [5] $end
$var wire 1 q valor [4] $end
$var wire 1 r valor [3] $end
$var wire 1 s valor [2] $end
$var wire 1 t valor [1] $end
$var wire 1 u valor [0] $end
$var wire 1 v \ALT_INV_count~input_o\ $end
$upscope $end
$upscope $end
$enddefinitions $end
#0
$dumpvars
0!
0"
0#
1$
0+
02
13
x4
15
16
17
18
19
1:
0A
0B
0C
0D
1K
0P
0Q
0R
0S
0T
0U
1V
0W
0X
1Y
1Z
0[
0\
0]
0^
0_
1`
1a
1b
1c
0d
0e
1f
0g
1h
1i
0j
0k
1l
0m
1n
1o
1v
0%
0&
0'
0(
1)
1*
0;
0<
0=
0>
1?
1@
0E
0F
0G
0H
0I
0J
0p
0q
0r
0s
0t
0u
1L
1M
1N
0O
0,
0-
0.
0/
00
01
$end
#30000
1+
1A
1]
1^
#40000
1"
1D
1W
1O
1X
1u
1t
0`
0b
0Y
1_
0n
0o
1`
0c
1e
1Q
1P
0f
0h
1I
1J
11
10
0i
1k
0V
0l
0K
0$
#50000
0+
0A
0]
0^
#80000
0"
0D
0W
0O
0X
#110000
1#
1B
1\
0v
1^
#120000
1"
1D
1W
1O
1X
0u
1Y
0_
0`
0P
0J
01
#130000
0#
0B
0\
1v
0^
#160000
0"
0D
0W
0O
0X
#190000
1#
1B
1\
0v
1^
#200000
1"
1D
1W
1O
1X
1u
0t
1`
1b
0Y
1_
0`
0b
1c
0e
0Q
1P
1f
1h
0c
1e
0I
1J
11
00
0f
0h
1i
0k
1l
0i
1k
0l
#210000
0#
0B
0\
1v
0^
#240000
0"
0D
0W
0O
0X
#270000
1#
1B
1\
0v
1^
#280000
1"
1D
1W
1O
1X
0u
1Y
0_
1n
1o
1`
1b
0P
1c
0e
0J
01
1f
1h
1V
1i
0k
1K
1$
1l
#290000
0#
0B
0\
1v
0^
#320000
0"
0D
0W
0O
0X
#350000
1#
1B
1\
0v
1^
#360000
1"
1D
1W
1O
1X
1u
1t
1s
1r
1q
1p
0l
0i
1k
0o
0f
0h
0c
1e
0`
0b
0Y
1_
0n
1`
1c
1f
1i
1l
1U
1T
1S
1R
1Q
1P
1E
1F
1G
1H
1I
1J
0V
11
10
1/
1.
1-
1,
0K
0$
#370000
0#
0B
0\
1v
0^
#400000
0"
0D
0W
0O
0X
#430000
1#
1B
1\
0v
1^
#440000
1"
1D
1W
1O
1X
0u
1Y
0_
0`
0P
0J
01
#450000
0#
0B
0\
1v
0^
#480000
0"
0D
0W
0O
0X
#520000
1"
1D
1W
1O
1X
#560000
0"
0D
0W
0O
0X
#600000
1"
1D
1W
1O
1X
#640000
0"
0D
0W
0O
0X
#680000
1"
1D
1W
1O
1X
#720000
0"
0D
0W
0O
0X
#760000
1"
1D
1W
1O
1X
#800000
0"
0D
0W
0O
0X
#840000
1"
1D
1W
1O
1X
#880000
0"
0D
0W
0O
0X
#920000
1"
1D
1W
1O
1X
#960000
0"
0D
0W
0O
0X
