m_saida/simulation/qsim/m_saida.msim.vcd
$comment
	File created using the following command:
		vcd file m_saida.msim.vcd -direction
$end
$date
	Fri Nov 29 10:23:25 2019
$end
$version
	ModelSim Version 10.5b
$end
$timescale
	1ps
$end

$scope module m_saida_vhd_vec_tst $end
$var wire 1 ! DS0 [6] $end
$var wire 1 " DS0 [5] $end
$var wire 1 # DS0 [4] $end
$var wire 1 $ DS0 [3] $end
$var wire 1 % DS0 [2] $end
$var wire 1 & DS0 [1] $end
$var wire 1 ' DS0 [0] $end
$var wire 1 ( DS1 [6] $end
$var wire 1 ) DS1 [5] $end
$var wire 1 * DS1 [4] $end
$var wire 1 + DS1 [3] $end
$var wire 1 , DS1 [2] $end
$var wire 1 - DS1 [1] $end
$var wire 1 . DS1 [0] $end
$var wire 1 / DS2 [6] $end
$var wire 1 0 DS2 [5] $end
$var wire 1 1 DS2 [4] $end
$var wire 1 2 DS2 [3] $end
$var wire 1 3 DS2 [2] $end
$var wire 1 4 DS2 [1] $end
$var wire 1 5 DS2 [0] $end
$var wire 1 6 DS3 [6] $end
$var wire 1 7 DS3 [5] $end
$var wire 1 8 DS3 [4] $end
$var wire 1 9 DS3 [3] $end
$var wire 1 : DS3 [2] $end
$var wire 1 ; DS3 [1] $end
$var wire 1 < DS3 [0] $end
$var wire 1 = endOP_i $end
$var wire 1 > endOP_o $end
$var wire 1 ? neg_o $end
$var wire 1 @ over_i $end
$var wire 1 A over_o $end
$var wire 1 B result_i [15] $end
$var wire 1 C result_i [14] $end
$var wire 1 D result_i [13] $end
$var wire 1 E result_i [12] $end
$var wire 1 F result_i [11] $end
$var wire 1 G result_i [10] $end
$var wire 1 H result_i [9] $end
$var wire 1 I result_i [8] $end
$var wire 1 J result_i [7] $end
$var wire 1 K result_i [6] $end
$var wire 1 L result_i [5] $end
$var wire 1 M result_i [4] $end
$var wire 1 N result_i [3] $end
$var wire 1 O result_i [2] $end
$var wire 1 P result_i [1] $end
$var wire 1 Q result_i [0] $end
$var wire 1 R zero_o $end

$scope module i1 $end
$var wire 1 S gnd $end
$var wire 1 T vcc $end
$var wire 1 U unknown $end
$var wire 1 V devoe $end
$var wire 1 W devclrn $end
$var wire 1 X devpor $end
$var wire 1 Y ww_devoe $end
$var wire 1 Z ww_devclrn $end
$var wire 1 [ ww_devpor $end
$var wire 1 \ ww_result_i [15] $end
$var wire 1 ] ww_result_i [14] $end
$var wire 1 ^ ww_result_i [13] $end
$var wire 1 _ ww_result_i [12] $end
$var wire 1 ` ww_result_i [11] $end
$var wire 1 a ww_result_i [10] $end
$var wire 1 b ww_result_i [9] $end
$var wire 1 c ww_result_i [8] $end
$var wire 1 d ww_result_i [7] $end
$var wire 1 e ww_result_i [6] $end
$var wire 1 f ww_result_i [5] $end
$var wire 1 g ww_result_i [4] $end
$var wire 1 h ww_result_i [3] $end
$var wire 1 i ww_result_i [2] $end
$var wire 1 j ww_result_i [1] $end
$var wire 1 k ww_result_i [0] $end
$var wire 1 l ww_over_i $end
$var wire 1 m ww_endOP_i $end
$var wire 1 n ww_neg_o $end
$var wire 1 o ww_zero_o $end
$var wire 1 p ww_over_o $end
$var wire 1 q ww_endOP_o $end
$var wire 1 r ww_DS0 [6] $end
$var wire 1 s ww_DS0 [5] $end
$var wire 1 t ww_DS0 [4] $end
$var wire 1 u ww_DS0 [3] $end
$var wire 1 v ww_DS0 [2] $end
$var wire 1 w ww_DS0 [1] $end
$var wire 1 x ww_DS0 [0] $end
$var wire 1 y ww_DS1 [6] $end
$var wire 1 z ww_DS1 [5] $end
$var wire 1 { ww_DS1 [4] $end
$var wire 1 | ww_DS1 [3] $end
$var wire 1 } ww_DS1 [2] $end
$var wire 1 ~ ww_DS1 [1] $end
$var wire 1 !! ww_DS1 [0] $end
$var wire 1 "! ww_DS2 [6] $end
$var wire 1 #! ww_DS2 [5] $end
$var wire 1 $! ww_DS2 [4] $end
$var wire 1 %! ww_DS2 [3] $end
$var wire 1 &! ww_DS2 [2] $end
$var wire 1 '! ww_DS2 [1] $end
$var wire 1 (! ww_DS2 [0] $end
$var wire 1 )! ww_DS3 [6] $end
$var wire 1 *! ww_DS3 [5] $end
$var wire 1 +! ww_DS3 [4] $end
$var wire 1 ,! ww_DS3 [3] $end
$var wire 1 -! ww_DS3 [2] $end
$var wire 1 .! ww_DS3 [1] $end
$var wire 1 /! ww_DS3 [0] $end
$var wire 1 0! \neg_o~output_o\ $end
$var wire 1 1! \zero_o~output_o\ $end
$var wire 1 2! \over_o~output_o\ $end
$var wire 1 3! \endOP_o~output_o\ $end
$var wire 1 4! \DS0[0]~output_o\ $end
$var wire 1 5! \DS0[1]~output_o\ $end
$var wire 1 6! \DS0[2]~output_o\ $end
$var wire 1 7! \DS0[3]~output_o\ $end
$var wire 1 8! \DS0[4]~output_o\ $end
$var wire 1 9! \DS0[5]~output_o\ $end
$var wire 1 :! \DS0[6]~output_o\ $end
$var wire 1 ;! \DS1[0]~output_o\ $end
$var wire 1 <! \DS1[1]~output_o\ $end
$var wire 1 =! \DS1[2]~output_o\ $end
$var wire 1 >! \DS1[3]~output_o\ $end
$var wire 1 ?! \DS1[4]~output_o\ $end
$var wire 1 @! \DS1[5]~output_o\ $end
$var wire 1 A! \DS1[6]~output_o\ $end
$var wire 1 B! \DS2[0]~output_o\ $end
$var wire 1 C! \DS2[1]~output_o\ $end
$var wire 1 D! \DS2[2]~output_o\ $end
$var wire 1 E! \DS2[3]~output_o\ $end
$var wire 1 F! \DS2[4]~output_o\ $end
$var wire 1 G! \DS2[5]~output_o\ $end
$var wire 1 H! \DS2[6]~output_o\ $end
$var wire 1 I! \DS3[0]~output_o\ $end
$var wire 1 J! \DS3[1]~output_o\ $end
$var wire 1 K! \DS3[2]~output_o\ $end
$var wire 1 L! \DS3[3]~output_o\ $end
$var wire 1 M! \DS3[4]~output_o\ $end
$var wire 1 N! \DS3[5]~output_o\ $end
$var wire 1 O! \DS3[6]~output_o\ $end
$var wire 1 P! \result_i[15]~input_o\ $end
$var wire 1 Q! \result_i[14]~input_o\ $end
$var wire 1 R! \result_i[12]~input_o\ $end
$var wire 1 S! \result_i[13]~input_o\ $end
$var wire 1 T! \Equal0~3_combout\ $end
$var wire 1 U! \result_i[8]~input_o\ $end
$var wire 1 V! \result_i[11]~input_o\ $end
$var wire 1 W! \result_i[9]~input_o\ $end
$var wire 1 X! \result_i[10]~input_o\ $end
$var wire 1 Y! \Equal0~2_combout\ $end
$var wire 1 Z! \result_i[1]~input_o\ $end
$var wire 1 [! \result_i[3]~input_o\ $end
$var wire 1 \! \result_i[2]~input_o\ $end
$var wire 1 ]! \result_i[0]~input_o\ $end
$var wire 1 ^! \Equal0~0_combout\ $end
$var wire 1 _! \result_i[5]~input_o\ $end
$var wire 1 `! \result_i[6]~input_o\ $end
$var wire 1 a! \result_i[4]~input_o\ $end
$var wire 1 b! \result_i[7]~input_o\ $end
$var wire 1 c! \Equal0~1_combout\ $end
$var wire 1 d! \Equal0~4_combout\ $end
$var wire 1 e! \over_i~input_o\ $end
$var wire 1 f! \endOP_i~input_o\ $end
$var wire 1 g! \display0|Mux0~0_combout\ $end
$var wire 1 h! \display0|Mux1~0_combout\ $end
$var wire 1 i! \display0|Mux2~0_combout\ $end
$var wire 1 j! \display0|Mux3~0_combout\ $end
$var wire 1 k! \display0|Mux4~0_combout\ $end
$var wire 1 l! \display0|Mux5~0_combout\ $end
$var wire 1 m! \display0|Mux6~0_combout\ $end
$var wire 1 n! \display1|Mux0~0_combout\ $end
$var wire 1 o! \display1|Mux1~0_combout\ $end
$var wire 1 p! \display1|Mux2~0_combout\ $end
$var wire 1 q! \display1|Mux3~0_combout\ $end
$var wire 1 r! \display1|Mux4~0_combout\ $end
$var wire 1 s! \display1|Mux5~0_combout\ $end
$var wire 1 t! \display1|Mux6~0_combout\ $end
$var wire 1 u! \display2|Mux0~0_combout\ $end
$var wire 1 v! \display2|Mux1~0_combout\ $end
$var wire 1 w! \display2|Mux2~0_combout\ $end
$var wire 1 x! \display2|Mux3~0_combout\ $end
$var wire 1 y! \display2|Mux4~0_combout\ $end
$var wire 1 z! \display2|Mux5~0_combout\ $end
$var wire 1 {! \display2|Mux6~0_combout\ $end
$var wire 1 |! \display3|Mux0~0_combout\ $end
$var wire 1 }! \display3|Mux1~0_combout\ $end
$var wire 1 ~! \display3|Mux2~0_combout\ $end
$var wire 1 !" \display3|Mux3~0_combout\ $end
$var wire 1 "" \display3|Mux4~0_combout\ $end
$var wire 1 #" \display3|Mux5~0_combout\ $end
$var wire 1 $" \display3|Mux6~0_combout\ $end
$var wire 1 %" \ALT_INV_endOP_i~input_o\ $end
$var wire 1 &" \ALT_INV_over_i~input_o\ $end
$var wire 1 '" \ALT_INV_result_i[15]~input_o\ $end
$var wire 1 (" \display3|ALT_INV_Mux6~0_combout\ $end
$var wire 1 )" \display2|ALT_INV_Mux6~0_combout\ $end
$var wire 1 *" \display1|ALT_INV_Mux6~0_combout\ $end
$var wire 1 +" \display0|ALT_INV_Mux6~0_combout\ $end
$var wire 1 ," \ALT_INV_Equal0~4_combout\ $end
$upscope $end
$upscope $end
$enddefinitions $end
#0
$dumpvars
1=
0>
1?
0@
1A
0R
0S
1T
xU
1V
1W
1X
1Y
1Z
1[
0l
1m
1n
0o
1p
0q
10!
01!
12!
03!
04!
05!
06!
07!
08!
09!
1:!
0;!
0<!
0=!
0>!
0?!
0@!
1A!
0B!
0C!
0D!
0E!
0F!
0G!
1H!
0I!
0J!
0K!
0L!
0M!
0N!
1O!
0P!
0Q!
0R!
0S!
1T!
0U!
0V!
0W!
0X!
1Y!
0Z!
0[!
0\!
0]!
1^!
0_!
0`!
0a!
0b!
1c!
1d!
0e!
1f!
0g!
0h!
0i!
0j!
0k!
0l!
0m!
0n!
0o!
0p!
0q!
0r!
0s!
0t!
0u!
0v!
0w!
0x!
0y!
0z!
0{!
0|!
0}!
0~!
0!"
0""
0#"
0$"
0%"
1&"
1'"
1("
1)"
1*"
1+"
0,"
0B
0C
0D
0E
0F
0G
0H
0I
0J
0K
0L
0M
0N
0O
0P
0Q
0\
0]
0^
0_
0`
0a
0b
0c
0d
0e
0f
0g
0h
0i
0j
0k
1r
0s
0t
0u
0v
0w
0x
1y
0z
0{
0|
0}
0~
0!!
1"!
0#!
0$!
0%!
0&!
0'!
0(!
1)!
0*!
0+!
0,!
0-!
0.!
0/!
1!
0"
0#
0$
0%
0&
0'
1(
0)
0*
0+
0,
0-
0.
1/
00
01
02
03
04
05
16
07
08
09
0:
0;
0<
$end
#40000
1@
0=
1l
0m
0f!
1e!
0&"
1%"
13!
02!
1q
0p
1>
0A
#60000
1E
1I
1M
1Q
1k
1g
1c
1_
1R!
1U!
1a!
1]!
0^!
1g!
1j!
1k!
1l!
0c!
1n!
1q!
1r!
1s!
0Y!
1u!
1x!
1y!
1z!
0T!
1|!
1!"
1""
1#"
0d!
1,"
1N!
1M!
1L!
1I!
1G!
1F!
1E!
1B!
1@!
1?!
1>!
1;!
19!
18!
17!
14!
1*!
1+!
1,!
1/!
1#!
1$!
1%!
1(!
1z
1{
1|
1!!
1s
1t
1u
1x
1<
19
18
17
15
12
11
10
1.
1+
1*
1)
1'
1$
1#
1"
11!
1o
1R
#80000
0@
1=
0l
1m
1f!
0e!
1&"
0%"
03!
12!
0q
1p
0>
1A
#120000
1@
0=
0E
0I
0M
0Q
1D
1H
1L
1P
1l
0m
0k
1j
0g
1f
0c
1b
0_
1^
1S!
0R!
1W!
0U!
1_!
0a!
1Z!
0]!
0f!
1e!
0&"
1%"
0g!
1i!
0j!
0k!
1m!
0n!
1p!
0q!
0r!
1t!
0u!
1w!
0x!
0y!
1{!
0|!
1~!
0!"
0""
1$"
0("
0)"
0*"
0+"
13!
02!
0M!
0L!
1K!
0I!
0F!
0E!
1D!
0B!
0?!
0>!
1=!
0;!
08!
07!
16!
04!
1q
0p
0:!
0A!
0H!
0O!
0+!
0,!
1-!
0/!
0$!
0%!
1&!
0(!
0{
0|
1}
0!!
0t
0u
1v
0x
1>
0A
0r
0y
0"!
0)!
0<
1:
09
08
05
13
02
01
0.
1,
0+
0*
0'
1%
0$
0#
0!
0(
0/
06
#160000
0@
1=
0l
1m
1f!
0e!
1&"
0%"
03!
12!
0q
1p
0>
1A
#180000
1E
1I
1M
1Q
1k
1g
1c
1_
1R!
1U!
1a!
1]!
0i!
1k!
0p!
1r!
0w!
1y!
0~!
1""
1M!
0K!
1F!
0D!
1?!
0=!
18!
06!
1+!
0-!
1$!
0&!
1{
0}
1t
0v
0:
18
03
11
0,
1*
0%
1#
#200000
1@
0=
1l
0m
0f!
1e!
0&"
1%"
13!
02!
1q
0p
1>
0A
#240000
0@
1=
0E
0I
0M
0Q
0D
0H
0L
0P
1C
1G
1K
1O
0l
1m
0k
0j
1i
0g
0f
1e
0c
0b
1a
0_
0^
1]
1Q!
0S!
0R!
1X!
0W!
0U!
1`!
0_!
0a!
1\!
0Z!
0]!
1f!
0e!
1&"
0%"
1g!
1j!
0l!
1n!
1q!
0s!
1u!
1x!
0z!
1|!
1!"
0#"
03!
12!
0N!
1L!
1I!
0G!
1E!
1B!
0@!
1>!
1;!
09!
17!
14!
0q
1p
0*!
1,!
1/!
0#!
1%!
1(!
0z
1|
1!!
0s
1u
1x
0>
1A
1<
19
07
15
12
00
1.
1+
0)
1'
1$
0"
#280000
1@
0=
1l
0m
0f!
1e!
0&"
1%"
13!
02!
1q
0p
1>
0A
#300000
1E
1I
1M
1Q
1k
1g
1c
1_
1R!
1U!
1a!
1]!
0g!
1h!
0j!
0n!
1o!
0q!
0u!
1v!
0x!
0|!
1}!
0!"
0L!
1J!
0I!
0E!
1C!
0B!
0>!
1<!
0;!
07!
15!
04!
0,!
1.!
0/!
0%!
1'!
0(!
0|
1~
0!!
0u
1w
0x
0<
1;
09
05
14
02
0.
1-
0+
0'
1&
0$
#320000
0@
1=
0l
1m
1f!
0e!
1&"
0%"
03!
12!
0q
1p
0>
1A
#360000
1@
0=
0E
0I
0M
0Q
1D
1H
1L
1P
1l
0m
0k
1j
0g
1f
0c
1b
0_
1^
1S!
0R!
1W!
0U!
1_!
0a!
1Z!
0]!
0f!
1e!
0&"
1%"
0k!
0r!
0y!
0""
13!
02!
0M!
0F!
0?!
08!
1q
0p
0+!
0$!
0{
0t
1>
0A
08
01
0*
0#
#400000
0@
1=
0l
1m
1f!
0e!
1&"
0%"
03!
12!
0q
1p
0>
1A
#420000
1E
1I
1M
1Q
1k
1g
1c
1_
1R!
1U!
1a!
1]!
0h!
1j!
1k!
1l!
0m!
0o!
1q!
1r!
1s!
0t!
0v!
1x!
1y!
1z!
0{!
0}!
1!"
1""
1#"
0$"
1("
1)"
1*"
1+"
1N!
1M!
1L!
0J!
1G!
1F!
1E!
0C!
1@!
1?!
1>!
0<!
19!
18!
17!
05!
1:!
1A!
1H!
1O!
1*!
1+!
1,!
0.!
1#!
1$!
1%!
0'!
1z
1{
1|
0~
1s
1t
1u
0w
1r
1y
1"!
1)!
0;
19
18
17
04
12
11
10
0-
1+
1*
1)
0&
1$
1#
1"
1!
1(
1/
16
#440000
1@
0=
1l
0m
0f!
1e!
0&"
1%"
13!
02!
1q
0p
1>
0A
#480000
0@
1=
0E
0I
0M
0Q
0D
0H
0L
0P
0C
0G
0K
0O
1B
1F
1J
1N
0l
1m
0k
0j
0i
1h
0g
0f
0e
1d
0c
0b
0a
1`
0_
0^
0]
1\
1P!
0Q!
0S!
0R!
1V!
0X!
0W!
0U!
1b!
0`!
0_!
0a!
1[!
0\!
0Z!
0]!
1f!
0e!
1&"
0%"
0'"
0j!
0k!
0l!
1m!
0q!
0r!
0s!
1t!
0x!
0y!
0z!
1{!
0!"
0""
0#"
1$"
0("
0)"
0*"
0+"
00!
03!
12!
0N!
0M!
0L!
0G!
0F!
0E!
0@!
0?!
0>!
09!
08!
07!
0n
0q
1p
0:!
0A!
0H!
0O!
0*!
0+!
0,!
0#!
0$!
0%!
0z
0{
0|
0s
0t
0u
0?
0>
1A
0r
0y
0"!
0)!
09
08
07
02
01
00
0+
0*
0)
0$
0#
0"
0!
0(
0/
06
#520000
1@
0=
1l
0m
0f!
1e!
0&"
1%"
13!
02!
1q
0p
1>
0A
#540000
1E
1I
1M
1Q
1k
1g
1c
1_
1R!
1U!
1a!
1]!
1k!
1r!
1y!
1""
1M!
1F!
1?!
18!
1+!
1$!
1{
1t
18
11
1*
1#
#560000
0@
1=
0l
1m
1f!
0e!
1&"
0%"
03!
12!
0q
1p
0>
1A
#600000
1@
0=
0E
0I
0M
0Q
1D
1H
1L
1P
1l
0m
0k
1j
0g
1f
0c
1b
0_
1^
1S!
0R!
1W!
0U!
1_!
0a!
1Z!
0]!
0f!
1e!
0&"
1%"
1j!
0k!
1q!
0r!
1x!
0y!
1!"
0""
13!
02!
0M!
1L!
0F!
1E!
0?!
1>!
08!
17!
1q
0p
0+!
1,!
0$!
1%!
0{
1|
0t
1u
1>
0A
19
08
12
01
1+
0*
1$
0#
#640000
0@
1=
0l
1m
1f!
0e!
1&"
0%"
03!
12!
0q
1p
0>
1A
#660000
1E
1I
1M
1Q
1k
1g
1c
1_
1R!
1U!
1a!
1]!
1g!
1h!
0j!
1n!
1o!
0q!
1u!
1v!
0x!
1|!
1}!
0!"
0L!
1J!
1I!
0E!
1C!
1B!
0>!
1<!
1;!
07!
15!
14!
0,!
1.!
1/!
0%!
1'!
1(!
0|
1~
1!!
0u
1w
1x
1<
1;
09
15
14
02
1.
1-
0+
1'
1&
0$
#680000
1@
0=
1l
0m
0f!
1e!
0&"
1%"
13!
02!
1q
0p
1>
0A
#720000
0@
1=
0E
0I
0M
0Q
0D
0H
0L
0P
1C
1G
1K
1O
0l
1m
0k
0j
1i
0g
0f
1e
0c
0b
1a
0_
0^
1]
1Q!
0S!
0R!
1X!
0W!
0U!
1`!
0_!
0a!
1\!
0Z!
0]!
1f!
0e!
1&"
0%"
0g!
1i!
0m!
0n!
1p!
0t!
0u!
1w!
0{!
0|!
1~!
0$"
1("
1)"
1*"
1+"
03!
12!
1K!
0I!
1D!
0B!
1=!
0;!
16!
04!
0q
1p
1:!
1A!
1H!
1O!
1-!
0/!
1&!
0(!
1}
0!!
1v
0x
0>
1A
1r
1y
1"!
1)!
0<
1:
05
13
0.
1,
0'
1%
1!
1(
1/
16
#760000
1@
0=
1l
0m
0f!
1e!
0&"
1%"
13!
02!
1q
0p
1>
0A
#780000
1E
1I
1M
1Q
1k
1g
1c
1_
1R!
1U!
1a!
1]!
1g!
0h!
0i!
1l!
1m!
1n!
0o!
0p!
1s!
1t!
1u!
0v!
0w!
1z!
1{!
1|!
0}!
0~!
1#"
1$"
0("
0)"
0*"
0+"
1N!
0K!
0J!
1I!
1G!
0D!
0C!
1B!
1@!
0=!
0<!
1;!
19!
06!
05!
14!
0:!
0A!
0H!
0O!
1*!
0-!
0.!
1/!
1#!
0&!
0'!
1(!
1z
0}
0~
1!!
1s
0v
0w
1x
0r
0y
0"!
0)!
1<
0;
0:
17
15
04
03
10
1.
0-
0,
1)
1'
0&
0%
1"
0!
0(
0/
06
#800000
0@
1=
0l
1m
1f!
0e!
1&"
0%"
03!
12!
0q
1p
0>
1A
#840000
1@
0=
0E
0I
0M
0Q
1D
1H
1L
1P
1l
0m
0k
1j
0g
1f
0c
1b
0_
1^
1S!
0R!
1W!
0U!
1_!
0a!
1Z!
0]!
0f!
1e!
0&"
1%"
0g!
1h!
1i!
0l!
0n!
1o!
1p!
0s!
0u!
1v!
1w!
0z!
0|!
1}!
1~!
0#"
13!
02!
0N!
1K!
1J!
0I!
0G!
1D!
1C!
0B!
0@!
1=!
1<!
0;!
09!
16!
15!
04!
1q
0p
0*!
1-!
1.!
0/!
0#!
1&!
1'!
0(!
0z
1}
1~
0!!
0s
1v
1w
0x
1>
0A
0<
1;
1:
07
05
14
13
00
0.
1-
1,
0)
0'
1&
1%
0"
#880000
0@
1=
0l
1m
1f!
0e!
1&"
0%"
03!
12!
0q
1p
0>
1A
#900000
1E
1I
1M
1Q
1k
1g
1c
1_
1R!
1U!
1a!
1]!
1j!
1q!
1x!
1!"
1L!
1E!
1>!
17!
1,!
1%!
1|
1u
19
12
1+
1$
#920000
1@
0=
1l
0m
0f!
1e!
0&"
1%"
13!
02!
1q
0p
1>
0A
#960000
0@
1=
0E
0I
0M
0Q
0D
0H
0L
0P
0C
0G
0K
0O
0B
0F
0J
0N
0l
1m
0k
0j
0i
0h
0g
0f
0e
0d
0c
0b
0a
0`
0_
0^
0]
0\
0P!
0Q!
0S!
0R!
0V!
0X!
0W!
0U!
0b!
0`!
0_!
0a!
0[!
0\!
0Z!
0]!
1f!
0e!
1&"
0%"
1'"
1^!
0h!
0i!
0j!
0m!
1c!
0o!
0p!
0q!
0t!
1Y!
0v!
0w!
0x!
0{!
1T!
0}!
0~!
0!"
0$"
1("
1)"
1*"
1+"
1d!
0,"
10!
03!
12!
0L!
0K!
0J!
0E!
0D!
0C!
0>!
0=!
0<!
07!
06!
05!
1n
0q
1p
1:!
1A!
1H!
1O!
0,!
0-!
0.!
0%!
0&!
0'!
0|
0}
0~
0u
0v
0w
1?
0>
1A
1r
1y
1"!
1)!
0;
0:
09
04
03
02
0-
0,
0+
0&
0%
0$
01!
1!
1(
1/
16
0o
0R
